﻿ig_rural_folk = {
	color = hsv{ 0.32 0.45 0.47 }
	texture = "gfx/interface/icons/ig_icons/rural_folk.dds"
	layer = "revolution_dynamic_rural_folk"
	index = 6

	ideologies = {
		ideology_agrarian
		ideology_particularist
		ideology_isolationist
		ideology_luddite_mechanim
	}
	
	character_ideologies = {
		ideology_moderate
		ideology_pacifist
	}

	enable = {
		always = yes
	}

	# Deprecated; use on_enable effect to assign traits instead
	traits = {
		ig_trait_farmers_markets
		ig_trait_honest_work
		ig_trait_old_ways
	}

	on_enable = {
		ig:ig_rural_folk = {
			if = {
				limit = {
					owner = { c:A01 ?= this }	#dummy
				}
				set_ig_trait = ig_trait:ig_trait_old_ways
				set_ig_trait = ig_trait:ig_trait_honest_work
				set_ig_trait = ig_trait:ig_trait_farmers_markets
			}
			if = {
				limit = {
					owner = { c:E01 ?= this }
				}
				set_ig_trait = ig_trait:ig_trait_old_ways
				set_ig_trait = ig_trait:ig_trait_honest_work
				set_ig_trait = ig_trait:ig_trait_heaven_upon_halann
			}
			else = {
				set_ig_trait = ig_trait:ig_trait_old_ways
				set_ig_trait = ig_trait:ig_trait_honest_work
				set_ig_trait = ig_trait:ig_trait_farmers_markets
			}
		}

		### Specific
		# Frontier Expansion Ideology. Given to Aelantiri colonies/settlers who are actually still colonizing 
		if = {
			limit = {
				OR = {
					c:B03 ?= this
					c:B04 ?= this
					c:B71 ?= this
					c:B76 ?= this
					country_has_primary_culture = cu:vanburian
					country_has_primary_culture = cu:dustman
					country_has_primary_culture = cu:steadsman
					country_has_primary_culture = cu:horizon_elf
					country_has_primary_culture = cu:soot_goblin
					country_has_primary_culture = cu:steelscale_kobold
					country_has_primary_culture = cu:tinker_gnome
					country_has_primary_culture = cu:dhanaenno
					country_has_primary_culture = cu:dawn_elf
					country_has_primary_culture = cu:ozgar_orc
					country_has_primary_culture = cu:amadian
					country_has_primary_culture = cu:drakesman
					country_has_primary_culture = cu:crager
					country_has_primary_culture = cu:kioha_harpy
					country_has_primary_culture = cu:neratican
					country_has_primary_culture = cu:minarian
				}
			}
			ig:ig_rural_folk = {
				remove_ideology = ideology_isolationist
				add_ideology = ideology_isolationist_expansionism
			}
		}
		if = {
			limit = {
				c:E01 ?= this
			}
			ig:ig_rural_folk = {
				set_interest_group_name = ig_lake_children
				#remove_ideology = ideology_particularist
				#add_ideology = ideology_liberal
				add_ideology = ideology_triunic_children
			}
		}
	}
	on_disable = {}
	priority_cultures = {
		rule = {
			trigger = { c:A00 ?= this }
			cultures = {
				testorian 
			}
		}
		rule = {
			trigger = { c:A01 ?= this }
			cultures = {
				costine west_damerian east_damerian pearlsedger esmari vernman crownsman arbarani exwesser wexonard arannese uelairey vertesker havener_elf silver_dwarf imperial_gnome beefoot_halfling dovesworn_gnoll cannorian_half_orc city_goblin
			}
		}
		rule = {
			trigger = { c:A02 ?= this }
			cultures = {
				arannese corvurian 
			}
		}
		rule = {
			trigger = { c:A03 ?= this }
			cultures = {
				lorentish 
			}
		}
		rule = {
			trigger = { c:A04 ?= this }
			cultures = {
				gawedi 
			}
		}
		rule = {
			trigger = { c:A05 ?= this }
			cultures = {
				wexonard 
			}
		}
		rule = {
			trigger = { c:A06 ?= this }
			cultures = {
				cliff_gnome creek_gnome 
			}
		}
		rule = {
			trigger = { c:A07 ?= this }
			cultures = {
				reverian 
			}
		}
		rule = {
			trigger = { c:A08 ?= this }
			cultures = {
				tefori 
			}
		}
		rule = {
			trigger = { c:A09 ?= this }
			cultures = {
				busilari 
			}
		}
		rule = {
			trigger = { c:A10 ?= this }
			cultures = {
				grombari_half_orc grombari_orc 
			}
		}
		rule = {
			trigger = { c:A11 ?= this }
			cultures = {
				dovesworn_gnoll
			}
		}
		rule = {
			trigger = { c:A12 ?= this }
			cultures = {
				common_goblin
			}
		}
		rule = {
			trigger = { c:A13 ?= this }
			cultures = {
				iron_dwarf 
			}
		}
		rule = {
			trigger = { c:A14 ?= this }
			cultures = {
				redfoot_halfling bluefoot_halfling 
			}
		}
		rule = {
			trigger = { c:A15 ?= this }
			cultures = {
				creek_gnome 
			}
		}
		rule = {
			trigger = { c:A16 ?= this }
			cultures = {
				kobildzani_kobold 
			}
		}
		rule = {
			trigger = { c:A17 ?= this }
			cultures = {
				cliff_gnome kobildzani_kobold 
			}
		}
		rule = {
			trigger = { c:A18 ?= this }
			cultures = {
				city_goblin blue_reachman 
			}
		}
		rule = {
			trigger = { c:A19 ?= this }
			cultures = {
				vertesker cannorian_half_orc 
			}
		}
		rule = {
			trigger = { c:A20 ?= this }
			cultures = {
				ibevari_elf 
			}
		}
		rule = {
			trigger = { c:A21 ?= this }
			cultures = {
				farrani 
			}
		}
		rule = {
			trigger = { c:A22 ?= this }
			cultures = {
				ancardian 
			}
		}
		rule = {
			trigger = { c:A23 ?= this }
			cultures = {
				elikhander 
			}
		}
		rule = {
			trigger = { c:A24 ?= this }
			cultures = {
				newfoot_halfling 
			}
		}
		rule = {
			trigger = { c:A25 ?= this }
			cultures = {
				ionnic 
			}
		}
		rule = {
			trigger = { c:A26 ?= this }
			cultures = {
				heartman 
			}
		}
		rule = {
			trigger = { c:A27 ?= this }
			cultures = {
				marcher 
			}
		}
		rule = {
			trigger = { c:A28 ?= this }
			cultures = {
				rosanda 
			}
		}
		rule = {
			trigger = { c:A29 ?= this }
			cultures = {
				marrodic 
			}
		}
		rule = {
			trigger = { c:A30 ?= this }
			cultures = {
				nurcestiran 
			}
		}
		rule = {
			trigger = { c:A31 ?= this }
			cultures = {
				ungulan_orc 
			}
		}
		rule = {
			trigger = { c:A32 ?= this }
			cultures = {
				marcher 
			}
		}
		rule = {
			trigger = { c:A33 ?= this }
			cultures = {
				east_damerian arannese 
			}
		}
		rule = {
			trigger = { c:A34 ?= this }
			cultures = {
				crownsman 
			}
		}
		rule = {
			trigger = { c:A35 ?= this }
			cultures = {
				uelairey 
			}
		}
		rule = {
			trigger = { c:A36 ?= this }
			cultures = {
				blue_reachman city_goblin maldorian_elf
			}
		}
		rule = {
			trigger = { c:A37 ?= this }
			cultures = {
				silver_dwarf 
			}
		}
		rule = {
			trigger = { c:A38 ?= this }
			cultures = {
				stalboric 
			}
		}
		rule = {
			trigger = { c:A39 ?= this }
			cultures = {
				white_reachman 
			}
		}
		rule = {
			trigger = { c:A40 ?= this }
			cultures = {
				luciander 
			}
		}
		rule = {
			trigger = { c:A41 ?= this }
			cultures = {
				wexonard 
			}
		}
		rule = {
			trigger = { c:A42 ?= this }
			cultures = {
				iochander creek_gnome 
			}
		}
		rule = {
			trigger = { c:A43 ?= this }
			cultures = {
				beefoot_halfling 
			}
		}
		rule = {
			trigger = { c:A44 ?= this }
			cultures = {
				havener_elf 
			}
		}
		rule = {
			trigger = { c:A45 ?= this }
			cultures = {
				pearlsedger 
			}
		}
		rule = {
			trigger = { c:A46 ?= this }
			cultures = {
				imperial_gnome 
			}
		}
		rule = {
			trigger = { c:A47 ?= this }
			cultures = {
				barumandi_orc 
			}
		}
		rule = {
			trigger = { c:A48 ?= this }
			cultures = {
				vernman 
			}
		}
		rule = {
			trigger = { c:A49 ?= this }
			cultures = {
				west_damerian pearlsedger roilsardi 
			}
		}
		rule = {
			trigger = { c:A50 ?= this }
			cultures = {
				west_damerian 
			}
		}
		rule = {
			trigger = { c:A51 ?= this }
			cultures = {
				east_damerian 
			}
		}
		rule = {
			trigger = { c:A52 ?= this }
			cultures = {
				jarnklo_harpy
			}
		}
		rule = {
			trigger = { c:A55 ?= this }
			cultures = {
				pashainey 
			}
		}
		rule = {
			trigger = { c:A57 ?= this }
			cultures = {
				east_damerian west_damerian 
			}
		}
		rule = {
			trigger = { c:A58 ?= this }
			cultures = {
				gawedi 
			}
		}
		rule = {
			trigger = { c:A59 ?= this }
			cultures = {
				moorman 
			}
		}
		rule = {
			trigger = { c:A62 ?= this }
			cultures = {
				dalr 
			}
		}
		rule = {
			trigger = { c:A63 ?= this }
			cultures = {
				fjord_troll 
			}
		}
		rule = {
			trigger = { c:A64 ?= this }
			cultures = {
				olavish 
			}
		}
		rule = {
			trigger = { c:A65 ?= this }
			cultures = {
				redglader_elf 
			}
		}
		rule = {
			trigger = { c:A66 ?= this }
			cultures = {
				corvurian 
			}
		}
		rule = {
			trigger = { c:A67 ?= this }
			cultures = {
				arannese 
			}
		}
		rule = {
			trigger = { c:A68 ?= this }
			cultures = {
				arbarani 
			}
		}
		rule = {
			trigger = { c:A69 ?= this }
			cultures = {
				esmari 
			}
		}
		rule = {
			trigger = { c:A70 ?= this }
			cultures = {
				nathalairey 
			}
		}
		rule = {
			trigger = { c:A72 ?= this }
			cultures = {
				maldorian_elf 
			}
		}
		rule = {
			trigger = { c:A73 ?= this }
			cultures = {
				sorncosti 
			}
		}
		rule = {
			trigger = { c:A74 ?= this }
			cultures = {
				roilsardi 
			}
		}
		rule = {
			trigger = { c:A75 ?= this }
			cultures = {
				ruby_dwarf 
			}
		}
		rule = {
			trigger = { c:A76 ?= this }
			cultures = {
				flamemarked_gnoll 
			}
		}
		rule = {
			trigger = { c:A77 ?= this }
			cultures = {
				exwesser 
			}
		}
		rule = {
			trigger = { c:A78 ?= this }
			cultures = {
				derannic 
			}
		}
		rule = {
			trigger = { c:A79 ?= this }
			cultures = {
				wood_elven 
			}
		}
		rule = {
			trigger = { c:A80 ?= this }
			cultures = {
				soyzkaru_goblin 
			}
		}
		rule = {
			trigger = { c:A81 ?= this }
			cultures = {
				ourdi 
			}
		}
		rule = {
			trigger = { c:A82 ?= this }
			cultures = {
				nurcestiran ionnic heartman marcher rosanda marrodic stalboric ancardian farrani luciander elikhander newfoot_halfling iron_dwarf ungulan_orc common_goblin cannorian_half_orc
			}
		}
		rule = {
			trigger = { c:B01 ?= this }
			cultures = {
				alloy_dwarf 
			}
		}
		rule = {
			trigger = { c:B02 ?= this }
			cultures = {
				ruinscourge_gnoll 
			}
		}
		rule = {
			trigger = { c:B03 ?= this }
			cultures = {
				arbarani crownsman 
 
			}
		}
		rule = {
			trigger = { c:B04 ?= this }
			cultures = {
				derannic 
			}
		}
		rule = {
			trigger = { c:B05 ?= this }
			cultures = {
				vanburian 
			}
		}
		rule = {
			trigger = { c:B06 ?= this }
			cultures = {
				abtazari 
			}
		}
		rule = {
			trigger = { c:B07 ?= this }
			cultures = {
				tinker_gnome soot_goblin steelscale_kobold 
			}
		}
		rule = {
			trigger = { c:B08 ?= this }
			cultures = {
				crager 
			}
		}
		rule = {
			trigger = { c:B09 ?= this }
			cultures = {
				minarian 
			}
		}
		rule = {
			trigger = { c:B10 ?= this }
			cultures = {
				haraf_ne 
			}
		}
		rule = {
			trigger = { c:B11 ?= this }
			cultures = {
				epednar 
			}
		}
		rule = {
			trigger = { c:B12 ?= this }
			cultures = {
				pearlsedger 
			}
		}
		rule = {
			trigger = { c:B13 ?= this }
			cultures = {
				havener_elf 
			}
		}
		rule = {
			trigger = { c:B14 ?= this }
			cultures = {
				endralliander 
			}
		}
		rule = {
			trigger = { c:B15 ?= this }
			cultures = {
				lorentish 
			}
		}
		rule = {
			trigger = { c:B16 ?= this }
			cultures = {
				pearlsedger 
			}
		}
		rule = {
			trigger = { c:B17 ?= this }
			cultures = {
				star_elf 
			}
		}
		rule = {
			trigger = { c:B18 ?= this }
			cultures = {
				bloodgrover 
			}
		}
		rule = {
			trigger = { c:B19 ?= this }
			cultures = {
				concordian 
			}
		}
		rule = {
			trigger = { c:B20 ?= this }
			cultures = {
				concordian 
			}
		}
		rule = {
			trigger = { c:B21 ?= this }
			cultures = {
				boek concordian 
			}
		}
		rule = {
			trigger = { c:B22 ?= this }
			cultures = {
				zanlibi 
			}
		}
		rule = {
			trigger = { c:B23 ?= this }
			cultures = {
				concordian 
			}
		}
		rule = {
			trigger = { c:B24 ?= this }
			cultures = {
				towerfoot_halfling 
			}
		}
		rule = {
			trigger = { c:B25 ?= this }
			cultures = {
				concordian valorborn 
			}
		}
		rule = {
			trigger = { c:B26 ?= this }
			cultures = {
				lorentish cheshoshi 
			}
		}
		rule = {
			trigger = { c:B27 ?= this }
			cultures = {
				neratican 
			}
		}
		rule = {
			trigger = { c:B28 ?= this }
			cultures = {
				cheshoshi 
			}
		}
		rule = {
			trigger = { c:B29 ?= this }
			cultures = {
				sarda 
			}
		}
		rule = {
			trigger = { c:B30 ?= this }
			cultures = {
				ynngarder_half_orc 
			}
		}
		rule = {
			trigger = { c:B31 ?= this }
			cultures = {
				veykodan 
			}
		}
		rule = {
			trigger = { c:B32 ?= this }
			cultures = {
				pipefoot_halfling 
			}
		}
		rule = {
			trigger = { c:B33 ?= this }
			cultures = {
				east_ynnsman 
			}
		}
		rule = {
			trigger = { c:B34 ?= this }
			cultures = {
				steadsman 
			}
		}
		rule = {
			trigger = { c:B35 ?= this }
			cultures = {
				east_ynnsman 
			}
		}
		rule = {
			trigger = { c:B36 ?= this }
			cultures = {
				steel_dwarf 
			}
		}
		rule = {
			trigger = { c:B37 ?= this }
			cultures = {
				horizon_elf 
			}
		}
		rule = {
			trigger = { c:B38 ?= this }
			cultures = {
				dolindhan 
			}
		}
		rule = {
			trigger = { c:B39 ?= this }
			cultures = {
				dolindhan 
			}
		}
		rule = {
			trigger = { c:B40 ?= this }
			cultures = {
				epednar 
			}
		}
		rule = {
			trigger = { c:B41 ?= this }
			cultures = {
				steadsman 
			}
		}
		rule = {
			trigger = { c:B42 ?= this }
			cultures = {
				steadsman 
			}
		}
		rule = {
			trigger = { c:B43 ?= this }
			cultures = {
				chiunife 
			}
		}
		rule = {
			trigger = { c:B44 ?= this }
			cultures = {
				dustman 
			}
		}
		rule = {
			trigger = { c:B45 ?= this }
			cultures = {
				sarda 
			}
		}
		rule = {
			trigger = { c:B46 ?= this }
			cultures = {
				sarda 
			}
		}
		rule = {
			trigger = { c:B47 ?= this }
			cultures = {
				dolindhan tuathak 
			}
		}
		rule = {
			trigger = { c:B48 ?= this }
			cultures = {
				dustman 
			}
		}
		rule = {
			trigger = { c:B49 ?= this }
			cultures = {
				rzentur 
			}
		}
		rule = {
			trigger = { c:B50 ?= this }
			cultures = {
				rzentur 
			}
		}
		rule = {
			trigger = { c:B51 ?= this }
			cultures = {
				cursed_one 
			}
		}
		rule = {
			trigger = { c:B52 ?= this }
			cultures = {
				dolindhan 
			}
		}
		rule = {
			trigger = { c:B53 ?= this }
			cultures = {
				freemarcher_half_orc 
			}
		}
		rule = {
			trigger = { c:B54 ?= this }
			cultures = {
				cursed_one 
			}
		}
		rule = {
			trigger = { c:B55 ?= this }
			cultures = {
				cursed_one 
			}
		}
		rule = {
			trigger = { c:B56 ?= this }
			cultures = {
				cursed_one 
			}
		}
		rule = {
			trigger = { c:B57 ?= this }
			cultures = {
				cursed_one 
			}
		}
		rule = {
			trigger = { c:B58 ?= this }
			cultures = {
				cursed_one 
			}
		}
		rule = {
			trigger = { c:B59 ?= this }
			cultures = {
				themarian 
			}
		}
		rule = {
			trigger = { c:B60 ?= this }
			cultures = {
				glacier_gnome 
			}
		}
		rule = {
			trigger = { c:B61 ?= this }
			cultures = {
				cliff_gnome dalairey 
			}
		}
		rule = {
			trigger = { c:B62 ?= this }
			cultures = {
				cliff_gnome vrendzani_kobold 
			}
		}
		rule = {
			trigger = { c:B63 ?= this }
			cultures = {
				cursed_one 
			}
		}
		rule = {
			trigger = { c:B64 ?= this }
			cultures = {
				cursed_one 
			}
		}
		rule = {
			trigger = { c:B65 ?= this }
			cultures = {
				dalairey vrendzani_kobold themarian 
			}
		}
		rule = {
			trigger = { c:B66 ?= this }
			cultures = {
				sarda dolindhan rzentur 
			}
		}
		rule = {
			trigger = { c:B67 ?= this }
			cultures = {
				concordian steadsman sarda east_ynnsman 
			}
		}
		rule = {
			trigger = { c:B68 ?= this }
			cultures = {
				boek 
			}
		}
		rule = {
			trigger = { c:B70 ?= this }
			cultures = {
				mayte 
			}
		}
		rule = {
			trigger = { c:B71 ?= this }
			cultures = {
				pearlsedger 
			}
		}
		rule = {
			trigger = { c:B72 ?= this }
			cultures = {
				vernman 
			}
		}
		rule = {
			trigger = { c:B73 ?= this }
			cultures = {
				mayte 
			}
		}
		rule = {
			trigger = { c:B74 ?= this }
			cultures = {
				haraf_ne 
			}
		}
		rule = {
			trigger = { c:B75 ?= this }
			cultures = {
				crager 
			}
		}
		rule = {
			trigger = { c:B76 ?= this }
			cultures = {
				haiwai 
			}
		}
		rule = {
			trigger = { c:B79 ?= this }
			cultures = {
				haraf_ne 
			}
		}
		rule = {
			trigger = { c:B80 ?= this }
			cultures = {
				cliff_gnome 
			}
		}
		rule = {
			trigger = { c:B81 ?= this }
			cultures = {
				tuathak 
			}
		}
		rule = {
			trigger = { c:B82 ?= this }
			cultures = {
				tuathak 
			}
		}
		rule = {
			trigger = { c:B83 ?= this }
			cultures = {
				tuathak 
			}
		}
		rule = {
			trigger = { c:B84 ?= this }
			cultures = {
				selphereg 
			}
		}
		rule = {
			trigger = { c:B85 ?= this }
			cultures = {
				caamas 
			}
		}
		rule = {
			trigger = { c:B86 ?= this }
			cultures = {
				peitar 
			}
		}
		rule = {
			trigger = { c:B86B ?= this }
			cultures = {
				peitar snecboth 
			}
		}
		rule = {
			trigger = { c:B87 ?= this }
			cultures = {
				peitar selphereg caamas tuathak snecboth fograc
			}
		}
		rule = {
			trigger = { c:B88 ?= this }
			cultures = {
				fograc 
			}
		}
		rule = {
			trigger = { c:B89 ?= this }
			cultures = {
				towerfoot_halfling 
			}
		}
		rule = {
			trigger = { c:B90 ?= this }
			cultures = {
				boek 
			}
		}
		rule = {
			trigger = { c:B91 ?= this }
			cultures = {
				dustman 
			}
		}
		rule = {
			trigger = { c:B92 ?= this }
			cultures = {
				sornicandi kwineh 
			}
		}
		rule = {
			trigger = { c:B93 ?= this }
			cultures = {
				kwineh 
			}
		}
		rule = {
			trigger = { c:B94 ?= this }
			cultures = {
				towerfoot_halfling 
			}
		}
		rule = {
			trigger = { c:B95 ?= this }
			cultures = {
				ruin_orc 
			}
		}
		rule = {
			trigger = { c:B96 ?= this }
			cultures = {
				caamas 
			}
		}
		rule = {
			trigger = { c:B97 ?= this }
			cultures = {
				dolindhan 
			}
		}
		rule = {
			trigger = { c:B98 ?= this }
			cultures = {
				concordian towerfoot_halfling zanlibi 
			}
		}
		rule = {
			trigger = { c:G01 ?= this }
			cultures = {
				steadsman 
			}
		}
		rule = {
			trigger = { c:G02 ?= this }
			cultures = {
				steadsman horizon_elf dustman ynngarder_half_orc 
			}
		}
		rule = {
			trigger = { c:G03 ?= this }
			cultures = {
				east_ynnsman pipefoot_halfling steel_dwarf freemarcher_half_orc 
			}
		}
		rule = {
			trigger = { c:G04 ?= this }
			cultures = {
				tuathak 
			}
		}
		rule = {
			trigger = { c:G05 ?= this }
			cultures = {
				vrendzani_kobold 
			}
		}
		rule = {
			trigger = { c:G06 ?= this }
			cultures = {
				dalairey 
			}
		}
		rule = {
			trigger = { c:G07 ?= this }
			cultures = {
				dalairey 
			}
		}
		rule = {
			trigger = { c:G08 ?= this }
			cultures = {
				dalairey themarian 
			}
		}
		rule = {
			trigger = { c:G09 ?= this }
			cultures = {
				teira 
			}
		}
		rule = {
			trigger = { c:G10 ?= this }
			cultures = {
				snecboth 
			}
		}
		rule = {
			trigger = { c:G11 ?= this }
			cultures = {
				tuathak 
			}
		}
		rule = {
			trigger = { c:G12 ?= this }
			cultures = {
				tuathak 
			}
		}
		rule = {
			trigger = { c:G13 ?= this }
			cultures = {
				epednar 
			}
		}
		rule = {
			trigger = { c:G14 ?= this }
			cultures = {
				chiunife 
			}
		}
		rule = {
			trigger = { c:G15 ?= this }
			cultures = {
				chiunife 
			}
		}
		rule = {
			trigger = { c:G16 ?= this }
			cultures = {
				haraf_ne 
			}
		}
		rule = {
			trigger = { c:G17 ?= this }
			cultures = {
				haraf_ne 
			}
		}
		rule = {
			trigger = { c:G18 ?= this }
			cultures = {
				haraf_ne 
			}
		}
		rule = {
			trigger = { c:C01 ?= this }
			cultures = {
				dawn_elf 
			}
		}
		rule = {
			trigger = { c:C02 ?= this }
			cultures = {
				amadian 
			}
		}
		rule = {
			trigger = { c:C03 ?= this }
			cultures = {
				ozgar_orc 
			}
		}
		rule = {
			trigger = { c:C04 ?= this }
			cultures = {
				soruinic 
			}
		}
		rule = {
			trigger = { c:C05 ?= this }
			cultures = {
				dhanaenno 
			}
		}
		rule = {
			trigger = { c:C06 ?= this }
			cultures = {
				swampman 
			}
		}
		rule = {
			trigger = { c:C07 ?= this }
			cultures = {
				kioha_harpy 
			}
		}
		rule = {
			trigger = { c:C08 ?= this }
			cultures = {
				drakesman 
			}
		}
		rule = {
			trigger = { c:C09 ?= this }
			cultures = {
				turtlebacker 
			}
		}
		rule = {
			trigger = { c:C10 ?= this }
			cultures = {
				malateli 
			}
		}
		rule = {
			trigger = { c:C11 ?= this }
			cultures = {
				quruwei 
			}
		}
		rule = {
			trigger = { c:C12 ?= this }
			cultures = {
				parura 
			}
		}
		rule = {
			trigger = { c:C13 ?= this }
			cultures = {
				parura 
			}
		}
		rule = {
			trigger = { c:C14 ?= this }
			cultures = {
				seedthrall 
			}
		}
		rule = {
			trigger = { c:C15 ?= this }
			cultures = {
				effe_i 
			}
		}
		rule = {
			trigger = { c:C16 ?= this }
			cultures = {
				dugui_hi 
			}
		}
		rule = {
			trigger = { c:C17 ?= this }
			cultures = {
				thavo_i 
			}
		}
		rule = {
			trigger = { c:C30 ?= this }
			cultures = {
				alebhen 
			}
		}
		rule = {
			trigger = { c:C31 ?= this }
			cultures = {
				alebhen 
			}
		}
		rule = {
			trigger = { c:C32 ?= this }
			cultures = {
				vanburian 
			}
		}
		rule = {
			trigger = { c:C33 ?= this }
			cultures = {
				devabhen 
			}
		}
		rule = {
			trigger = { c:C34 ?= this }
			cultures = {
				devabhen 
			}
		}
		rule = {
			trigger = { c:C35 ?= this }
			cultures = {
				devabhen 
			}
		}
		rule = {
			trigger = { c:C36 ?= this }
			cultures = {
				devabhen 
			}
		}
		rule = {
			trigger = { c:C37 ?= this }
			cultures = {
				devabhen 
			}
		}
		rule = {
			trigger = { c:C38 ?= this }
			cultures = {
				mteibhar 
			}
		}
		rule = {
			trigger = { c:C39 ?= this }
			cultures = {
				ambhen 
			}
		}
		rule = {
			trigger = { c:C40 ?= this }
			cultures = {
				larankarha 
			}
		}
		rule = {
			trigger = { c:C41 ?= this }
			cultures = {
				advakhalla 
			}
		}
		rule = {
			trigger = { c:C42 ?= this }
			cultures = {
				larankarha 
			}
		}
		rule = {
			trigger = { c:C43 ?= this }
			cultures = {
				larankarha 
			}
		}
		rule = {
			trigger = { c:C44 ?= this }
			cultures = {
				yodhanpir 
			}
		}
		rule = {
			trigger = { c:C45 ?= this }
			cultures = {
				kalavendhi 
			}
		}
		rule = {
			trigger = { c:C46 ?= this }
			cultures = {
				klereyen 
			}
		}
		rule = {
			trigger = { c:C47 ?= this }
			cultures = {
				klereyen 
			}
		}
		rule = {
			trigger = { c:C48 ?= this }
			cultures = {
				kalavendhi 
			}
		}
		rule = {
			trigger = { c:C49 ?= this }
			cultures = {
				kalavendhi 
			}
		}
		rule = {
			trigger = { c:C50 ?= this }
			cultures = {
				klereyen thekvrystana 
			}
		}
		rule = {
			trigger = { c:C51 ?= this }
			cultures = {
				chendhyan 
			}
		}
		rule = {
			trigger = { c:C52 ?= this }
			cultures = {
				advakhalla 
			}
		}
		rule = {
			trigger = { c:C53 ?= this }
			cultures = {
				astolbhen 
			}
		}
		rule = {
			trigger = { c:C54 ?= this }
			cultures = {
				chendhyan 
			}
		}
		rule = {
			trigger = { c:C55 ?= this }
			cultures = {
				astolbhen 
			}
		}
		rule = {
			trigger = { c:C56 ?= this }
			cultures = {
				ambhen 
			}
		}
		rule = {
			trigger = { c:C57 ?= this }
			cultures = {
				klereyen 
			}
		}
		rule = {
			trigger = { c:C58 ?= this }
			cultures = {
				yodhanpir 
			}
		}
		rule = {
			trigger = { c:C59 ?= this }
			cultures = {
				klereyen 
			}
		}
		rule = {
			trigger = { c:C60 ?= this }
			cultures = {
				klereyen 
			}
		}
		rule = {
			trigger = { c:C61 ?= this }
			cultures = {
				klereyen 
			}
		}
		rule = {
			trigger = { c:C62 ?= this }
			cultures = {
				kalavendhi 
			}
		}
		rule = {
			trigger = { c:C63 ?= this }
			cultures = {
				kalavendhi 
			}
		}
		rule = {
			trigger = { c:C64 ?= this }
			cultures = {
				larankarha 
			}
		}
		rule = {
			trigger = { c:C65 ?= this }
			cultures = {
				kalavendhi 
			}
		}
		rule = {
			trigger = { c:C66 ?= this }
			cultures = {
				larankarha 
			}
		}
		rule = {
			trigger = { c:C67 ?= this }
			cultures = {
				sarihaddi 
			}
		}
		rule = {
			trigger = { c:C68 ?= this }
			cultures = {
				advakhalla 
			}
		}
		rule = {
			trigger = { c:C69 ?= this }
			cultures = {
				sarihaddi 
			}
		}
		rule = {
			trigger = { c:C70 ?= this }
			cultures = {
				devabhen 
			}
		}
		rule = {
			trigger = { c:C90 ?= this }
			cultures = {
				kalavendhi yodhanpir advakhalla larankarha sarihaddi klereyen 
			}
		}
		rule = {
			trigger = { c:C91 ?= this }
			cultures = {
				devabhen ambhen 
			}
		}
		rule = {
			trigger = { c:C92 ?= this }
			cultures = {
				ambhen astolbhen klereyen 
			}
		}
		rule = {
			trigger = { c:C93 ?= this }
			cultures = {
				chendhyan astolbhen 
			}
		}
		rule = {
			trigger = { c:D01 ?= this }
			cultures = {
				kronium_dwarf 
			}
		}
		rule = {
			trigger = { c:D02 ?= this }
			cultures = {
				quartz_dwarf 
			}
		}
		rule = {
			trigger = { c:D03 ?= this }
			cultures = {
				sapphire_dwarf 
			}
		}
		rule = {
			trigger = { c:D04 ?= this }
			cultures = {
				ramsteel_dwarf 
			}
		}
		rule = {
			trigger = { c:D05 ?= this }
			cultures = {
				kronium_dwarf 
			}
		}
		rule = {
			trigger = { c:D06 ?= this }
			cultures = {
				kuxheztar_kobold 
			}
		}
		rule = {
			trigger = { c:D07 ?= this }
			cultures = {
				platinum_dwarf 
			}
		}
		rule = {
			trigger = { c:D08 ?= this }
			cultures = {
				agate_dwarf 
			}
		}
		rule = {
			trigger = { c:D09 ?= this }
			cultures = {
				mithril_dwarf 
			}
		}
		rule = {
			trigger = { c:D10 ?= this }
			cultures = {
				rustroad_goblin cave_goblin 
			}
		}
		rule = {
			trigger = { c:D11 ?= this }
			cultures = {
				dagrite_dwarf 
			}
		}
		rule = {
			trigger = { c:D12 ?= this }
			cultures = {
				lead_dwarf 
			}
		}
		rule = {
			trigger = { c:D13 ?= this }
			cultures = {
				basalt_dwarf 
			}
		}
		rule = {
			trigger = { c:D14 ?= this }
			cultures = {
				garnet_dwarf 
			}
		}
		rule = {
			trigger = { c:D15 ?= this }
			cultures = {
				obsidian_dwarf 
			}
		}
		rule = {
			trigger = { c:D16 ?= this }
			cultures = {
				obsidian_dwarf basalt_dwarf 
			}
		}
		rule = {
			trigger = { c:D17 ?= this }
			cultures = {
				flint_dwarf 
			}
		}
		rule = {
			trigger = { c:D18 ?= this }
			cultures = {
				diamond_dwarf 
			}
		}
		rule = {
			trigger = { c:D19 ?= this }
			cultures = {
				marble_dwarf 
			}
		}
		rule = {
			trigger = { c:D20 ?= this }
			cultures = {
				cobalt_dwarf 
			}
		}
		rule = {
			trigger = { c:D21 ?= this }
			cultures = {
				drakonshani_orc 
			}
		}
		rule = {
			trigger = { c:D22 ?= this }
			cultures = {
				titanium_dwarf 
			}
		}
		rule = {
			trigger = { c:D23 ?= this }
			cultures = {
				pyrite_dwarf 
			}
		}
		rule = {
			trigger = { c:D24 ?= this }
			cultures = {
				citrine_dwarf 
			}
		}
		rule = {
			trigger = { c:D25 ?= this }
			cultures = {
				gold_dwarf 
			}
		}
		rule = {
			trigger = { c:D26 ?= this }
			cultures = {
				undergrowth_goblin 
			}
		}
		rule = {
			trigger = { c:D27 ?= this }
			cultures = {
				topaz_dwarf 
			}
		}
		rule = {
			trigger = { c:D28 ?= this }
			cultures = {
				amber_dwarf 
			}
		}
		rule = {
			trigger = { c:D29 ?= this }
			cultures = {
				peridot_dwarf 
			}
		}
		rule = {
			trigger = { c:D30 ?= this }
			cultures = {
				granite_dwarf 
			}
		}
		rule = {
			trigger = { c:D31 ?= this }
			cultures = {
				undergrowth_goblin 
			}
		}
		rule = {
			trigger = { c:D32 ?= this }
			cultures = {
				amethyst_dwarf 
			}
		}
		rule = {
			trigger = { c:D33 ?= this }
			cultures = {
				march_goblin 
			}
		}
		rule = {
			trigger = { c:D34 ?= this }
			cultures = {
				emerald_dwarf 
			}
		}
		rule = {
			trigger = { c:D35 ?= this }
			cultures = {
				jade_dwarf 
			}
		}
		rule = {
			trigger = { c:D36 ?= this }
			cultures = {
				malachite_dwarf 
			}
		}
		rule = {
			trigger = { c:D37 ?= this }
			cultures = {
				kuxhekrar_orc 
			}
		}
		rule = {
			trigger = { c:D38 ?= this }
			cultures = {
				cave_goblin 
			}
		}
		rule = {
			trigger = { c:D39 ?= this }
			cultures = {
				cave_goblin 
			}
		}
		rule = {
			trigger = { c:D40 ?= this }
			cultures = {
				cave_goblin 
			}
		}
		rule = {
			trigger = { c:D41 ?= this }
			cultures = {
				cave_goblin 
			}
		}
		rule = {
			trigger = { c:D42 ?= this }
			cultures = {
				cave_goblin 
			}
		}
		rule = {
			trigger = { c:D43 ?= this }
			cultures = {
				crawler_goblin 
			}
		}
		rule = {
			trigger = { c:D44 ?= this }
			cultures = {
				black_orc 
			}
		}
		rule = {
			trigger = { c:D45 ?= this }
			cultures = {
				cave_goblin 
			}
		}
		rule = {
			trigger = { c:D46 ?= this }
			cultures = {
				darkscale_kobold 
			}
		}
		rule = {
			trigger = { c:D47 ?= this }
			cultures = {
				skinburner_goblin 
			}
		}
		rule = {
			trigger = { c:D48 ?= this }
			cultures = {
				black_orc 
			}
		}
		rule = {
			trigger = { c:D49 ?= this }
			cultures = {
				straggler_goblin 
			}
		}
		rule = {
			trigger = { c:D50 ?= this }
			cultures = {
				straggler_goblin 
			}
		}
		rule = {
			trigger = { c:D51 ?= this }
			cultures = {
				blooded_orc 
			}
		}
		rule = {
			trigger = { c:D52 ?= this }
			cultures = {
				trolltamer_goblin 
			}
		}
		rule = {
			trigger = { c:D53 ?= this }
			cultures = {
				black_orc 
			}
		}
		rule = {
			trigger = { c:D54 ?= this }
			cultures = {
				cave_goblin 
			}
		}
		rule = {
			trigger = { c:D55 ?= this }
			cultures = {
				black_orc 
			}
		}
		rule = {
			trigger = { c:D56 ?= this }
			cultures = {
				cave_troll 
			}
		}
		rule = {
			trigger = { c:D57 ?= this }
			cultures = {
				goldtooth_goblin 
			}
		}
		rule = {
			trigger = { c:D58 ?= this }
			cultures = {
				goldtooth_goblin 
			}
		}
		rule = {
			trigger = { c:D59 ?= this }
			cultures = {
				goldtooth_goblin 
			}
		}
		rule = {
			trigger = { c:D60 ?= this }
			cultures = {
				opal_dwarf 
			}
		}
		rule = {
			trigger = { c:D61 ?= this }
			cultures = {
				citrine_dwarf gold_dwarf pyrite_dwarf titanium_dwarf topaz_dwarf 
			}
		}
		rule = {
			trigger = { c:D62 ?= this }
			cultures = {
				diamond_dwarf flint_dwarf basalt_dwarf garnet_dwarf marble_dwarf cobalt_dwarf 
			}
		}
		rule = {
			trigger = { c:E01 ?= this }
			cultures = {
				metsamic zabatlari khamgunai 
			}
		}
		rule = {
			trigger = { c:E02 ?= this }
			cultures = {
				fathide_ogre 
			}
		}
		rule = {
			trigger = { c:E03 ?= this }
			cultures = {
				orachav 
			}
		}
		rule = {
			trigger = { c:E04 ?= this }
			cultures = {
				orachav 
			}
		}
		rule = {
			trigger = { c:E05 ?= this }
			cultures = {
				desert_centaur 
			}
		}
		rule = {
			trigger = { c:E06 ?= this }
			cultures = {
				plains_centaur 
			}
		}
		rule = {
			trigger = { c:E07 ?= this }
			cultures = {
				desert_centaur 
			}
		}
		rule = {
			trigger = { c:E08 ?= this }
			cultures = {
				plains_centaur 
			}
		}
		rule = {
			trigger = { c:E09 ?= this }
			cultures = {
				plains_centaur 
			}
		}
		rule = {
			trigger = { c:F01 ?= this }
			cultures = {
				siadunan_harpy surani sun_elven 
			}
		}
		rule = {
			trigger = { c:F02 ?= this }
			cultures = {
				brasanni 
			}
		}
		rule = {
			trigger = { c:F03 ?= this }
			cultures = {
				brasanni 
			}
		}
		rule = {
			trigger = { c:F04 ?= this }
			cultures = {
				brasanni 
			}
		}
		rule = {
			trigger = { c:F05 ?= this }
			cultures = {
				brasanni 
			}
		}
		rule = {
			trigger = { c:F06 ?= this }
			cultures = {
				brasanni 
			}
		}
		rule = {
			trigger = { c:F07 ?= this }
			cultures = {
				zanite 
			}
		}
		rule = {
			trigger = { c:F08 ?= this }
			cultures = {
				sun_elven 
			}
		}
		rule = {
			trigger = { c:F09 ?= this }
			cultures = {
				bahari 
			}
		}
		rule = {
			trigger = { c:F10 ?= this }
			cultures = {
				bahari gelkari 
			}
		}
		rule = {
			trigger = { c:F11 ?= this }
			cultures = {
				sun_elven 
			}
		}
		rule = {
			trigger = { c:F12 ?= this }
			cultures = {
				sun_elven 
			}
		}
		rule = {
			trigger = { c:F13 ?= this }
			cultures = {
				firanyan_harpy 
			}
		}
		rule = {
			trigger = { c:F14 ?= this }
			cultures = {
				bahari_goblin 
			}
		}
		rule = {
			trigger = { c:F15 ?= this }
			cultures = {
				copper_dwarf 
			}
		}
		rule = {
			trigger = { c:F16 ?= this }
			cultures = {
				ilatani 
			}
		}
		rule = {
			trigger = { c:R01 ?= this }
			cultures = {
				sun_elven royal_harimari 
			}
		}
		rule = {
			trigger = { c:R02 ?= this }
			cultures = {
				ghankedhen 
			}
		}
		rule = {
			trigger = { c:R03 ?= this }
			cultures = {
				royal_harimari pasindesh 
			}
		}
		rule = {
			trigger = { c:R04 ?= this }
			cultures = {
				royal_harimari 
			}
		}
		rule = {
			trigger = { c:R05 ?= this }
			cultures = {
				sarniryabsad 
			}
		}
		rule = {
			trigger = { c:R06 ?= this }
			cultures = {
				royal_harimari sobhagand 
			}
		}
		rule = {
			trigger = { c:R07 ?= this }
			cultures = {
				azepyanunin 
			}
		}
		rule = {
			trigger = { c:R08 ?= this }
			cultures = {
				chimera_hobgoblin 
			}
		}
		rule = {
			trigger = { c:R09 ?= this }
			cultures = {
				tiger_hobgoblin 
			}
		}
		rule = {
			trigger = { c:R10 ?= this }
			cultures = {
				rasarhid 
			}
		}
		rule = {
			trigger = { c:R11 ?= this }
			cultures = {
				rasarhid 
			}
		}
		rule = {
			trigger = { c:R12 ?= this }
			cultures = {
				dhukharuved 
			}
		}
		rule = {
			trigger = { c:R13 ?= this }
			cultures = {
				kintonan 
			}
		}
		rule = {
			trigger = { c:R14 ?= this }
			cultures = {
				wuhyun_half_orc 
			}
		}
		rule = {
			trigger = { c:R15 ?= this }
			cultures = {
				wuhyun_half_orc 
			}
		}
		rule = {
			trigger = { c:R16 ?= this }
			cultures = {
				chimera_hobgoblin 
			}
		}
		rule = {
			trigger = { c:R17 ?= this }
			cultures = {
				chimera_hobgoblin 
			}
		}
		rule = {
			trigger = { c:R18 ?= this }
			cultures = {
				chimera_hobgoblin 
			}
		}
		rule = {
			trigger = { c:R19 ?= this }
			cultures = {
				dragon_hobgoblin 
			}
		}
		rule = {
			trigger = { c:R20 ?= this }
			cultures = {
				raghamidesh 
			}
		}
		rule = {
			trigger = { c:R21 ?= this }
			cultures = {
				chimera_hobgoblin wuhyun_half_orc 
			}
		}
		rule = {
			trigger = { c:R72 ?= this }
			cultures = {
				ghavaanaj 
			}
		}
		rule = {
			trigger = { c:Y01 ?= this }
			cultures = {
				odheongun 
			}
		}
		rule = {
			trigger = { c:Y02 ?= this }
			cultures = {
				jiangszun beikling gangim naamjyut jiangyang 
			}
		}
		rule = {
			trigger = { c:Y03 ?= this }
			cultures = {
				jiangszun 
			}
		}
		rule = {
			trigger = { c:Y04 ?= this }
			cultures = {
				gangim 
			}
		}
		rule = {
			trigger = { c:Y05 ?= this }
			cultures = {
				gangim 
			}
		}
		rule = {
			trigger = { c:Y06 ?= this }
			cultures = {
				gangim 
			}
		}
		rule = {
			trigger = { c:Y07 ?= this }
			cultures = {
				naamjyut 
			}
		}
		rule = {
			trigger = { c:Y08 ?= this }
			cultures = {
				jiangyang 
			}
		}
		rule = {
			trigger = { c:Y09 ?= this }
			cultures = {
				horned_ogre 
			}
		}
		rule = {
			trigger = { c:Y10 ?= this }
			cultures = {
				goldscale_kobold 
			}
		}
		rule = {
			trigger = { c:Y11 ?= this }
			cultures = {
				shuvuush jiangszun #settled birdriders
 
			}
		}
		rule = {
			trigger = { c:Y12 ?= this }
			cultures = {
				chengrong 
			}
		}
		rule = {
			trigger = { c:Y13 ?= this }
			cultures = {
				chengrong 
			}
		}
		rule = {
			trigger = { c:Y14 ?= this }
			cultures = {
				ranilau 
			}
		}
		rule = {
			trigger = { c:Y15 ?= this }
			cultures = {
				ranilau 
			}
		}
		rule = {
			trigger = { c:Y16 ?= this }
			cultures = {
				biengdi 
			}
		}
		rule = {
			trigger = { c:Y17 ?= this }
			cultures = {
				sikai 
			}
		}
		rule = {
			trigger = { c:Y18 ?= this }
			cultures = {
				risbeko 
			}
		}
		rule = {
			trigger = { c:Y19 ?= this }
			cultures = {
				khom phonan 
			}
		}
		rule = {
			trigger = { c:Y20 ?= this }
			cultures = {
				nephrite_dwarf 
			}
		}
		rule = {
			trigger = { c:Y21 ?= this }
			cultures = {
				bokai 
			}
		}
		rule = {
			trigger = { c:Y22 ?= this }
			cultures = {
				sirtana 
			}
		}
		rule = {
			trigger = { c:Y23 ?= this }
			cultures = {
				kelino 
			}
		}
		rule = {
			trigger = { c:Y24 ?= this }
			cultures = {
				hujan 
			}
		}
		rule = {
			trigger = { c:Y25 ?= this }
			cultures = {
				paru 
			}
		}
		rule = {
			trigger = { c:Y26 ?= this }
			cultures = {
				banyak 
			}
		}
		rule = {
			trigger = { c:Y27 ?= this }
			cultures = {
				banyak 
			}
		}
		rule = {
			trigger = { c:Y28 ?= this }
			cultures = {
				banyak 
			}
		}
		rule = {
			trigger = { c:Y29 ?= this }
			cultures = {
				banyak 
			}
		}
		rule = {
			trigger = { c:Y30 ?= this }
			cultures = {
				paru 
			}
		}
		rule = {
			trigger = { c:Y31 ?= this }
			cultures = {
				banyak 
			}
		}
		rule = {
			trigger = { c:Y32 ?= this }
			cultures = {
				lorentish 
			}
		}
		rule = {
			trigger = { c:Y33 ?= this }
			cultures = {
				busilari 
			}
		}
		rule = {
			trigger = { c:Y35 ?= this }
			cultures = {
				runsukhi 
			}
		}
		rule = {
			trigger = { c:Y36 ?= this }
			cultures = {
				ulukungu 
			}
		}
		rule = {
			trigger = { c:Y37 ?= this }
			cultures = {
				mogirga 
			}
		}
		rule = {
			trigger = { c:Y38 ?= this }
			cultures = {
				jiangyang 
			}
		}
		rule = {
			trigger = { c:Y39 ?= this }
			cultures = {
				eagle_hobgoblin 
			}
		}
		rule = {
			trigger = { c:Y40 ?= this }
			cultures = {
				soulseeker_ogre 
			}
		}
		rule = {
			trigger = { c:Y41 ?= this }
			cultures = {
				rukunai 
			}
		}
		rule = {
			trigger = { c:Y42 ?= this }
			cultures = {
				rukunai 
			}
		}
		rule = {
			trigger = { c:Y43 ?= this }
			cultures = {
				rukunai 
			}
		}
		rule = {
			trigger = { c:L01 ?= this }
			cultures = {
				sorrowmane_gnoll hapremiti 
			}
		}
		rule = {
			trigger = { c:L02 ?= this }
			cultures = {
				hapremiti 
			}
		}
		rule = {
			trigger = { c:L03 ?= this }
			cultures = {
				seascourge_gnoll 
			}
		}
		rule = {
			trigger = { c:L04 ?= this }
			cultures = {
				akasi 
			}
		}
		rule = {
			trigger = { c:L05 ?= this }
			cultures = {
				akasi 
			}
		}
		rule = {
			trigger = { c:L06 ?= this }
			cultures = {
				akasi 
			}
		}
		rule = {
			trigger = { c:L07 ?= this }
			cultures = {
				seascourge_gnoll 
			}
		}
		rule = {
			trigger = { c:L08 ?= this }
			cultures = {
				seascourge_gnoll 
			}
		}
		rule = {
			trigger = { c:L09 ?= this }
			cultures = {
				seascourge_gnoll 
			}
		}
		rule = {
			trigger = { c:L10 ?= this }
			cultures = {
				windhowler_gnoll 
			}
		}
		rule = {
			trigger = { c:L11 ?= this }
			cultures = {
				windhowler_gnoll 
			}
		}
		rule = {
			trigger = { c:L12 ?= this }
			cultures = {
				windhowler_gnoll 
			}
		}
		rule = {
			trigger = { c:L13 ?= this }
			cultures = {
				windhowler_gnoll 
			}
		}
		rule = {
			trigger = { c:L14 ?= this }
			cultures = {
				windhowler_gnoll 
			}
		}
		rule = {
			trigger = { c:L15 ?= this }
			cultures = {
				windhowler_gnoll 
			}
		}
		rule = {
			trigger = { c:L16 ?= this }
			cultures = {
				pyreclaw_gnoll 
			}
		}
		rule = {
			trigger = { c:L17 ?= this }
			cultures = {
				tijarikheti 
			}
		}
		rule = {
			trigger = { c:L18 ?= this }
			cultures = {
				ironpelt_gnoll 
			}
		}
		rule = {
			trigger = { c:L19 ?= this }
			cultures = {
				pyreclaw_gnoll 
			}
		}
		rule = {
			trigger = { c:L20 ?= this }
			cultures = {
				fieldstalker_gnoll 
			}
		}
		rule = {
			trigger = { c:L21 ?= this }
			cultures = {
				kudemtu 
			}
		}
		rule = {
			trigger = { c:L22 ?= this }
			cultures = {
				mantimatu 
			}
		}
		rule = {
			trigger = { c:L23 ?= this }
			cultures = {
				zuvunwa 
			}
		}
		rule = {
			trigger = { c:L24 ?= this }
			cultures = {
				tamajoba 
			}
		}
		rule = {
			trigger = { c:L25 ?= this }
			cultures = {
				ichiadza_lizardfolk 
			}
		}
		rule = {
			trigger = { c:L26 ?= this }
			cultures = {
				ofehibi 
			}
		}
		rule = {
			trigger = { c:L27 ?= this }
			cultures = {
				yeteferen 
			}
		}
		rule = {
			trigger = { c:L28 ?= this }
			cultures = {
				swamp_troll 
			}
		}
		rule = {
			trigger = { c:L29 ?= this }
			cultures = {
				nalenian_harpy 
			}
		}
		rule = {
			trigger = { c:L30 ?= this }
			cultures = {
				tanizu 
			}
		}
		rule = {
			trigger = { c:L31 ?= this }
			cultures = {
				tanizu 
			}
		}
		rule = {
			trigger = { c:L32 ?= this }
			cultures = {
				ashamadi 
			}
		}
		rule = {
			trigger = { c:L33 ?= this }
			cultures = {
				wakoodak 
			}
		}
		rule = {
			trigger = { c:L34 ?= this }
			cultures = {
				adzalanas_lizardfolk 
			}
		}
		rule = {
			trigger = { c:L35 ?= this }
			cultures = {
				karshyray_lizardfolk 
			}
		}
		rule = {
			trigger = { c:L36 ?= this }
			cultures = {
				skarakara_lizardfolk 
			}
		}
		rule = {
			trigger = { c:L37 ?= this }
			cultures = {
				arraskay_lizardfolk 
			}
		}
		rule = {
			trigger = { c:L38 ?= this }
			cultures = {
				arraskay_lizardfolk 
			}
		}
		rule = {
			trigger = { c:L39 ?= this }
			cultures = {
				arraskay_lizardfolk 
			}
		}
		rule = {
			trigger = { c:L40 ?= this }
			cultures = {
				arraskay_lizardfolk 
			}
		}
		rule = {
			trigger = { c:L41 ?= this }
			cultures = {
				arraskay_lizardfolk 
			}
		}
		rule = {
			trigger = { c:L42 ?= this }
			cultures = {
				arraskay_lizardfolk 
			}
		}
		rule = {
			trigger = { c:L43 ?= this }
			cultures = {
				arraskay_lizardfolk 
			}
		}
		rule = {
			trigger = { c:L44 ?= this }
			cultures = {
				arraskay_lizardfolk 
			}
		}
		rule = {
			trigger = { c:L45 ?= this }
			cultures = {
				ardimyan 
			}
		}
		rule = {
			trigger = { c:L46 ?= this }
			cultures = {
				vernman 
			}
		}
		rule = {
			trigger = { c:L47 ?= this }
			cultures = {
				east_damerian 
			}
		}
		rule = {
			trigger = { c:L48 ?= this }
			cultures = {
				guryadagga 
			}
		}
		rule = {
			trigger = { c:L49 ?= this }
			cultures = {
				guryadagga 
			}
		}
		rule = {
			trigger = { c:L50 ?= this }
			cultures = {
				guryadagga 
			}
		}
		rule = {
			trigger = { c:L51 ?= this }
			cultures = {
				guryadagga 
			}
		}
		rule = {
			trigger = { c:L52 ?= this }
			cultures = {
				guryadagga 
			}
		}
		rule = {
			trigger = { c:L53 ?= this }
			cultures = {
				fomarati_halfling 
			}
		}
		rule = {
			trigger = { c:L54 ?= this }
			cultures = {
				mboala_halfling 
			}
		}
		rule = {
			trigger = { c:L55 ?= this }
			cultures = {
				fomarati_halfling 
			}
		}
		rule = {
			trigger = { c:L56 ?= this }
			cultures = {
				mboala_halfling 
			}
		}
		rule = {
			trigger = { c:L57 ?= this }
			cultures = {
				mazava_halfling 
			}
		}
		rule = {
			trigger = { c:L58 ?= this }
			cultures = {
				taafi 
			}
		}
		rule = {
			trigger = { c:L59 ?= this }
			cultures = {
				kaino 
			}
		}
		rule = {
			trigger = { c:L60 ?= this }
			cultures = {
				pearlsedger 
			}
		}
		rule = {
			trigger = { c:L61 ?= this }
			cultures = {
				vernman 
			}
		}
		rule = {
			trigger = { c:L62 ?= this }
			cultures = {
				jiromji 
			}
		}
		rule = {
			trigger = { c:L63 ?= this }
			cultures = {
				tamajoba 
			}
		}
		rule = {
			trigger = { c:L64 ?= this }
			cultures = {
				jiromji 
			}
		}
		rule = {
			trigger = { c:L65 ?= this }
			cultures = {
				kaino 
			}
		}
		rule = {
			trigger = { c:L66 ?= this }
			cultures = {
				ndurubu 
			}
		}
		rule = {
			trigger = { c:L67 ?= this }
			cultures = {
				tamajoba 
			}
		}
		rule = {
			trigger = { c:L68 ?= this }
			cultures = {
				amezatany_halfling 
			}
		}
		#Akasik
		rule = {
			trigger = { c:L69 ?= this }
			cultures = {
				akasi
			}
		}
		#Surakeš
		rule = {
			trigger = { c:L70 ?= this }
			cultures = {
				zanite surani masnsih bahari gelkari brasanni sun_elven firanyan_harpy siadunan_harpy bahari_goblin maqeti
			}
		}
		#Fahvanosy
		rule = {
			trigger = { c:L71 ?= this }
			cultures = {
				mboala_halfling fomarati_halfling mazava_halfling amezatany_halfling
			}
		}
		#Bwa Tanizu
		rule = {
			trigger = { c:L72 ?= this }
			cultures = {
				tanizu
			}
		}
		#Horashesh
		rule = {
			trigger = { c:L73 ?= this }
			cultures = {
				zuvunwa kudemtu gunzemo kuivanhi egilshibi gomzumu
			}
		}
		#Jinnakah
		rule = {
			trigger = { c:L74 ?= this }
			cultures = {
				guryadagga
			}
		}
	}
	on_character_ig_membership = {}

	pop_potential = {
		NOR = {
			is_pop_type = aristocrats
			is_pop_type = capitalists
		}
		OR = {
			pop_employment_building_group = bg_agriculture
			pop_employment_building_group = bg_ranching
			pop_employment_building_group = bg_plantations
			pop_employment_building_group = bg_logging
			pop_employment_building_group = bg_fishing
			pop_employment_building_group = bg_whaling
			pop_employment_building_group = bg_manor_houses
		}
	}

	pop_weight = {
		value = 0

		#Anbennar
		add = {
			desc = "POP_MAGES"
			if = {
				limit = {
					OR = {
						is_pop_type = archmages
						is_pop_type = mages
					}
				}
				value = 30
				if = {
					limit = { owner = { has_technology_researched = chi_cultivation_magical_tradition } }
					add = 10 
				}
				if = {
					limit = { owner = { has_technology_researched = druidic_magical_tradition } }
					add = 50 
				}
				if = {
					limit = { owner = { has_technology_researched = shamanism_magical_tradition } }
					add = 50 
				}
				if = {
					limit = { owner = { has_technology_researched = elemental_magical_tradition } }
					add = 20 
				}
				if = {
					limit = { owner = { has_law = law_type:law_nation_of_artifice } }
					multiply = 2
				}
				else_if = {
					limit = { owner = { has_law = law_type:law_traditional_magic_banned } }
					multiply = 4
				}
			}
		}

		add = {
			desc = "POP_ADVENTURERS"
			if = {
				limit = { 
					is_pop_type = adventurers
				}
				value = 75	#heroes of the commonfolk
			}
		}
		
		add = {
			desc = "RURAL_POP"
			if = {
				limit = {
					OR = {
						pop_employment_building_group = bg_agriculture
						pop_employment_building_group = bg_ranching
						pop_employment_building_group = bg_plantations
						pop_employment_building_group = bg_logging
						pop_employment_building_group = bg_fishing
						pop_employment_building_group = bg_whaling
						pop_employment_building_group = bg_manor_houses
					}
					NOT = { is_pop_type = archmages }
				}
				if = {
					limit = {
						is_pop_type = clergymen
					}
					value = 25
				}
				else = {
					value = 100
				}
			}
		}

		add = {
			desc = "POP_FARMERS"
			if = {
				limit = {
					is_pop_type = farmers
				}
				value = 200
			}
		}

		add = {
			desc = "POP_PEASANTS"
			if = {
				limit = {
					is_pop_type = peasants
				}
				value = 200
			}
		}

		add = {
			desc = "POP_CLERGYMEN"
			if = {
				limit = {
					is_pop_type = clergymen
				}
				value = 75
			}
		}

		multiply = {
			desc = "LEADER_POPULARITY"
			scope:interest_group = {
				leader ?= {
					value = popularity
					multiply = 0.0025
					add = 1
					max = 1.25
					min = 0.75
				}
			}
		}
		if = {
			limit = {
				scope:interest_group = {
					is_in_government = yes
				}
			}
			multiply = {
				desc = "IN_GOVERNMENT_ATTRACTION"
				value = 1
				add = scope:interest_group.modifier:interest_group_in_government_attraction_mult
				min = 0
			}
		}
		
		if = {
			limit = {
				scope:interest_group = {
					is_in_government = yes
				}
			}
			multiply = { # Multiplied by 1.25x max
				desc = "POP_LOYALISTS"
				value = pop_loyalist_fraction
				divide = 4
				add = 1
			}
		}
		if = {
			limit = {
				scope:interest_group = {
					is_in_government = no
				}
			}
			multiply = { # Multiplied by 1.25x max
				desc = "POP_RADICALS"
				value = pop_radical_fraction
				divide = 4
				add = 1
			}
		}
	}

	monarch_weight = {
		value = 0.25 # this is just inherently unlikely
		# Monarch is not likely to adopt a marginal IG
		if = {
			limit = {
				is_marginal = yes
			}
			multiply = {
				value = 0.1
			}
		}
		# Monarch is more likely to adopt a Powerful IG
		if = {
			limit = {
				is_powerful = yes
			}
			multiply = {
				value = 2
			}
		}
		# More likely with Homesteading
		if = {
			limit = {
				owner = {
					has_law = law_type:law_homesteading
				}
			}
			multiply = {
				value = 2
			}
		}
		# Impossible with Serfdom
		if = {
			limit = {
				owner = {
					has_law = law_type:law_serfdom
				}
			}
			multiply = {
				value = 0
			}
		}
	}

	agitator_weight = {
		# Agitators more likely to come from populist IG's rather than elitist
		value = 1.0
		# Agitators will never be part of a marginalized IG
		if = {
			limit = {
				owner.ig:ig_rural_folk = {
					is_marginal = yes
				}
			}
			multiply = {
				value = 0
			}
		}
	}

	commander_weight = {
		value = 1.0
	}

	noble_chance = {
		value = 0.2
	}

	female_commander_chance = {
		value = 0.0
		if = {
			limit = {
				owner = {
					has_variable = is_matriarchy_var
					NOT = { has_law = law_type:law_womens_suffrage }
				}
			}
			add = {
				value = 1.0
			}
		}
		if = {
			limit = {
				owner = {
					has_variable = is_matriarchy_var
					has_law = law_type:law_womens_suffrage
				}
			}
			add = {
				value = 0.90
			}
		}
		if = {
			limit = {
				owner = {
					has_technology_researched = tradition_of_equality
				}
			}
			add = {
				value = 0.50
			}
		}
	}

	female_politician_chance = {
		value = 0.0
		if = {
			limit = { #variable from country history gets set after IGs being loaded, this need to be done for it to work
				owner = {
					OR = {
						c:F13 ?= this
						c:L33 ?= this
						c:L31 ?= this
						c:L54 ?= this
						c:L55 ?= this
						c:L29 ?= this
						c:A11 ?= this
						c:L22 ?= this
					}
					NOT = { has_law = law_type:law_womens_suffrage }
				}
			}
			add = {
				value = 1.0
			}
		}
		if = {
			limit = {
				owner = {
					has_variable = is_matriarchy_var
					has_law = law_type:law_womens_suffrage
				}
			}
			add = {
				value = 0.90
			}
		}
		if = {
			limit = {
				owner = {
					has_technology_researched = tradition_of_equality
				}
			}
			add = {
				value = 0.50
			}
		}
		if = {
			limit = {
				owner = {
					has_law = law_type:law_womens_suffrage
					NOT  = { has_technology_researched = tradition_of_equality }
				}

			}
			add = {
				value = 0.025
			}
		}
	}

	female_agitator_chance = {
		value = 0.025
		#Anbennar
		if = {
			limit = {
				owner = {
					has_variable = is_matriarchy_var
					NOT = { has_law = law_type:law_womens_suffrage }
				}
			}
			add = {
				value = 1.0
			}
		}
		if = {
			limit = {
				owner = {
					has_variable = is_matriarchy_var
					has_law = law_type:law_womens_suffrage
				}
			}
			add = {
				value = 0.90
			}
		}
		if = {
			limit = {
				owner = {
					has_technology_researched = tradition_of_equality
				}
			}
			add = {
				value = 0.475
			}
		}
		if = {
			limit = {
				owner = {
					has_law = law_type:law_women_own_property
					NOT  = { has_technology_researched = tradition_of_equality } #Anbennar
				}

			}
			add = {
				value = 0.025
			}
		}	
		
		if = {
			limit = {
				owner = {
					has_law = law_type:law_women_in_the_workplace
					NOT  = { has_technology_researched = tradition_of_equality } #Anbennar
				}

			}
			add = {
				value = 0.025
			}
		}

		if = {
			limit = {
				owner = {
					has_law = law_type:law_womens_suffrage
					NOT  = { has_technology_researched = tradition_of_equality } #Anbennar
				}

			}
			add = {
				value = 0.025
			}
		}		
	}

	# The chance that a commander belonging to this IG takes over leadership when it changes
	# scope:character is the most popular commander in the IG
	commander_leader_chance = {
		value = 0.5
		multiply = ig_commander_leader_chance_mult
	}
}
