From;To;Type;Through;start_x;start_y;stop_x;stop_y;adjacency_rule_name;Comment
x2B8FC9;x0872E8;sea;-1;-1;-1;-1;-1;;Westrod-Verkal Vazkron
x5B7DDE;x7EE1A5;sea;-1;-1;-1;-1;-1;;Lower Dagrinrod-Hall of the Ancestors
xFA0F64;xDE6C45;sea;-1;-1;-1;-1;-1;;Jorkad Junction-Argrod Junction
xEF2139;xED2A0A;sea;-1;-1;-1;-1;-1;;Jorkad Junction-Vazumrod
xDBD94C;x23E030;sea;-1;-1;-1;-1;-1;;Ozumrod-Copper Road
xE1CD24;x0D5E6D;sea;-1;-1;-1;-1;-1;;Drunken Road-Western Jaderod
x532C80;x522800;sea;-1;-1;-1;-1;-1;;Drolas
xD32A40;xCA36C0;sea;-1;-1;-1;-1;-1;;Reuyel
x402880;x492840;sea;-1;-1;-1;-1;-1;;Crathanor
x113C07;x2AC909;sea;-1;-1;-1;-1;-1;;Elizna
x6B9BB7;x88E428;sea;-1;-1;-1;-1;-1;;Ekha
x55D827;x63E86C;sea;-1;-1;-1;-1;-1;;Pawprint
x417D4C;x51652E;sea;-1;-1;-1;-1;-1;;Zangaland
x563E68;x1ACD58;sea;-1;-1;-1;-1;-1;;Kunolo
x4550D4;xBCDC7D;sea;-1;-1;-1;-1;-1;;Afomapobo
x07D167;xB2F574;sea;-1;-1;-1;-1;-1;;Afomapobo
x7608D3;x1D70E2;sea;-1;-1;-1;-1;-1;;Afomapobo
xC0A8C5;xEAEE8D;sea;-1;-1;-1;-1;-1;;Afomapobo
xCA0101;x783D25;sea;-1;-1;-1;-1;-1;;Maponosy
x4B36EE;x1AF1F0;sea;-1;-1;-1;-1;-1;;Maponosy
x1DBD4A;xEAB74B;sea;-1;-1;-1;-1;-1;;Maponosy
xD028DF;x20EFCA;sea;-1;-1;-1;-1;-1;;Nafalofimapo
x37F07C;x2143E7;sea;-1;-1;-1;-1;-1;;Drongoronsi
x7167AB;xB043DE;sea;-1;-1;-1;-1;-1;;Drongoronsi
xB043DE;xCEB35A;sea;-1;-1;-1;-1;-1;;Drongoronsi
x329364;xAFC5FD;sea;-1;-1;-1;-1;-1;;Sisinyuye - Tvarastamanosy
xF01B47;xCF57A8;sea;-1;-1;-1;-1;-1;;Tvarastamanosy
xBD7817;x378783;sea;-1;-1;-1;-1;-1;;Tvarastamanosy
x5A943C;x15BF50;sea;-1;-1;-1;-1;-1;;Tvarastamanosy
x506AF5;xDD18AE;sea;-1;-1;-1;-1;-1;;Teramzadai
x03F6B3;xCD1843;sea;-1;-1;-1;-1;-1;;Teramzadai
xCD1843;xE81C20;sea;-1;-1;-1;-1;-1;;Teramzadai
xD00D66;x1F5936;sea;-1;-1;-1;-1;-1;;Irklaz
x8C2593;x2B9D40;sea;-1;-1;-1;-1;-1;;Karassk - Rankaty Islands
x8E6C4D;x9A56C4;sea;-1;-1;-1;-1;-1;;Rankaty Islands
x8E6C4D;x60031D;sea;-1;-1;-1;-1;-1;;Rankaty Islands
x60031D;xCBF502;sea;-1;-1;-1;-1;-1;;Rankaty Islands
x60031D;x9BE118;sea;-1;-1;-1;-1;-1;;Rankaty Islands
x9BE118;xD55571;sea;-1;-1;-1;-1;-1;;Rankaty Islands
x4CF97A;x18D72D;sea;-1;-1;-1;-1;-1;;Rankaty Islands
xAB277B;xAF6150;sea;-1;-1;-1;-1;-1;;Rankaty Islands
x6E5841;x231782;sea;-1;-1;-1;-1;-1;;Rankaty Islands
xAED218;x9235DE;sea;-1;-1;-1;-1;-1;;Rankaty Islands
x9235DE;x63DE50;sea;-1;-1;-1;-1;-1;;Rankaty Islands
x63DE50;x088E13;sea;-1;-1;-1;-1;-1;;Rankaty Islands
xFE618C;x617906;sea;-1;-1;-1;-1;-1;;Rankaty Islands
x617906;x26FCA5;sea;-1;-1;-1;-1;-1;;Rankaty Islands
x26FCA5;x2527A1;sea;-1;-1;-1;-1;-1;;Rankaty Islands
x2527A1;xEE15B2;sea;-1;-1;-1;-1;-1;;Rankaty Islands
xEE15B2;x8B6845;sea;-1;-1;-1;-1;-1;;Rankaty Islands
xEEF99B;xE66DD8;sea;-1;-1;-1;-1;-1;;Rankaty Islands
xE66DD8;x2E228F;sea;-1;-1;-1;-1;-1;;Rankaty Islands
x7B5E88;x2D8F97;sea;-1;-1;-1;-1;-1;;Rankaty Islands
x2D8F97;xA6825B;sea;-1;-1;-1;-1;-1;;Rankaty Islands
x231782;xA7A83E;sea;-1;-1;-1;-1;-1;;Rankaty Islands
xD55571;xAED218;sea;-1;-1;-1;-1;-1;;Rankaty Islands
x22404B;x3EBB01;sea;-1;-1;-1;-1;-1;;Nazhni - Tressik Islands
x6094DA;x9C7EFB;sea;-1;-1;-1;-1;-1;;Tressik Islands
x9C7EFB;xC7F718;sea;-1;-1;-1;-1;-1;;Tressik Islands
xC7F718;x38E0A7;sea;-1;-1;-1;-1;-1;;Tressik Islands
x93170A;xE7FDA5;sea;-1;-1;-1;-1;-1;;Tressik Islands
xE7FDA5;xA411D0;sea;-1;-1;-1;-1;-1;;Tressik Islands
xA411D0;x13264C;sea;-1;-1;-1;-1;-1;;Tressik Islands
x383D1D;x6A43D4;sea;-1;-1;-1;-1;-1;;Tressik Islands
x6A43D4;x633B79;sea;-1;-1;-1;-1;-1;;Tressik Islands
x633B79;xC4FE57;sea;-1;-1;-1;-1;-1;;Tressik Islands
xC4FE57;x02C14C;sea;-1;-1;-1;-1;-1;;Tressik Islands - Madhalaysnimo
x54A798;xEB1C2C;sea;-1;-1;-1;-1;-1;;Beeragga
x29EDAB;xC6AE00;sea;-1;-1;-1;-1;-1;;Gawakhiza
x750F1E;x9289FE;sea;-1;-1;-1;-1;-1;;Badabhur - Uwakila Baashi
x135DD1;xBB4427;sea;-1;-1;-1;-1;-1;;Cadihland
x0452B0;x697668;sea;-1;-1;-1;-1;-1;;Crescent Line
x697668;x073AE6;sea;-1;-1;-1;-1;-1;;Crescent Line
x33AF6D;x6A3E0C;sea;-1;-1;-1;-1;-1;;Naleni
xCB0905;x202FE4;sea;-1;-1;-1;-1;-1;;Naleni
x202FE4;x01B91C;sea;-1;-1;-1;-1;-1;;Naleni
x002480;xd662a8;sea;-1;-1;-1;-1;-1;;Damesear
xd662a8;x274840;sea;-1;-1;-1;-1;-1;;Damesear
x0130c0;xd6fa07;sea;-1;-1;-1;-1;-1;;Damesear
xd6fa07;x813640;sea;-1;-1;-1;-1;-1;;Damesear
x813640;xfc700a;sea;-1;-1;-1;-1;-1;;Damesear
xfc700a;x813ac0;sea;-1;-1;-1;-1;-1;;Damesear
x349df9;x29d8e4;canal_prikoyol;-1;5549;2864;5540;2877;; Kalsyto Canal
x78fcfc;x56c8fa;canal_dhal_nikhuvad;-1;5516;1203;5524;1206;; Sarhal Canal
x7cfafa;x1fddfb;special;-1;6647;2600;6871;2514;; Odheongu Sea-Barrier Islands Sea