﻿object={
	name="cypress_mediterranean_dense_generator_2_0"
	clamp_to_water_level=no
	render_under_water=no
	generated_content=yes
	layer="semidynamic_medium"
	pdxmesh="tree_cypress_mediterranean_02_mesh"
	count=425
	transform="3808.330078 0.000000 2652.578613 0.000000 0.700365 0.000000 0.713785 0.211430 0.211430 0.211430
3790.368652 0.000000 2654.134766 0.000000 0.980811 0.000000 0.194963 0.242931 0.242931 0.242931
3802.529541 0.000000 2653.687988 0.000000 0.999878 0.000000 -0.015595 0.250881 0.250881 0.250881
3783.440674 0.000000 2648.688477 0.000000 0.384226 0.000000 0.923239 0.231610 0.231610 0.231610
3790.057373 0.000000 2650.117188 0.000000 0.932635 0.000000 -0.360820 0.268954 0.268954 0.268954
3798.444824 0.000000 2649.979980 0.000000 0.998375 0.000000 0.056986 0.260619 0.260619 0.260619
3781.961182 0.000000 2648.914062 0.000000 0.812638 0.000000 0.582768 0.245051 0.245051 0.245051
3803.159668 0.000000 2652.409668 0.000000 0.970785 0.000000 0.239949 0.247887 0.247887 0.247887
3818.601562 0.000000 2650.129883 0.000000 0.884444 0.000000 0.466646 0.259415 0.259415 0.259415
3822.236572 0.000000 2654.137695 0.000000 0.995504 0.000000 0.094723 0.298366 0.298366 0.298366
3805.948486 0.000000 2639.401611 0.000000 0.325254 0.000000 0.945627 0.266311 0.266311 0.266311
3811.804199 0.000000 2641.582764 0.000000 0.894518 0.000000 -0.447032 0.307374 0.307374 0.307374
3787.583252 0.000000 2645.226074 0.000000 0.989899 0.000000 0.141773 0.251809 0.251809 0.251809
3820.208740 0.000000 2652.367920 0.000000 0.269838 0.000000 0.962906 0.244353 0.244353 0.244353
3820.655273 0.000000 2650.206543 0.000000 0.556304 0.000000 0.830979 0.274756 0.274756 0.274756
3812.687500 0.000000 2648.851562 0.000000 0.017793 0.000000 0.999842 0.270340 0.270340 0.270340
3802.914551 0.000000 2649.985107 0.000000 0.978217 0.000000 -0.207585 0.272600 0.272600 0.272600
3812.170654 0.000000 2652.677979 0.000000 0.927754 0.000000 -0.373193 0.283728 0.283728 0.283728
3806.985596 0.000000 2647.325195 0.000000 0.506975 0.000000 0.861961 0.280154 0.280154 0.280154
3816.301758 0.000000 2638.598145 0.000000 0.960977 0.000000 -0.276627 0.305353 0.305353 0.305353
3807.826172 0.000000 2649.857178 0.000000 0.756166 0.000000 0.654380 0.286376 0.286376 0.286376
3809.497803 0.000000 2646.496094 0.000000 0.732430 0.000000 0.680843 0.285697 0.285697 0.285697
3817.405518 0.000000 2636.134033 0.000000 0.944924 0.000000 -0.327291 0.299900 0.299900 0.299900
3802.372314 0.000000 2651.137939 0.000000 0.773080 0.000000 0.634308 0.281520 0.281520 0.281520
3799.398438 0.000000 2654.081543 0.000000 0.999512 0.000000 -0.031240 0.300597 0.300597 0.300597
3805.817627 0.000000 2638.160645 0.000000 0.893107 0.000000 -0.449843 0.292633 0.292633 0.292633
3811.061035 0.000000 2653.598145 0.000000 0.082634 0.000000 0.996580 0.272639 0.272639 0.272639
3820.898193 0.000000 2654.142090 0.000000 0.996042 0.000000 0.088879 0.298300 0.298300 0.298300
3811.658203 0.000000 2638.836670 0.000000 0.994100 0.000000 0.108472 0.297924 0.297924 0.297924
3813.122803 0.000000 2637.443115 0.000000 0.999776 0.000000 0.021147 0.264988 0.264988 0.264988
3821.871094 0.000000 2648.164551 0.000000 0.992711 0.000000 -0.120519 0.302235 0.302235 0.302235
3804.231934 0.000000 2639.884033 0.000000 0.674452 0.000000 0.738319 0.272620 0.272620 0.272620
3821.710693 0.000000 2649.480469 0.000000 0.451225 0.000000 0.892410 0.279601 0.279601 0.279601
3810.360840 0.000000 2643.654541 0.000000 0.397630 0.000000 0.917546 0.278680 0.278680 0.278680
3807.370850 0.000000 2653.342529 0.000000 0.712833 0.000000 0.701334 0.284614 0.284614 0.284614
3813.762939 0.000000 2642.158691 0.000000 0.661948 0.000000 0.749550 0.284578 0.284578 0.284578
3803.631348 0.000000 2654.131348 0.000000 0.966962 0.000000 -0.254922 0.304923 0.304923 0.304923
3811.546631 0.000000 2651.241455 0.000000 0.341854 0.000000 0.939753 0.276663 0.276663 0.276663
3807.890381 0.000000 2644.522461 0.000000 0.231521 0.000000 0.972830 0.274763 0.274763 0.274763
3792.554199 0.000000 2651.056152 0.000000 0.944488 0.000000 -0.328545 0.306394 0.306394 0.306394
3793.432129 0.000000 2653.412109 0.000000 0.354228 0.000000 0.935159 0.276915 0.276915 0.276915
3817.492676 0.000000 2648.765137 0.000000 0.853598 0.000000 0.520932 0.289535 0.289535 0.289535
3819.551025 0.000000 2647.988525 0.000000 0.787152 0.000000 0.616759 0.287307 0.287307 0.287307
3818.690674 0.000000 2654.324463 0.000000 0.811475 0.000000 -0.584387 0.294462 0.294462 0.294462
3817.761475 0.000000 2637.270508 0.000000 0.903614 0.000000 0.428347 0.287094 0.287094 0.287094
3808.087402 0.000000 2638.400391 0.000000 0.852849 0.000000 -0.522158 0.305854 0.305854 0.305854
3813.261475 0.000000 2647.662842 0.000000 0.998815 0.000000 0.048670 0.299141 0.299141 0.299141
3815.291260 0.000000 2637.286865 0.000000 0.999134 0.000000 -0.041615 0.300747 0.300747 0.300747
3821.231445 0.000000 2651.864258 0.000000 0.938797 0.000000 -0.344471 0.296112 0.296112 0.296112
3804.939209 0.000000 2641.894043 0.000000 0.421666 0.000000 0.906751 0.278313 0.278313 0.278313
3813.960449 0.000000 2638.149902 0.000000 0.935368 0.000000 0.353676 0.293096 0.293096 0.293096
3808.789062 0.000000 2651.401367 0.000000 0.994381 0.000000 -0.105864 0.302026 0.302026 0.302026
3817.375000 0.000000 2652.324219 0.000000 0.618374 0.000000 0.785884 0.276985 0.276985 0.276985
3810.110840 0.000000 2653.063477 0.000000 0.957445 0.000000 -0.288615 0.305383 0.305383 0.305383
3815.715576 0.000000 2645.788086 0.000000 0.224308 0.000000 0.974518 0.275177 0.275177 0.275177
3804.236084 0.000000 2640.958252 0.000000 0.073295 0.000000 0.997310 0.271401 0.271401 0.271401
3815.189209 0.000000 2636.239990 0.000000 0.842416 0.000000 -0.538827 0.310207 0.310207 0.310207
3806.155029 0.000000 2653.774902 0.000000 0.229845 0.000000 0.973227 0.275116 0.275116 0.275116
3809.586182 0.000000 2645.401367 0.000000 0.978438 0.000000 -0.206540 0.303584 0.303584 0.303584
3797.128174 0.000000 2652.461670 0.000000 0.978602 0.000000 -0.205761 0.303904 0.303904 0.303904
3797.386719 0.000000 2654.106934 0.000000 0.317261 0.000000 0.948338 0.278175 0.278175 0.278175
3794.747803 0.000000 2650.758545 0.000000 0.986654 0.000000 -0.162828 0.303124 0.303124 0.303124
3793.884521 0.000000 2652.506348 0.000000 0.450527 0.000000 0.892763 0.278926 0.278926 0.278926
3816.233154 0.000000 2649.349609 0.000000 0.505812 0.000000 0.862644 0.280128 0.280128 0.280128
3797.486572 0.000000 2649.535400 0.000000 0.517559 0.000000 0.855647 0.280390 0.280390 0.280390
3806.024414 0.000000 2651.783447 0.000000 0.808887 0.000000 0.587964 0.287996 0.287996 0.287996
3806.392822 0.000000 2648.122803 0.000000 0.997928 0.000000 -0.064347 0.301230 0.301230 0.301230
3800.628906 0.000000 2652.657715 0.000000 0.450213 0.000000 0.892921 0.278919 0.278919 0.278919
3812.357178 0.000000 2643.520508 0.000000 0.886775 0.000000 -0.462201 0.308745 0.308745 0.308745
3798.491699 0.000000 2646.653564 0.000000 0.242854 0.000000 0.970063 0.274983 0.274983 0.274983
3806.914307 0.000000 2650.137207 0.000000 0.919281 0.000000 -0.393603 0.307726 0.307726 0.307726
3804.579834 0.000000 2648.894043 0.000000 0.842509 0.000000 -0.538682 0.310865 0.310865 0.310865
3814.831055 0.000000 2639.343506 0.000000 0.892594 0.000000 0.450861 0.291067 0.291067 0.291067
3810.603760 0.000000 2654.458740 0.000000 0.363071 0.000000 0.931762 0.277096 0.277096 0.277096
3801.661133 0.000000 2657.831787 0.000000 0.989487 0.000000 -0.144623 0.203000 0.203000 0.203000
3835.100830 0.000000 2664.858398 0.000000 0.259197 0.000000 0.965825 0.192090 0.192090 0.192090
3814.385986 0.000000 2671.610596 0.000000 0.970705 0.000000 0.240274 0.212848 0.212848 0.212848
3832.246338 0.000000 2657.622559 0.000000 0.954727 0.000000 0.297484 0.219994 0.219994 0.219994
3806.725830 0.000000 2658.358154 0.000000 0.926383 0.000000 -0.376583 0.230773 0.230773 0.230773
3821.430908 0.000000 2658.817383 0.000000 0.995151 0.000000 0.098364 0.229582 0.229582 0.229582
3807.632568 0.000000 2665.434326 0.000000 0.876948 0.000000 0.480585 0.228369 0.228369 0.228369
3812.990479 0.000000 2655.451172 0.000000 0.826831 0.000000 0.562451 0.249546 0.249546 0.249546
3821.674561 0.000000 2667.769043 0.000000 0.997562 0.000000 -0.069780 0.269571 0.269571 0.269571
3795.350342 0.000000 2657.119385 0.000000 0.413342 0.000000 0.910576 0.256094 0.256094 0.256094
3823.029785 0.000000 2669.009033 0.000000 0.527104 0.000000 0.849801 0.249921 0.249921 0.249921
3809.853027 0.000000 2666.530273 0.000000 0.999102 0.000000 0.042372 0.251882 0.251882 0.251882
3813.106689 0.000000 2667.363525 0.000000 0.996348 0.000000 -0.085382 0.283924 0.283924 0.283924
3805.055664 0.000000 2660.779297 0.000000 0.916392 0.000000 -0.400282 0.286504 0.286504 0.286504
3803.133789 0.000000 2658.295898 0.000000 0.939487 0.000000 -0.342585 0.294329 0.294329 0.294329
3806.191162 0.000000 2656.979736 0.000000 0.341247 0.000000 0.939974 0.268490 0.268490 0.268490
3798.733154 0.000000 2663.536621 0.000000 0.906712 0.000000 0.421751 0.252065 0.252065 0.252065
3795.337891 0.000000 2654.924561 0.000000 0.989322 0.000000 -0.145749 0.262637 0.262637 0.262637
3802.256592 0.000000 2659.490479 0.000000 0.994086 0.000000 0.108597 0.287073 0.287073 0.287073
3807.834473 0.000000 2656.919189 0.000000 0.947158 0.000000 -0.320767 0.292799 0.292799 0.292799
3825.096680 0.000000 2662.459229 0.000000 0.348512 0.000000 0.937304 0.279073 0.279073 0.279073
3815.522949 0.000000 2658.763672 0.000000 0.971247 0.000000 0.238072 0.282270 0.282270 0.282270
3805.379639 0.000000 2666.240967 0.000000 0.948685 0.000000 0.316224 0.279392 0.279392 0.279392
3796.179199 0.000000 2656.042725 0.000000 0.976712 0.000000 0.214556 0.277183 0.277183 0.277183
3806.425537 0.000000 2661.649902 0.000000 0.180723 0.000000 0.983534 0.275135 0.275135 0.275135
3824.351074 0.000000 2663.674561 0.000000 0.819201 0.000000 -0.573506 0.310521 0.310521 0.310521
3810.757568 0.000000 2660.227539 0.000000 0.244352 0.000000 0.969687 0.266427 0.266427 0.266427
3815.339600 0.000000 2656.348145 0.000000 0.193071 0.000000 0.981185 0.273711 0.273711 0.273711
3833.981445 0.000000 2660.393066 0.000000 0.476394 0.000000 0.879232 0.272771 0.272771 0.272771
3808.387939 0.000000 2664.059082 0.000000 0.837493 0.000000 -0.546448 0.304537 0.304537 0.304537
3812.191406 0.000000 2666.470459 0.000000 0.998257 0.000000 0.059025 0.281741 0.281741 0.281741
3810.554688 0.000000 2664.479736 0.000000 0.318954 0.000000 0.947770 0.258537 0.258537 0.258537
3822.200195 0.000000 2655.875488 0.000000 0.568566 0.000000 0.822637 0.283359 0.283359 0.283359
3816.696289 0.000000 2665.013184 0.000000 0.705972 0.000000 0.708239 0.275325 0.275325 0.275325
3803.442383 0.000000 2663.188477 0.000000 0.999935 0.000000 0.011385 0.299783 0.299783 0.299783
3803.969971 0.000000 2655.747803 0.000000 0.922405 0.000000 0.386223 0.292427 0.292427 0.292427
3825.067871 0.000000 2659.294678 0.000000 0.582965 0.000000 0.812497 0.281886 0.281886 0.281886
3820.345703 0.000000 2665.482178 0.000000 0.957380 0.000000 0.288833 0.294404 0.294404 0.294404
3821.442383 0.000000 2666.528564 0.000000 0.997906 0.000000 0.064674 0.267753 0.267753 0.267753
3820.737061 0.000000 2657.587646 0.000000 0.399757 0.000000 0.916621 0.279418 0.279418 0.279418
3817.821533 0.000000 2669.222656 0.000000 0.310452 0.000000 0.950589 0.277768 0.277768 0.277768
3818.844238 0.000000 2663.665527 0.000000 0.940680 0.000000 0.339295 0.293881 0.293881 0.293881
3812.202637 0.000000 2658.414307 0.000000 0.131013 0.000000 0.991381 0.272617 0.272617 0.272617
3831.719727 0.000000 2658.795410 0.000000 0.923964 0.000000 -0.382480 0.304984 0.304984 0.304984
3798.163330 0.000000 2657.730957 0.000000 0.998565 0.000000 0.053551 0.299051 0.299051 0.299051
3804.834961 0.000000 2663.441406 0.000000 0.989265 0.000000 -0.146135 0.274025 0.274025 0.274025
3826.592529 0.000000 2660.476807 0.000000 0.002062 0.000000 0.999998 0.271802 0.271802 0.271802
3822.633301 0.000000 2659.481445 0.000000 0.971473 0.000000 -0.237149 0.304402 0.304402 0.304402
3805.049072 0.000000 2656.408203 0.000000 0.757278 0.000000 0.653092 0.286408 0.286408 0.286408
3822.601562 0.000000 2661.868164 0.000000 0.718279 0.000000 0.695755 0.285304 0.285304 0.285304
3817.849365 0.000000 2665.437744 0.000000 0.449882 0.000000 0.893088 0.270348 0.270348 0.270348
3826.833740 0.000000 2663.345947 0.000000 0.025858 0.000000 0.999666 0.270494 0.270494 0.270494
3800.312988 0.000000 2658.194580 0.000000 0.787979 0.000000 0.615702 0.287332 0.287332 0.287332
3830.206543 0.000000 2662.181396 0.000000 0.889769 0.000000 0.456412 0.290948 0.290948 0.290948
3812.343262 0.000000 2661.306885 0.000000 0.449139 0.000000 0.893462 0.278896 0.278896 0.278896
3815.708496 0.000000 2660.760254 0.000000 0.994389 0.000000 -0.105788 0.302024 0.302024 0.302024
3801.831543 0.000000 2661.909180 0.000000 0.979344 0.000000 0.202201 0.296111 0.296111 0.296111
3804.237305 0.000000 2658.740967 0.000000 0.861041 0.000000 -0.508535 0.310189 0.310189 0.310189
3804.718506 0.000000 2665.266113 0.000000 0.144736 0.000000 0.989470 0.272774 0.272774 0.272774
3812.322998 0.000000 2665.266357 0.000000 0.800082 0.000000 0.599890 0.287857 0.287857 0.287857
3798.342773 0.000000 2654.911133 0.000000 0.188882 0.000000 0.982000 0.273629 0.273629 0.273629
3824.795654 0.000000 2664.790527 0.000000 0.982134 0.000000 0.188180 0.282514 0.282514 0.282514
3821.104004 0.000000 2656.220215 0.000000 0.932432 0.000000 0.361346 0.293437 0.293437 0.293437
3832.214111 0.000000 2666.292725 0.000000 0.986885 0.000000 -0.161423 0.303097 0.303097 0.303097
3830.497559 0.000000 2667.929443 0.000000 0.016479 0.000000 0.999864 0.270315 0.270315 0.270315
3818.590820 0.000000 2658.174561 0.000000 0.947021 0.000000 -0.321170 0.298045 0.298045 0.298045
3810.086426 0.000000 2661.663574 0.000000 0.871700 0.000000 0.490041 0.279112 0.279112 0.279112
3806.069580 0.000000 2667.893799 0.000000 0.971525 0.000000 0.236938 0.295440 0.295440 0.295440
3827.716553 0.000000 2657.017822 0.000000 0.989360 0.000000 0.145488 0.297211 0.297211 0.297211
3829.988770 0.000000 2666.004883 0.000000 0.880187 0.000000 0.474627 0.290448 0.290448 0.290448
3825.364014 0.000000 2657.054932 0.000000 0.188277 0.000000 0.982116 0.273617 0.273617 0.273617
3820.467773 0.000000 2662.770996 0.000000 0.768892 0.000000 0.639379 0.286752 0.286752 0.286752
3802.453857 0.000000 2655.779785 0.000000 0.994645 0.000000 -0.103352 0.301977 0.301977 0.301977
3799.045898 0.000000 2656.399414 0.000000 0.784275 0.000000 0.620413 0.288145 0.288145 0.288145
3824.528076 0.000000 2660.637939 0.000000 0.345105 0.000000 0.938564 0.277551 0.277551 0.277551
3807.664551 0.000000 2666.484619 0.000000 0.643167 0.000000 0.765726 0.283375 0.283375 0.283375
3822.404297 0.000000 2667.008301 0.000000 0.996495 0.000000 0.083653 0.298400 0.298400 0.298400
3825.758545 0.000000 2667.017090 0.000000 0.962008 0.000000 -0.273020 0.305281 0.305281 0.305281
3823.897461 0.000000 2666.451172 0.000000 0.996052 0.000000 0.088775 0.298302 0.298302 0.298302
3802.285645 0.000000 2660.570801 0.000000 0.999736 0.000000 0.022987 0.299561 0.299561 0.299561
3827.945068 0.000000 2661.602295 0.000000 0.983480 0.000000 0.181017 0.296728 0.296728 0.296728
3826.345703 0.000000 2667.881348 0.000000 0.966926 0.000000 -0.255059 0.304926 0.304926 0.304926
3801.039551 0.000000 2663.393066 0.000000 0.335044 0.000000 0.942202 0.277906 0.277906 0.277906
3811.494385 0.000000 2657.464111 0.000000 0.293939 0.000000 0.955824 0.275698 0.275698 0.275698
3820.757568 0.000000 2664.546387 0.000000 0.601493 0.000000 0.798878 0.282326 0.282326 0.282326
3811.282471 0.000000 2659.302002 0.000000 0.429847 0.000000 0.902902 0.278486 0.278486 0.278486
3805.897949 0.000000 2655.791016 0.000000 0.457666 0.000000 0.889124 0.279079 0.279079 0.279079
3813.770020 0.000000 2659.768066 0.000000 0.940674 0.000000 0.339311 0.293414 0.293414 0.293414
3800.379639 0.000000 2661.473633 0.000000 0.981465 0.000000 -0.191641 0.303683 0.303683 0.303683
3818.282959 0.000000 2668.271484 0.000000 0.857718 0.000000 0.514120 0.289687 0.289687 0.289687
3824.417969 0.000000 2661.723389 0.000000 0.040730 0.000000 0.999170 0.271809 0.271809 0.271809
3824.511719 0.000000 2667.280762 0.000000 0.952256 0.000000 0.305301 0.294075 0.294075 0.294075
3824.027344 0.000000 2658.772461 0.000000 0.840873 0.000000 -0.541233 0.310923 0.310923 0.310923
3798.670654 0.000000 2661.064697 0.000000 0.995597 0.000000 -0.093738 0.301723 0.301723 0.301723
3810.923828 0.000000 2666.608154 0.000000 0.337054 0.000000 0.941485 0.276566 0.276566 0.276566
3821.587891 0.000000 2661.555176 0.000000 0.866812 0.000000 0.498636 0.290030 0.290030 0.290030
3823.321289 0.000000 2663.424316 0.000000 0.998646 0.000000 -0.052016 0.300955 0.300955 0.300955
3805.689209 0.000000 2664.000000 0.000000 0.999128 0.000000 0.041741 0.299203 0.299203 0.299203
3810.059082 0.000000 2655.945068 0.000000 0.292573 0.000000 0.956243 0.275671 0.275671 0.275671
3813.482666 0.000000 2669.177979 0.000000 0.909396 0.000000 0.415930 0.291807 0.291807 0.291807
3828.065186 0.000000 2662.626221 0.000000 0.445570 0.000000 0.895247 0.278820 0.278820 0.278820
3799.932129 0.000000 2659.770508 0.000000 0.898880 0.000000 -0.438195 0.308663 0.308663 0.308663
3812.603516 0.000000 2669.771240 0.000000 0.578492 0.000000 0.815688 0.281782 0.281782 0.281782
3799.241455 0.000000 2658.353516 0.000000 0.972697 0.000000 -0.232077 0.304473 0.304473 0.304473
3804.227295 0.000000 2654.808350 0.000000 0.905029 0.000000 -0.425349 0.308391 0.308391 0.308391
3822.978027 0.000000 2660.358398 0.000000 0.041134 0.000000 0.999154 0.270786 0.270786 0.270786
3813.326416 0.000000 2668.261230 0.000000 0.293118 0.000000 0.956076 0.275682 0.275682 0.275682
3813.897217 0.000000 2661.517822 0.000000 0.978020 0.000000 -0.208509 0.304012 0.304012 0.304012
3814.326904 0.000000 2669.549072 0.000000 0.997016 0.000000 -0.077190 0.301476 0.301476 0.301476
3810.231445 0.000000 2667.390625 0.000000 0.847486 0.000000 0.530817 0.289313 0.289313 0.289313
3819.474854 0.000000 2661.528809 0.000000 0.482322 0.000000 0.875994 0.279612 0.279612 0.279612
5549.470215 0.000000 1214.398926 0.000000 0.847579 0.000000 -0.530669 0.292870 0.292870 0.292870
5537.632324 0.000000 1239.981323 0.000000 0.215329 0.000000 0.976542 0.242203 0.242203 0.242203
5384.908691 0.000000 1345.040649 0.000000 0.998732 0.000000 -0.050347 0.200340 0.200340 0.200340
5385.866211 0.000000 1338.213013 0.000000 0.874502 0.000000 -0.485023 0.203502 0.203502 0.203502
5423.448242 0.000000 1323.648193 0.000000 0.989533 0.000000 0.144306 0.226373 0.226373 0.226373
5380.679688 0.000000 1351.755615 0.000000 0.438586 0.000000 0.898689 0.228776 0.228776 0.228776
5425.542480 0.000000 1320.569336 0.000000 0.989452 0.000000 0.144859 0.261149 0.261149 0.261149
5425.393555 0.000000 1322.971191 0.000000 0.817246 0.000000 0.576290 0.263460 0.263460 0.263460
5377.626465 0.000000 1354.057983 0.000000 0.862572 0.000000 -0.505935 0.252727 0.252727 0.252727
5431.696777 0.000000 1308.426514 0.000000 0.607211 0.000000 0.794541 0.277255 0.277255 0.277255
5430.395020 0.000000 1309.203857 0.000000 0.662876 0.000000 0.748729 0.278425 0.278425 0.278425
5435.256348 0.000000 1308.111206 0.000000 0.810895 0.000000 -0.585192 0.311939 0.311939 0.311939
5434.012207 0.000000 1309.470337 0.000000 0.917884 0.000000 0.396848 0.292206 0.292206 0.292206
5433.506836 0.000000 1306.713257 0.000000 0.651989 0.000000 0.758228 0.283564 0.283564 0.283564
5435.024414 0.000000 1306.768311 0.000000 0.999842 0.000000 -0.017774 0.300340 0.300340 0.300340
5433.308105 0.000000 1307.787109 0.000000 0.928738 0.000000 0.370737 0.292746 0.292746 0.292746
5482.009766 0.000000 1354.077271 0.000000 0.002197 0.000000 0.999998 0.189544 0.189544 0.189544
5491.402344 0.000000 1353.107910 0.000000 0.978133 0.000000 0.207982 0.200461 0.200461 0.200461
5470.608887 0.000000 1304.680298 0.000000 0.933514 0.000000 -0.358542 0.215554 0.215554 0.215554
5449.676758 0.000000 1313.817139 0.000000 0.988283 0.000000 0.152630 0.248370 0.248370 0.248370
5446.510254 0.000000 1315.741089 0.000000 0.957090 0.000000 0.289790 0.287385 0.287385 0.287385
5506.575684 0.000000 1340.267700 0.000000 0.998833 0.000000 0.048295 0.221142 0.221142 0.221142
5557.177734 0.000000 1309.661011 0.000000 0.476602 0.000000 0.879119 0.210065 0.210065 0.210065
5522.223633 0.000000 1322.293823 0.000000 0.868743 0.000000 -0.495263 0.309896 0.309896 0.309896
5508.135742 0.000000 1343.348267 0.000000 0.845985 0.000000 -0.533206 0.310741 0.310741 0.310741
5509.642578 0.000000 1342.155884 0.000000 0.625235 0.000000 0.780437 0.282900 0.282900 0.282900
5373.212891 0.000000 1381.016724 0.000000 0.967964 0.000000 0.251088 0.198315 0.198315 0.198315
5372.008301 0.000000 1397.902222 0.000000 0.986441 0.000000 0.164115 0.209070 0.209070 0.209070
5375.374512 0.000000 1395.720459 0.000000 0.828827 0.000000 -0.559505 0.225628 0.225628 0.225628
5369.190430 0.000000 1397.731812 0.000000 0.938197 0.000000 -0.346103 0.233361 0.233361 0.233361
5368.471680 0.000000 1396.081055 0.000000 0.728583 0.000000 0.684958 0.222737 0.222737 0.222737
5375.462891 0.000000 1355.974976 0.000000 0.648857 0.000000 0.760911 0.246272 0.246272 0.246272
5356.208984 0.000000 1409.711548 0.000000 0.830498 0.000000 0.557021 0.254877 0.254877 0.254877
5375.352051 0.000000 1377.318848 0.000000 0.443659 0.000000 0.896196 0.280236 0.280236 0.280236
5394.817383 0.000000 1386.068848 0.000000 0.311817 0.000000 0.950142 0.191581 0.191581 0.191581
5387.786133 0.000000 1360.677979 0.000000 0.882050 0.000000 -0.471156 0.203282 0.203282 0.203282
5421.386719 0.000000 1410.332031 0.000000 0.717604 0.000000 0.696451 0.194691 0.194691 0.194691
5427.016113 0.000000 1376.476074 0.000000 0.695016 0.000000 0.718995 0.197788 0.197788 0.197788
5376.090332 0.000000 1358.920654 0.000000 0.236461 0.000000 0.971641 0.194423 0.194423 0.194423
5390.686523 0.000000 1370.216431 0.000000 0.230882 0.000000 0.972982 0.201847 0.201847 0.201847
5384.237305 0.000000 1403.651611 0.000000 0.042589 0.000000 0.999093 0.218200 0.218200 0.218200
5415.778320 0.000000 1411.459961 0.000000 0.435659 0.000000 0.900112 0.205624 0.205624 0.205624
5397.917480 0.000000 1399.887207 0.000000 0.957768 0.000000 -0.287542 0.254663 0.254663 0.254663
5378.681152 0.000000 1377.843506 0.000000 0.811538 0.000000 -0.584300 0.237141 0.237141 0.237141
5406.021484 0.000000 1363.891968 0.000000 0.953350 0.000000 -0.301866 0.232336 0.232336 0.232336
5419.722656 0.000000 1410.948242 0.000000 0.621679 0.000000 0.783273 0.238725 0.238725 0.238725
5383.546875 0.000000 1386.929810 0.000000 0.968096 0.000000 0.250580 0.232465 0.232465 0.232465
5376.523438 0.000000 1357.281006 0.000000 0.900825 0.000000 0.434181 0.244417 0.244417 0.244417
5377.657715 0.000000 1356.128784 0.000000 0.435985 0.000000 0.899954 0.236708 0.236708 0.236708
5384.364746 0.000000 1356.081787 0.000000 0.359058 0.000000 0.933315 0.239182 0.239182 0.239182
5377.323730 0.000000 1361.682373 0.000000 0.490367 0.000000 0.871516 0.250858 0.250858 0.250858
5391.028809 0.000000 1368.730835 0.000000 0.113034 0.000000 0.993591 0.265266 0.265266 0.265266
5397.902344 0.000000 1401.111450 0.000000 0.887090 0.000000 0.461596 0.276446 0.276446 0.276446
5404.025391 0.000000 1361.995850 0.000000 0.981082 0.000000 0.193595 0.296279 0.296279 0.296279
5377.148926 0.000000 1379.774170 0.000000 0.961174 0.000000 0.275942 0.294661 0.294661 0.294661
5405.493652 0.000000 1362.982788 0.000000 0.616144 0.000000 0.787634 0.283222 0.283222 0.283222
5404.631836 0.000000 1360.791504 0.000000 0.881042 0.000000 0.473038 0.290589 0.290589 0.290589
5481.563477 0.000000 1382.115967 0.000000 0.916757 0.000000 -0.399445 0.202647 0.202647 0.202647
5494.158691 0.000000 1387.684814 0.000000 0.998716 0.000000 0.050667 0.207177 0.207177 0.207177
5468.928223 0.000000 1373.505127 0.000000 0.192834 0.000000 0.981231 0.197076 0.197076 0.197076
5501.251953 0.000000 1362.439575 0.000000 0.966608 0.000000 -0.256260 0.213544 0.213544 0.213544
5448.237305 0.000000 1403.651611 0.000000 0.622991 0.000000 0.782229 0.205382 0.205382 0.205382
5450.618164 0.000000 1407.068237 0.000000 0.834299 0.000000 0.551312 0.227551 0.227551 0.227551
5447.440918 0.000000 1406.032104 0.000000 0.927167 0.000000 -0.374647 0.253994 0.253994 0.253994
5474.087402 0.000000 1380.680176 0.000000 0.944104 0.000000 -0.329649 0.256919 0.256919 0.256919
5442.681152 0.000000 1377.843506 0.000000 0.935624 0.000000 0.352999 0.220554 0.220554 0.220554
5485.431152 0.000000 1359.676636 0.000000 0.879124 0.000000 -0.476593 0.232977 0.232977 0.232977
5488.748535 0.000000 1357.037354 0.000000 0.959224 0.000000 0.282647 0.246830 0.246830 0.246830
5450.416504 0.000000 1387.309204 0.000000 0.066666 0.000000 0.997775 0.241738 0.241738 0.241738
5451.147461 0.000000 1393.790649 0.000000 0.984479 0.000000 0.175501 0.264046 0.264046 0.264046
5478.707031 0.000000 1364.182251 0.000000 0.911565 0.000000 0.411156 0.257023 0.257023 0.257023
5446.510254 0.000000 1372.225464 0.000000 0.968727 0.000000 0.248130 0.261970 0.261970 0.261970
5478.074219 0.000000 1365.471558 0.000000 0.600578 0.000000 0.799566 0.250565 0.250565 0.250565
5454.057129 0.000000 1390.287354 0.000000 0.825031 0.000000 0.565088 0.289228 0.289228 0.289228
5476.191406 0.000000 1367.329956 0.000000 0.468229 0.000000 0.883607 0.279306 0.279306 0.279306
5454.689941 0.000000 1391.969360 0.000000 0.997533 0.000000 0.070202 0.298740 0.298740 0.298740
5447.959473 0.000000 1404.883789 0.000000 0.991901 0.000000 0.127011 0.285677 0.285677 0.285677
5445.319336 0.000000 1375.593384 0.000000 0.864734 0.000000 0.502231 0.290857 0.290857 0.290857
5478.709473 0.000000 1366.432739 0.000000 0.919760 0.000000 0.392482 0.291470 0.291470 0.291470
5479.854004 0.000000 1366.673462 0.000000 0.307312 0.000000 0.951609 0.276950 0.276950 0.276950
5485.104004 0.000000 1357.079468 0.000000 0.857226 0.000000 -0.514940 0.309339 0.309339 0.309339
5450.277832 0.000000 1391.676636 0.000000 0.352565 0.000000 0.935787 0.267720 0.267720 0.267720
5502.358398 0.000000 1362.496704 0.000000 0.999546 0.000000 -0.030144 0.300576 0.300576 0.300576
5449.561035 0.000000 1406.770508 0.000000 0.895889 0.000000 -0.444278 0.299037 0.299037 0.299037
5453.676758 0.000000 1392.619019 0.000000 0.382120 0.000000 0.924113 0.279607 0.279607 0.279607
5476.187500 0.000000 1368.680786 0.000000 0.958097 0.000000 0.286445 0.294452 0.294452 0.294452
5449.796387 0.000000 1388.119263 0.000000 0.979559 0.000000 -0.201158 0.303770 0.303770 0.303770
5502.515625 0.000000 1363.472046 0.000000 0.989287 0.000000 -0.145986 0.302798 0.302798 0.302798
5474.231445 0.000000 1368.250000 0.000000 0.222166 0.000000 0.975009 0.274279 0.274279 0.274279
5381.464844 0.000000 1416.891357 0.000000 0.984679 0.000000 0.174380 0.200154 0.200154 0.200154
5414.826172 0.000000 1418.845459 0.000000 0.949567 0.000000 0.313565 0.274580 0.274580 0.274580
5419.440918 0.000000 1419.797729 0.000000 0.937468 0.000000 -0.348071 0.253667 0.253667 0.253667
5414.002930 0.000000 1413.770996 0.000000 0.349577 0.000000 0.936908 0.277710 0.277710 0.277710
5423.546387 0.000000 1418.456787 0.000000 0.937973 0.000000 0.346709 0.262766 0.262766 0.262766
5416.923828 0.000000 1418.807495 0.000000 0.889955 0.000000 -0.456048 0.300434 0.300434 0.300434
5424.334961 0.000000 1428.212769 0.000000 0.775356 0.000000 0.631525 0.276434 0.276434 0.276434
5416.114258 0.000000 1414.664795 0.000000 0.999989 0.000000 -0.004634 0.300089 0.300089 0.300089
5415.708496 0.000000 1418.104126 0.000000 0.410476 0.000000 0.911871 0.262386 0.262386 0.262386
5418.590820 0.000000 1415.518311 0.000000 0.898149 0.000000 -0.439692 0.308695 0.308695 0.308695
5425.437988 0.000000 1428.284302 0.000000 0.797034 0.000000 0.603935 0.276982 0.276982 0.276982
5417.729980 0.000000 1418.081421 0.000000 0.933932 0.000000 -0.357452 0.298674 0.298674 0.298674
5414.425293 0.000000 1415.920776 0.000000 0.995020 0.000000 -0.099679 0.301907 0.301907 0.301907
5419.303711 0.000000 1414.669556 0.000000 0.887013 0.000000 0.461744 0.290833 0.290833 0.290833
5417.046387 0.000000 1412.434082 0.000000 0.895322 0.000000 -0.445419 0.308817 0.308817 0.308817
5419.191406 0.000000 1416.656616 0.000000 0.974888 0.000000 -0.222694 0.304289 0.304289 0.304289
5420.519531 0.000000 1440.643799 0.000000 0.931978 0.000000 -0.362515 0.307085 0.307085 0.307085
5417.061035 0.000000 1416.625244 0.000000 0.912045 0.000000 -0.410091 0.308070 0.308070 0.308070
5415.911621 0.000000 1417.032104 0.000000 0.924587 0.000000 -0.380970 0.307465 0.307465 0.307465
5420.463379 0.000000 1416.187500 0.000000 0.860626 0.000000 -0.509238 0.310204 0.310204 0.310204
5528.535645 0.000000 1371.979980 0.000000 0.310859 0.000000 0.950456 0.197001 0.197001 0.197001
5510.070312 0.000000 1362.664917 0.000000 0.092778 0.000000 0.995687 0.212899 0.212899 0.212899
5506.199219 0.000000 1362.737305 0.000000 0.836751 0.000000 -0.547584 0.220205 0.220205 0.220205
5535.750977 0.000000 1362.208008 0.000000 0.203429 0.000000 0.979090 0.253021 0.253021 0.253021
5505.323730 0.000000 1361.682373 0.000000 0.984543 0.000000 0.175142 0.279426 0.279426 0.279426
5509.292969 0.000000 1361.642456 0.000000 0.321987 0.000000 0.946744 0.276261 0.276261 0.276261
5508.727051 0.000000 1362.875854 0.000000 0.717691 0.000000 0.696362 0.285288 0.285288 0.285288
5533.493652 0.000000 1362.982788 0.000000 0.886127 0.000000 -0.463442 0.309203 0.309203 0.309203
4470.683594 0.000000 2572.358643 0.000000 0.999911 0.000000 -0.013341 0.300255 0.300255 0.300255
4466.699707 0.000000 2572.849854 0.000000 0.198877 0.000000 0.980025 0.275620 0.275620 0.275620
4531.634277 0.000000 2584.524658 0.000000 0.821854 0.000000 0.569698 0.197621 0.197621 0.197621
4539.000977 0.000000 2579.597900 0.000000 0.885694 0.000000 0.464269 0.206573 0.206573 0.206573
4535.044922 0.000000 2580.885254 0.000000 0.772689 0.000000 0.634785 0.210237 0.210237 0.210237
4515.522949 0.000000 2586.442871 0.000000 0.994916 0.000000 -0.100706 0.215111 0.215111 0.215111
4481.042969 0.000000 2574.297852 0.000000 0.067587 0.000000 0.997713 0.218928 0.218928 0.218928
4514.508301 0.000000 2588.362549 0.000000 0.993229 0.000000 -0.116177 0.236186 0.236186 0.236186
4540.034180 0.000000 2589.620117 0.000000 0.238342 0.000000 0.971181 0.205877 0.205877 0.205877
4535.893555 0.000000 2585.301758 0.000000 0.034613 0.000000 0.999401 0.222899 0.222899 0.222899
4517.577148 0.000000 2589.965332 0.000000 0.986157 0.000000 -0.165815 0.239536 0.239536 0.239536
4489.880371 0.000000 2575.315430 0.000000 0.958595 0.000000 -0.284773 0.280048 0.280048 0.280048
4540.027344 0.000000 2586.679199 0.000000 0.023047 0.000000 0.999734 0.224682 0.224682 0.224682
4539.962402 0.000000 2580.745117 0.000000 0.684506 0.000000 0.729007 0.243269 0.243269 0.243269
4484.693359 0.000000 2574.437256 0.000000 0.858893 0.000000 -0.512155 0.280643 0.280643 0.280643
4480.489258 0.000000 2573.218994 0.000000 0.987327 0.000000 -0.158698 0.286752 0.286752 0.286752
4486.969727 0.000000 2574.121094 0.000000 0.877106 0.000000 -0.480296 0.308611 0.308611 0.308611
4542.141113 0.000000 2588.665039 0.000000 0.981854 0.000000 0.189637 0.296356 0.296356 0.296356
4483.692383 0.000000 2575.097900 0.000000 0.997794 0.000000 0.066385 0.298776 0.298776 0.298776
4595.634277 0.000000 2584.524658 0.000000 0.237876 0.000000 0.971296 0.195931 0.195931 0.195931
4594.216309 0.000000 2586.341797 0.000000 0.908528 0.000000 0.417824 0.214532 0.214532 0.214532
4545.726074 0.000000 2584.701416 0.000000 0.070204 0.000000 0.997533 0.208330 0.208330 0.208330
4544.525879 0.000000 2579.099854 0.000000 0.877180 0.000000 -0.480162 0.263587 0.263587 0.263587
4589.887207 0.000000 2581.028809 0.000000 0.976361 0.000000 -0.216147 0.281328 0.281328 0.281328
4588.436035 0.000000 2582.952637 0.000000 0.309101 0.000000 0.951029 0.269862 0.269862 0.269862
4579.250488 0.000000 2579.223145 0.000000 0.938012 0.000000 0.346601 0.293320 0.293320 0.293320
4574.405762 0.000000 2580.036621 0.000000 0.981061 0.000000 0.193698 0.296503 0.296503 0.296503
4691.991699 0.000000 2518.540039 0.000000 0.860356 0.000000 0.509693 0.203489 0.203489 0.203489
4696.795410 0.000000 2513.224609 0.000000 0.998829 0.000000 -0.048371 0.211869 0.211869 0.211869
4693.235840 0.000000 2505.173584 0.000000 0.781011 0.000000 0.624517 0.211402 0.211402 0.211402
4720.587891 0.000000 2505.565674 0.000000 0.468206 0.000000 0.883619 0.215043 0.215043 0.215043
4703.330566 0.000000 2517.733643 0.000000 0.287830 0.000000 0.957681 0.211774 0.211774 0.211774
4714.281250 0.000000 2527.524170 0.000000 0.396762 0.000000 0.917922 0.224807 0.224807 0.224807
4722.395020 0.000000 2515.329102 0.000000 0.732063 0.000000 0.681237 0.243033 0.243033 0.243033
4688.985352 0.000000 2507.488281 0.000000 0.996021 0.000000 0.089121 0.246333 0.246333 0.246333
4696.204102 0.000000 2529.840088 0.000000 0.999987 0.000000 0.005041 0.248962 0.248962 0.248962
4697.560059 0.000000 2528.486084 0.000000 0.931743 0.000000 0.363118 0.244769 0.244769 0.244769
4715.954590 0.000000 2509.018555 0.000000 0.976991 0.000000 0.213281 0.236692 0.236692 0.236692
4688.278320 0.000000 2506.031738 0.000000 0.889189 0.000000 -0.457541 0.252694 0.252694 0.252694
4705.699219 0.000000 2498.742676 0.000000 0.939164 0.000000 0.343469 0.271425 0.271425 0.271425
4696.030273 0.000000 2498.617676 0.000000 0.986554 0.000000 0.163435 0.277406 0.277406 0.277406
4694.351074 0.000000 2504.052979 0.000000 0.351763 0.000000 0.936089 0.238108 0.238108 0.238108
4688.485352 0.000000 2510.424805 0.000000 0.997354 0.000000 0.072703 0.284312 0.284312 0.284312
4690.834473 0.000000 2511.901855 0.000000 0.770290 0.000000 0.637694 0.241630 0.241630 0.241630
4702.394531 0.000000 2503.358887 0.000000 0.901843 0.000000 -0.432063 0.268790 0.268790 0.268790
4704.240234 0.000000 2499.282471 0.000000 0.165110 0.000000 0.986275 0.256252 0.256252 0.256252
4695.955566 0.000000 2519.103027 0.000000 0.600597 0.000000 0.799552 0.240957 0.240957 0.240957
4695.062012 0.000000 2501.434082 0.000000 0.341849 0.000000 0.939755 0.241896 0.241896 0.241896
4713.033691 0.000000 2526.749268 0.000000 0.048593 0.000000 0.998819 0.273437 0.273437 0.273437
4702.348145 0.000000 2515.650879 0.000000 0.997999 0.000000 0.063228 0.296133 0.296133 0.296133
4692.063965 0.000000 2526.186768 0.000000 0.940452 0.000000 0.339926 0.293753 0.293753 0.293753
4713.922852 0.000000 2510.464355 0.000000 0.234059 0.000000 0.972222 0.250593 0.250593 0.250593
4696.136230 0.000000 2505.726807 0.000000 0.994336 0.000000 0.106282 0.298154 0.298154 0.298154
4698.370605 0.000000 2507.902344 0.000000 0.316064 0.000000 0.948738 0.248844 0.248844 0.248844
4707.658203 0.000000 2525.867920 0.000000 0.863828 0.000000 0.503787 0.265184 0.265184 0.265184
4700.472656 0.000000 2530.828613 0.000000 0.826690 0.000000 -0.562658 0.310854 0.310854 0.310854
4705.799316 0.000000 2524.198486 0.000000 0.964228 0.000000 -0.265076 0.304873 0.304873 0.304873
4700.429199 0.000000 2524.656006 0.000000 0.991913 0.000000 -0.126919 0.286260 0.286260 0.286260
4695.342773 0.000000 2510.052979 0.000000 0.746006 0.000000 0.665939 0.286355 0.286355 0.286355
4690.317871 0.000000 2520.555176 0.000000 0.953869 0.000000 0.300223 0.294656 0.294656 0.294656
4718.525879 0.000000 2513.040771 0.000000 0.930437 0.000000 -0.366451 0.283623 0.283623 0.283623
4706.942871 0.000000 2523.747314 0.000000 0.575402 0.000000 0.817871 0.283431 0.283431 0.283431
4698.614258 0.000000 2528.956055 0.000000 0.986682 0.000000 -0.162658 0.287384 0.287384 0.287384
4704.087402 0.000000 2525.431641 0.000000 0.028374 0.000000 0.999597 0.271986 0.271986 0.271986
4701.641113 0.000000 2531.068359 0.000000 0.934203 0.000000 -0.356743 0.306625 0.306625 0.306625
4703.979004 0.000000 2514.380371 0.000000 0.531028 0.000000 0.847354 0.280171 0.280171 0.280171
4716.319336 0.000000 2510.112793 0.000000 0.834177 0.000000 0.551497 0.289740 0.289740 0.289740
4709.165527 0.000000 2523.355225 0.000000 0.726450 0.000000 0.687220 0.286665 0.286665 0.286665
4680.698730 0.000000 2516.777344 0.000000 0.454519 0.000000 0.890737 0.280411 0.280411 0.280411
4701.912109 0.000000 2505.605469 0.000000 0.995768 0.000000 0.091906 0.298328 0.298328 0.298328
4707.250488 0.000000 2522.738770 0.000000 0.942014 0.000000 -0.335573 0.305921 0.305921 0.305921
4681.796387 0.000000 2517.806641 0.000000 0.998481 0.000000 -0.055101 0.300983 0.300983 0.300983
4703.729980 0.000000 2505.500000 0.000000 0.899916 0.000000 -0.436063 0.307840 0.307840 0.307840
4705.751465 0.000000 2525.289062 0.000000 0.240983 0.000000 0.970529 0.275891 0.275891 0.275891
4693.468262 0.000000 2503.370605 0.000000 0.896082 0.000000 -0.443888 0.308353 0.308353 0.308353
4610.575684 0.000000 2582.923828 0.000000 0.787198 0.000000 0.616700 0.215705 0.215705 0.215705
4625.493164 0.000000 2585.769775 0.000000 0.999027 0.000000 -0.044098 0.217459 0.217459 0.217459
4614.997070 0.000000 2582.053711 0.000000 0.853809 0.000000 0.520586 0.225785 0.225785 0.225785
4617.808105 0.000000 2582.964111 0.000000 0.940150 0.000000 0.340760 0.230973 0.230973 0.230973
4629.101562 0.000000 2588.247803 0.000000 0.912756 0.000000 -0.408505 0.254418 0.254418 0.254418
4645.379395 0.000000 2578.683594 0.000000 0.840763 0.000000 0.541404 0.231376 0.231376 0.231376
4665.864746 0.000000 2570.388184 0.000000 0.925159 0.000000 0.379579 0.234332 0.234332 0.234332
4624.425781 0.000000 2592.500000 0.000000 0.590843 0.000000 0.806787 0.236253 0.236253 0.236253
4647.382324 0.000000 2575.415283 0.000000 0.964685 0.000000 0.263406 0.241609 0.241609 0.241609
4662.609375 0.000000 2569.645508 0.000000 0.148658 0.000000 0.988889 0.226990 0.226990 0.226990
4626.425781 0.000000 2590.648926 0.000000 0.891136 0.000000 0.453736 0.247898 0.247898 0.247898
4624.398438 0.000000 2586.853271 0.000000 0.211414 0.000000 0.977396 0.233005 0.233005 0.233005
4646.014160 0.000000 2572.625488 0.000000 0.139242 0.000000 0.990258 0.262889 0.262889 0.262889
4628.196289 0.000000 2590.559082 0.000000 0.871118 0.000000 0.491074 0.256931 0.256931 0.256931
4617.022461 0.000000 2584.864014 0.000000 0.983083 0.000000 -0.183161 0.271688 0.271688 0.271688
4663.777832 0.000000 2570.731934 0.000000 0.096068 0.000000 0.995375 0.260831 0.260831 0.260831
4652.992676 0.000000 2564.697510 0.000000 0.187337 0.000000 0.982296 0.265983 0.265983 0.265983
4657.044434 0.000000 2590.877197 0.000000 0.945723 0.000000 -0.324974 0.278328 0.278328 0.278328
4655.887207 0.000000 2591.586670 0.000000 0.988694 0.000000 0.149949 0.295763 0.295763 0.295763
4636.472656 0.000000 2587.312988 0.000000 0.666048 0.000000 0.745908 0.277487 0.277487 0.277487
4668.125488 0.000000 2552.691406 0.000000 0.966310 0.000000 -0.257382 0.285409 0.285409 0.285409
4654.873535 0.000000 2590.898193 0.000000 0.818237 0.000000 0.574882 0.287919 0.287919 0.287919
4613.933594 0.000000 2582.633545 0.000000 0.681297 0.000000 0.732007 0.277314 0.277314 0.277314
4626.479492 0.000000 2588.440430 0.000000 0.010096 0.000000 0.999949 0.265463 0.265463 0.265463
4634.614258 0.000000 2585.440430 0.000000 0.482964 0.000000 0.875640 0.280825 0.280825 0.280825
4625.965332 0.000000 2582.422119 0.000000 0.997005 0.000000 0.077338 0.298521 0.298521 0.298521
4647.180176 0.000000 2572.221191 0.000000 0.170575 0.000000 0.985345 0.263377 0.263377 0.263377
4637.641113 0.000000 2587.552734 0.000000 0.981018 0.000000 0.193918 0.287896 0.287896 0.287896
4624.999512 0.000000 2582.845947 0.000000 0.267816 0.000000 0.963470 0.275178 0.275178 0.275178
4626.137207 0.000000 2584.754883 0.000000 0.789308 0.000000 0.613998 0.288314 0.288314 0.288314
4635.129883 0.000000 2584.601074 0.000000 0.929043 0.000000 0.369971 0.293188 0.293188 0.293188
4625.887207 0.000000 2591.411133 0.000000 0.591171 0.000000 0.806546 0.282221 0.282221 0.282221
4682.564941 0.000000 2544.345703 0.000000 0.929642 0.000000 0.368464 0.205231 0.205231 0.205231
4678.363770 0.000000 2551.309570 0.000000 0.385914 0.000000 0.922535 0.200132 0.200132 0.200132
4685.612305 0.000000 2544.925537 0.000000 0.994055 0.000000 0.108876 0.221716 0.221716 0.221716
4678.936035 0.000000 2545.372803 0.000000 0.783129 0.000000 0.621860 0.235071 0.235071 0.235071
4688.278320 0.000000 2555.352539 0.000000 0.099943 0.000000 0.994993 0.231720 0.231720 0.231720
4689.288086 0.000000 2546.878174 0.000000 0.140540 0.000000 0.990075 0.225457 0.225457 0.225457
4679.434570 0.000000 2552.540527 0.000000 0.904571 0.000000 -0.426323 0.271056 0.271056 0.271056
4690.929199 0.000000 2547.270996 0.000000 0.998968 0.000000 0.045409 0.234557 0.234557 0.234557
4677.431641 0.000000 2552.573486 0.000000 0.779686 0.000000 0.626170 0.242844 0.242844 0.242844
4679.231934 0.000000 2555.036133 0.000000 0.845622 0.000000 -0.533783 0.255461 0.255461 0.255461
4677.529297 0.000000 2545.286865 0.000000 0.993947 0.000000 -0.109858 0.265013 0.265013 0.265013
4685.527344 0.000000 2548.840576 0.000000 0.833652 0.000000 0.552290 0.264911 0.264911 0.264911
4686.695801 0.000000 2548.682861 0.000000 0.212247 0.000000 0.977216 0.274339 0.274339 0.274339
4687.814453 0.000000 2549.409912 0.000000 0.934386 0.000000 -0.356262 0.306889 0.306889 0.306889
4683.201660 0.000000 2553.129150 0.000000 0.988363 0.000000 -0.152114 0.302876 0.302876 0.302876
4681.038086 0.000000 2553.581299 0.000000 0.998084 0.000000 -0.061870 0.301182 0.301182 0.301182
"}
object={
	name="cypress_mediterranean_dense_generator_2_1"
	clamp_to_water_level=no
	render_under_water=no
	generated_content=yes
	layer="semidynamic_medium"
	pdxmesh="tree_cypress_mediterranean_01_mesh"
	count=188
	transform="3820.376709 0.000000 2644.548828 0.000000 0.729722 0.000000 -0.683744 0.205263 0.205263 0.205263
3818.281250 0.000000 2640.492920 0.000000 0.724416 0.000000 -0.689363 0.229476 0.229476 0.229476
3801.560059 0.000000 2641.454834 0.000000 0.394968 0.000000 -0.918695 0.254214 0.254214 0.254214
3810.837891 0.000000 2646.372559 0.000000 0.791862 0.000000 -0.610700 0.270902 0.270902 0.270902
3808.754395 0.000000 2648.782227 0.000000 0.628857 0.000000 -0.777521 0.313444 0.313444 0.313444
3813.805176 0.000000 2653.807861 0.000000 0.231625 0.000000 -0.972805 0.297649 0.297649 0.297649
3813.886230 0.000000 2644.452881 0.000000 0.538595 0.000000 -0.842565 0.294638 0.294638 0.294638
3818.913086 0.000000 2652.281494 0.000000 0.155971 0.000000 -0.987762 0.287091 0.287091 0.287091
3807.181885 0.000000 2645.780518 0.000000 0.788787 0.000000 -0.614666 0.312494 0.312494 0.312494
3818.351562 0.000000 2647.369629 0.000000 0.182634 0.000000 -0.983181 0.326492 0.326492 0.326492
3816.703369 0.000000 2653.149658 0.000000 0.720655 0.000000 -0.693294 0.303977 0.303977 0.303977
3811.590576 0.000000 2644.169434 0.000000 0.742325 0.000000 -0.670040 0.303463 0.303463 0.303463
3801.752441 0.000000 2654.658447 0.000000 0.759674 0.000000 -0.650303 0.284239 0.284239 0.284239
3814.524902 0.000000 2645.634766 0.000000 0.720433 0.000000 -0.693525 0.314149 0.314149 0.314149
3819.627197 0.000000 2649.464844 0.000000 0.663210 0.000000 -0.748433 0.306499 0.306499 0.306499
3807.222900 0.000000 2652.115723 0.000000 0.019044 0.000000 -0.999819 0.324002 0.324002 0.324002
3801.549805 0.000000 2653.168213 0.000000 0.298650 0.000000 -0.954363 0.324208 0.324208 0.324208
3812.531006 0.000000 2642.427246 0.000000 0.410373 0.000000 -0.911918 0.320892 0.320892 0.320892
3788.296631 0.000000 2651.866943 0.000000 0.107231 0.000000 -0.994234 0.319204 0.319204 0.319204
3812.698975 0.000000 2639.796143 0.000000 0.478539 0.000000 -0.878066 0.320470 0.320470 0.320470
3810.886719 0.000000 2640.954346 0.000000 0.745016 0.000000 -0.667047 0.311941 0.311941 0.311941
3823.327393 0.000000 2654.089355 0.000000 0.157127 0.000000 -0.987578 0.324341 0.324341 0.324341
3806.203369 0.000000 2645.440430 0.000000 0.566062 0.000000 -0.824363 0.318290 0.318290 0.318290
3814.308594 0.000000 2649.678711 0.000000 0.156556 0.000000 -0.987669 0.326998 0.326998 0.326998
3797.892578 0.000000 2647.530273 0.000000 0.313630 0.000000 -0.949545 0.323204 0.323204 0.323204
3793.620361 0.000000 2651.421387 0.000000 0.339299 0.000000 -0.940679 0.323389 0.323389 0.323389
3810.731934 0.000000 2650.031738 0.000000 0.425909 0.000000 -0.904766 0.321597 0.321597 0.321597
3807.623535 0.000000 2646.619873 0.000000 0.766901 0.000000 -0.641766 0.313308 0.313308 0.313308
3816.428467 0.000000 2641.996826 0.000000 0.484018 0.000000 -0.875058 0.320351 0.320351 0.320351
3815.104736 0.000000 2666.659180 0.000000 0.467022 0.000000 -0.884246 0.251499 0.251499 0.251499
3817.963623 0.000000 2662.294922 0.000000 0.454745 0.000000 -0.890622 0.269695 0.269695 0.269695
3793.145752 0.000000 2657.319824 0.000000 0.478627 0.000000 -0.878018 0.269989 0.269989 0.269989
3790.749756 0.000000 2654.796631 0.000000 0.007759 0.000000 -0.999970 0.262361 0.262361 0.262361
3809.519287 0.000000 2662.626709 0.000000 0.673377 0.000000 -0.739300 0.256108 0.256108 0.256108
3818.439941 0.000000 2666.989502 0.000000 0.284662 0.000000 -0.958628 0.265586 0.265586 0.265586
3829.071289 0.000000 2659.506836 0.000000 0.252739 0.000000 -0.967534 0.258358 0.258358 0.258358
3831.353271 0.000000 2661.909424 0.000000 0.137479 0.000000 -0.990505 0.315411 0.315411 0.315411
3831.122803 0.000000 2659.908447 0.000000 0.320634 0.000000 -0.947203 0.319450 0.319450 0.319450
3825.824707 0.000000 2665.250977 0.000000 0.242670 0.000000 -0.970109 0.305887 0.305887 0.305887
3830.252441 0.000000 2657.320312 0.000000 0.205793 0.000000 -0.978595 0.308421 0.308421 0.308421
3819.903809 0.000000 2654.873047 0.000000 0.469265 0.000000 -0.883058 0.301501 0.301501 0.301501
3832.930664 0.000000 2667.165771 0.000000 0.041204 0.000000 -0.999151 0.329213 0.329213 0.329213
3832.005127 0.000000 2660.872803 0.000000 0.568606 0.000000 -0.822610 0.305333 0.305333 0.305333
3808.728027 0.000000 2665.974365 0.000000 0.357704 0.000000 -0.933835 0.314923 0.314923 0.314923
3831.961670 0.000000 2656.458252 0.000000 0.637911 0.000000 -0.770110 0.300850 0.300850 0.300850
3809.743164 0.000000 2655.004150 0.000000 0.413367 0.000000 -0.910565 0.321861 0.321861 0.321861
3811.792725 0.000000 2655.742188 0.000000 0.211147 0.000000 -0.977454 0.325937 0.325937 0.325937
3814.709473 0.000000 2665.573242 0.000000 0.625915 0.000000 -0.779891 0.291195 0.291195 0.291195
3813.606445 0.000000 2657.685059 0.000000 0.438210 0.000000 -0.898873 0.319580 0.319580 0.319580
3821.243652 0.000000 2663.627686 0.000000 0.106834 0.000000 -0.994277 0.327956 0.327956 0.327956
3806.228271 0.000000 2654.777344 0.000000 0.017598 0.000000 -0.999845 0.316033 0.316033 0.316033
3831.309570 0.000000 2663.011230 0.000000 0.593706 0.000000 -0.804682 0.317860 0.317860 0.317860
3833.506592 0.000000 2662.338379 0.000000 0.366111 0.000000 -0.930571 0.315415 0.315415 0.315415
3805.639160 0.000000 2658.240723 0.000000 0.576679 0.000000 -0.816971 0.318261 0.318261 0.318261
3829.339111 0.000000 2663.086182 0.000000 0.603150 0.000000 -0.797628 0.317635 0.317635 0.317635
3823.757812 0.000000 2657.531006 0.000000 0.303595 0.000000 -0.952801 0.324109 0.324109 0.324109
3832.537109 0.000000 2665.207764 0.000000 0.484195 0.000000 -0.874960 0.319708 0.319708 0.319708
3826.001709 0.000000 2662.021484 0.000000 0.347252 0.000000 -0.937772 0.323227 0.323227 0.323227
3825.640137 0.000000 2660.113770 0.000000 0.130461 0.000000 -0.991453 0.326531 0.326531 0.326531
3822.127686 0.000000 2658.068604 0.000000 0.216696 0.000000 -0.976239 0.324866 0.324866 0.324866
3802.913818 0.000000 2662.373535 0.000000 0.215966 0.000000 -0.976401 0.325792 0.325792 0.325792
3801.595215 0.000000 2658.820312 0.000000 0.125028 0.000000 -0.992153 0.327606 0.327606 0.327606
3804.631836 0.000000 2659.932129 0.000000 0.044612 0.000000 -0.999004 0.329148 0.329148 0.329148
3801.507080 0.000000 2660.042480 0.000000 0.405931 0.000000 -0.913904 0.322017 0.322017 0.322017
5395.253418 0.000000 1346.727295 0.000000 0.168610 0.000000 -0.985683 0.232043 0.232043 0.232043
5381.961426 0.000000 1349.773438 0.000000 0.128884 0.000000 -0.991660 0.273230 0.273230 0.273230
5411.506348 0.000000 1331.010742 0.000000 0.435082 0.000000 -0.900391 0.295758 0.295758 0.295758
5435.996582 0.000000 1306.409546 0.000000 0.552076 0.000000 -0.833794 0.318830 0.318830 0.318830
5434.291992 0.000000 1308.485840 0.000000 0.382073 0.000000 -0.924132 0.322513 0.322513 0.322513
5489.639160 0.000000 1354.897339 0.000000 0.639181 0.000000 -0.769056 0.284787 0.284787 0.284787
5447.536621 0.000000 1313.381836 0.000000 0.724227 0.000000 -0.689561 0.314532 0.314532 0.314532
5506.657715 0.000000 1343.902954 0.000000 0.256891 0.000000 -0.966440 0.286985 0.286985 0.286985
5374.419434 0.000000 1397.772339 0.000000 0.589138 0.000000 -0.808032 0.206506 0.206506 0.206506
5372.112793 0.000000 1391.300049 0.000000 0.541541 0.000000 -0.840674 0.292713 0.292713 0.292713
5374.477051 0.000000 1381.031250 0.000000 0.183246 0.000000 -0.983067 0.291889 0.291889 0.291889
5373.388184 0.000000 1395.439941 0.000000 0.026806 0.000000 -0.999641 0.329488 0.329488 0.329488
5384.722168 0.000000 1388.144043 0.000000 0.096996 0.000000 -0.995285 0.235839 0.235839 0.235839
5383.260254 0.000000 1402.229492 0.000000 0.355490 0.000000 -0.934680 0.260317 0.260317 0.260317
5385.352539 0.000000 1357.234619 0.000000 0.483498 0.000000 -0.875345 0.266187 0.266187 0.266187
5376.361816 0.000000 1377.260986 0.000000 0.714603 0.000000 -0.699530 0.295553 0.295553 0.295553
5376.016602 0.000000 1378.778320 0.000000 0.557192 0.000000 -0.830384 0.318713 0.318713 0.318713
5467.131348 0.000000 1371.746216 0.000000 0.157229 0.000000 -0.987562 0.209453 0.209453 0.209453
5503.163574 0.000000 1388.299561 0.000000 0.254183 0.000000 -0.967156 0.228159 0.228159 0.228159
5447.784180 0.000000 1408.941406 0.000000 0.366577 0.000000 -0.930388 0.239568 0.239568 0.239568
5446.073242 0.000000 1409.412476 0.000000 0.664208 0.000000 -0.747548 0.236256 0.236256 0.236256
5457.862305 0.000000 1391.952393 0.000000 0.383848 0.000000 -0.923396 0.273166 0.273166 0.273166
5447.546875 0.000000 1386.929810 0.000000 0.664721 0.000000 -0.747092 0.255631 0.255631 0.255631
5458.929199 0.000000 1361.099243 0.000000 0.573931 0.000000 -0.818903 0.247727 0.247727 0.247727
5493.385254 0.000000 1386.232300 0.000000 0.754751 0.000000 -0.656011 0.276484 0.276484 0.276484
5455.974609 0.000000 1389.184937 0.000000 0.217464 0.000000 -0.976068 0.265755 0.265755 0.265755
5475.500488 0.000000 1383.209595 0.000000 0.322388 0.000000 -0.946607 0.274616 0.274616 0.274616
5449.995605 0.000000 1404.465942 0.000000 0.491939 0.000000 -0.870630 0.271670 0.271670 0.271670
5452.607910 0.000000 1392.560669 0.000000 0.395710 0.000000 -0.918376 0.320138 0.320138 0.320138
5452.164062 0.000000 1391.134644 0.000000 0.646136 0.000000 -0.763223 0.314925 0.314925 0.314925
5467.236816 0.000000 1373.111938 0.000000 0.041460 0.000000 -0.999140 0.274944 0.274944 0.274944
5444.081543 0.000000 1375.594849 0.000000 0.430742 0.000000 -0.902475 0.319556 0.319556 0.319556
5450.112793 0.000000 1392.781860 0.000000 0.562393 0.000000 -0.826870 0.279303 0.279303 0.279303
5462.709473 0.000000 1375.587036 0.000000 0.714778 0.000000 -0.699352 0.314792 0.314792 0.314792
5453.796875 0.000000 1394.637817 0.000000 0.551985 0.000000 -0.833854 0.303775 0.303775 0.303775
5476.323242 0.000000 1366.125732 0.000000 0.379571 0.000000 -0.925163 0.322564 0.322564 0.322564
5448.698730 0.000000 1387.089966 0.000000 0.618590 0.000000 -0.785714 0.316111 0.316111 0.316111
5503.554199 0.000000 1363.952881 0.000000 0.714750 0.000000 -0.699380 0.314792 0.314792 0.314792
5477.326660 0.000000 1369.120605 0.000000 0.161017 0.000000 -0.986952 0.326911 0.326911 0.326911
5475.621094 0.000000 1369.456909 0.000000 0.032058 0.000000 -0.999486 0.329388 0.329388 0.329388
5426.516602 0.000000 1428.140869 0.000000 0.576702 0.000000 -0.816954 0.229396 0.229396 0.229396
5423.105469 0.000000 1415.670776 0.000000 0.557209 0.000000 -0.830372 0.251004 0.251004 0.251004
5415.339844 0.000000 1413.691895 0.000000 0.646620 0.000000 -0.762812 0.313053 0.313053 0.313053
5420.736816 0.000000 1414.931396 0.000000 0.502428 0.000000 -0.864619 0.319946 0.319946 0.319946
5419.903809 0.000000 1412.216797 0.000000 0.427819 0.000000 -0.903864 0.321557 0.321557 0.321557
5422.633301 0.000000 1416.825195 0.000000 0.488540 0.000000 -0.872542 0.286087 0.286087 0.286087
5415.881348 0.000000 1412.172607 0.000000 0.689683 0.000000 -0.724112 0.312069 0.312069 0.312069
5417.855957 0.000000 1413.125000 0.000000 0.790781 0.000000 -0.612099 0.312580 0.312580 0.312580
5421.104004 0.000000 1413.563843 0.000000 0.664404 0.000000 -0.747373 0.314699 0.314699 0.314699
5419.013184 0.000000 1413.319580 0.000000 0.586904 0.000000 -0.809656 0.318021 0.318021 0.318021
5417.191895 0.000000 1414.555420 0.000000 0.336799 0.000000 -0.941577 0.323439 0.323439 0.323439
5421.281250 0.000000 1417.229004 0.000000 0.201896 0.000000 -0.979407 0.326117 0.326117 0.326117
5413.770020 0.000000 1417.111938 0.000000 0.485224 0.000000 -0.874390 0.320324 0.320324 0.320324
5531.678223 0.000000 1360.639160 0.000000 0.615429 0.000000 -0.788192 0.228368 0.228368 0.228368
5531.966309 0.000000 1365.238159 0.000000 0.383863 0.000000 -0.923390 0.227622 0.227622 0.227622
5511.620605 0.000000 1361.854248 0.000000 0.429329 0.000000 -0.903148 0.243875 0.243875 0.243875
5512.953125 0.000000 1381.555664 0.000000 0.725031 0.000000 -0.688717 0.243259 0.243259 0.243259
5534.425293 0.000000 1362.509399 0.000000 0.699058 0.000000 -0.715065 0.283052 0.283052 0.283052
5506.773438 0.000000 1361.666382 0.000000 0.210699 0.000000 -0.977551 0.325233 0.325233 0.325233
5532.025391 0.000000 1361.995850 0.000000 0.305536 0.000000 -0.952181 0.322088 0.322088 0.322088
5504.405762 0.000000 1365.401001 0.000000 0.581267 0.000000 -0.813713 0.317477 0.317477 0.317477
5508.596680 0.000000 1360.964355 0.000000 0.128985 0.000000 -0.991647 0.327530 0.327530 0.327530
4489.203613 0.000000 2577.497559 0.000000 0.159639 0.000000 -0.987175 0.209296 0.209296 0.209296
4533.789062 0.000000 2585.240723 0.000000 0.359090 0.000000 -0.933303 0.234049 0.234049 0.234049
4490.780273 0.000000 2576.580811 0.000000 0.422714 0.000000 -0.906263 0.255134 0.255134 0.255134
4534.904297 0.000000 2578.105225 0.000000 0.756139 0.000000 -0.654411 0.253578 0.253578 0.253578
4517.886230 0.000000 2587.968506 0.000000 0.313649 0.000000 -0.949539 0.293205 0.293205 0.293205
4530.113770 0.000000 2587.552246 0.000000 0.271008 0.000000 -0.962577 0.324759 0.324759 0.324759
4517.762695 0.000000 2585.674316 0.000000 0.784629 0.000000 -0.619965 0.286697 0.286697 0.286697
4487.807129 0.000000 2574.998535 0.000000 0.462932 0.000000 -0.886394 0.318727 0.318727 0.318727
4531.956055 0.000000 2587.231689 0.000000 0.546009 0.000000 -0.837779 0.318969 0.318969 0.318969
4530.986816 0.000000 2586.989502 0.000000 0.514338 0.000000 -0.857587 0.319682 0.319682 0.319682
4546.575684 0.000000 2582.923828 0.000000 0.677384 0.000000 -0.735629 0.222252 0.222252 0.222252
4603.003418 0.000000 2587.806641 0.000000 0.416034 0.000000 -0.909349 0.237204 0.237204 0.237204
4544.850586 0.000000 2582.361572 0.000000 0.233843 0.000000 -0.972274 0.273850 0.273850 0.273850
4553.264160 0.000000 2586.390137 0.000000 0.607485 0.000000 -0.794331 0.316018 0.316018 0.316018
4589.494141 0.000000 2583.437256 0.000000 0.784157 0.000000 -0.620563 0.300600 0.300600 0.300600
4719.145508 0.000000 2503.460449 0.000000 0.453044 0.000000 -0.891488 0.208622 0.208622 0.208622
4713.656250 0.000000 2525.422363 0.000000 0.729061 0.000000 -0.684449 0.205194 0.205194 0.205194
4707.666992 0.000000 2521.798828 0.000000 0.661443 0.000000 -0.749996 0.205907 0.205907 0.205907
4686.389160 0.000000 2518.697266 0.000000 0.271829 0.000000 -0.962346 0.229876 0.229876 0.229876
4708.952637 0.000000 2525.789307 0.000000 0.411495 0.000000 -0.911412 0.217525 0.217525 0.217525
4715.407227 0.000000 2529.540527 0.000000 0.108596 0.000000 -0.994086 0.234468 0.234468 0.234468
4687.228516 0.000000 2512.324707 0.000000 0.263529 0.000000 -0.964652 0.239965 0.239965 0.239965
4696.332520 0.000000 2520.516846 0.000000 0.717335 0.000000 -0.696728 0.234362 0.234362 0.234362
4711.147461 0.000000 2522.215820 0.000000 0.453254 0.000000 -0.891381 0.247944 0.247944 0.247944
4693.729980 0.000000 2500.902588 0.000000 0.729385 0.000000 -0.684103 0.259447 0.259447 0.259447
4698.869141 0.000000 2506.761475 0.000000 0.556865 0.000000 -0.830603 0.278151 0.278151 0.278151
4693.229004 0.000000 2499.404785 0.000000 0.514680 0.000000 -0.857383 0.254623 0.254623 0.254623
4694.338379 0.000000 2498.294922 0.000000 0.451719 0.000000 -0.892160 0.287922 0.287922 0.287922
4701.938965 0.000000 2501.845947 0.000000 0.786023 0.000000 -0.618197 0.286062 0.286062 0.286062
4690.172363 0.000000 2510.459717 0.000000 0.753747 0.000000 -0.657165 0.257823 0.257823 0.257823
4699.304688 0.000000 2530.451172 0.000000 0.750474 0.000000 -0.660900 0.258482 0.258482 0.258482
4698.283691 0.000000 2531.858398 0.000000 0.429851 0.000000 -0.902900 0.263154 0.263154 0.263154
4716.409668 0.000000 2511.340820 0.000000 0.240127 0.000000 -0.970741 0.323329 0.323329 0.323329
4715.008789 0.000000 2511.862061 0.000000 0.015293 0.000000 -0.999883 0.291617 0.291617 0.291617
4700.436523 0.000000 2501.915283 0.000000 0.551065 0.000000 -0.834462 0.290677 0.290677 0.290677
4701.510254 0.000000 2499.375488 0.000000 0.781040 0.000000 -0.624481 0.307346 0.307346 0.307346
4695.724609 0.000000 2512.441895 0.000000 0.619471 0.000000 -0.785019 0.285141 0.285141 0.285141
4711.319336 0.000000 2510.025146 0.000000 0.141842 0.000000 -0.989889 0.298331 0.298331 0.298331
4719.484375 0.000000 2504.771484 0.000000 0.555153 0.000000 -0.831748 0.307471 0.307471 0.307471
4693.323242 0.000000 2526.534424 0.000000 0.239410 0.000000 -0.970919 0.323939 0.323939 0.323939
4701.817383 0.000000 2525.191895 0.000000 0.053546 0.000000 -0.998565 0.307522 0.307522 0.307522
4702.669434 0.000000 2500.928955 0.000000 0.385162 0.000000 -0.922849 0.320776 0.320776 0.320776
4695.733887 0.000000 2527.213623 0.000000 0.224178 0.000000 -0.974548 0.325682 0.325682 0.325682
4682.277832 0.000000 2521.364258 0.000000 0.122650 0.000000 -0.992450 0.321584 0.321584 0.321584
4694.742676 0.000000 2511.940674 0.000000 0.380059 0.000000 -0.924962 0.322112 0.322112 0.322112
4708.375977 0.000000 2522.577148 0.000000 0.327142 0.000000 -0.944975 0.321781 0.321781 0.321781
4661.519043 0.000000 2568.422363 0.000000 0.016448 0.000000 -0.999865 0.218771 0.218771 0.218771
4639.373535 0.000000 2585.229980 0.000000 0.042129 0.000000 -0.999112 0.238879 0.238879 0.238879
4655.448242 0.000000 2566.304443 0.000000 0.488707 0.000000 -0.872448 0.223575 0.223575 0.223575
4660.316895 0.000000 2570.922852 0.000000 0.495721 0.000000 -0.868482 0.229626 0.229626 0.229626
4627.343262 0.000000 2593.397949 0.000000 0.797231 0.000000 -0.603674 0.237374 0.237374 0.237374
4648.653320 0.000000 2587.439453 0.000000 0.709505 0.000000 -0.704700 0.260990 0.260990 0.260990
4667.523926 0.000000 2555.256104 0.000000 0.780207 0.000000 -0.625521 0.264540 0.264540 0.264540
4627.616211 0.000000 2588.055664 0.000000 0.324385 0.000000 -0.945925 0.310356 0.310356 0.310356
4622.943359 0.000000 2582.391357 0.000000 0.155266 0.000000 -0.987873 0.285159 0.285159 0.285159
4669.982422 0.000000 2553.321777 0.000000 0.498220 0.000000 -0.867051 0.297220 0.297220 0.297220
4624.360840 0.000000 2588.341553 0.000000 0.020817 0.000000 -0.999783 0.328674 0.328674 0.328674
4625.119629 0.000000 2590.055420 0.000000 0.006024 0.000000 -0.999982 0.329651 0.329651 0.329651
4675.050781 0.000000 2545.191162 0.000000 0.083699 0.000000 -0.996491 0.291984 0.291984 0.291984
4695.560547 0.000000 2559.322754 0.000000 0.504671 0.000000 -0.863311 0.275845 0.275845 0.275845
4689.185059 0.000000 2556.302979 0.000000 0.017105 0.000000 -0.999854 0.326939 0.326939 0.326939
4684.748535 0.000000 2547.492188 0.000000 0.041294 0.000000 -0.999147 0.327894 0.327894 0.327894
"}
