﻿object={
	name="rainforest_sparse_generator_2_0"
	clamp_to_water_level=no
	render_under_water=no
	generated_content=yes
	layer="semidynamic_medium"
	pdxmesh="tree_rainforest_001_mesh"
	count=181
	transform="2525.392090 0.000000 1569.751587 0.000000 0.236435 0.000000 0.971647 0.190755 0.190755 0.190755
2527.328613 0.000000 1575.400024 0.000000 0.574470 0.000000 0.818525 0.214645 0.214645 0.214645
2534.078125 0.000000 1566.707764 0.000000 0.205613 0.000000 0.978633 0.223240 0.223240 0.223240
2528.608643 0.000000 1556.609375 0.000000 0.256683 0.000000 0.966496 0.275584 0.275584 0.275584
2523.529297 0.000000 1555.764038 0.000000 0.303206 0.000000 0.952925 0.270239 0.270239 0.270239
2528.754395 0.000000 1575.579102 0.000000 0.262416 0.000000 0.964955 0.241842 0.241842 0.241842
2696.908447 0.000000 1796.915649 0.000000 0.392296 0.000000 0.919839 0.192585 0.192585 0.192585
2717.034424 0.000000 1804.499390 0.000000 0.442713 0.000000 0.896663 0.255072 0.255072 0.255072
2653.418457 0.000000 1857.497559 0.000000 0.491617 0.000000 0.870812 0.219839 0.219839 0.219839
2649.742432 0.000000 1836.551270 0.000000 0.561038 0.000000 0.827790 0.235339 0.235339 0.235339
2666.219238 0.000000 1910.198975 0.000000 0.240181 0.000000 0.970728 0.218218 0.218218 0.218218
2684.033936 0.000000 1911.807617 0.000000 0.228369 0.000000 0.973575 0.208756 0.208756 0.208756
2717.739258 0.000000 1828.963135 0.000000 0.493132 0.000000 0.869955 0.218845 0.218845 0.218845
2692.384766 0.000000 1914.757080 0.000000 0.080624 0.000000 0.996745 0.201112 0.201112 0.201112
2690.268799 0.000000 1917.418213 0.000000 0.027314 0.000000 0.999627 0.209399 0.209399 0.209399
2698.704590 0.000000 1886.726929 0.000000 0.123344 0.000000 0.992364 0.246243 0.246243 0.246243
2707.835449 0.000000 1884.871460 0.000000 0.551498 0.000000 0.834176 0.223563 0.223563 0.223563
2710.020996 0.000000 1865.304443 0.000000 0.228727 0.000000 0.973490 0.239486 0.239486 0.239486
2724.813721 0.000000 1881.138550 0.000000 0.264482 0.000000 0.964391 0.223373 0.223373 0.223373
2704.278564 0.000000 1884.703613 0.000000 0.002559 0.000000 0.999997 0.230138 0.230138 0.230138
2725.106689 0.000000 1876.582397 0.000000 0.325686 0.000000 0.945478 0.262484 0.262484 0.262484
2702.035400 0.000000 1889.984009 0.000000 0.515126 0.000000 0.857115 0.228187 0.228187 0.228187
2613.007812 0.000000 1961.619141 0.000000 0.048695 0.000000 0.998814 0.210558 0.210558 0.210558
2684.313232 0.000000 1944.223633 0.000000 0.107860 0.000000 0.994166 0.230377 0.230377 0.230377
2614.385498 0.000000 1980.862183 0.000000 0.537331 0.000000 0.843371 0.206072 0.206072 0.206072
2616.246338 0.000000 1979.810059 0.000000 0.321968 0.000000 0.946750 0.211100 0.211100 0.211100
2683.211426 0.000000 2006.571289 0.000000 0.065444 0.000000 0.997856 0.189740 0.189740 0.189740
2631.408936 0.000000 1994.790649 0.000000 0.264852 0.000000 0.964289 0.194638 0.194638 0.194638
2679.044922 0.000000 2016.041504 0.000000 0.398115 0.000000 0.917336 0.206292 0.206292 0.206292
2681.129395 0.000000 2015.771729 0.000000 0.152366 0.000000 0.988324 0.227513 0.227513 0.227513
2669.839355 0.000000 2003.638916 0.000000 0.410371 0.000000 0.911919 0.215960 0.215960 0.215960
2682.250000 0.000000 2010.445068 0.000000 0.155302 0.000000 0.987867 0.221262 0.221262 0.221262
2667.954346 0.000000 2000.659180 0.000000 0.374031 0.000000 0.927416 0.232970 0.232970 0.232970
2751.510010 0.000000 1957.687256 0.000000 0.482612 0.000000 0.875834 0.201985 0.201985 0.201985
2704.382568 0.000000 1976.285156 0.000000 0.212268 0.000000 0.977211 0.208119 0.208119 0.208119
2702.368652 0.000000 1976.322266 0.000000 0.435513 0.000000 0.900183 0.215211 0.215211 0.215211
2748.180420 0.000000 1954.571289 0.000000 0.379334 0.000000 0.925260 0.240424 0.240424 0.240424
2748.313232 0.000000 1944.223633 0.000000 0.508570 0.000000 0.861021 0.280190 0.280190 0.280190
2749.810303 0.000000 1954.122192 0.000000 0.249813 0.000000 0.968294 0.238783 0.238783 0.238783
2749.975830 0.000000 1961.154541 0.000000 0.524032 0.000000 0.851698 0.240873 0.240873 0.240873
2751.883789 0.000000 1959.208252 0.000000 0.091113 0.000000 0.995841 0.254712 0.254712 0.254712
2784.426758 0.000000 1932.906616 0.000000 0.010774 0.000000 0.999942 0.189445 0.189445 0.189445
2754.335449 0.000000 1951.698730 0.000000 0.062656 0.000000 0.998035 0.231768 0.231768 0.231768
2724.575195 0.000000 1979.342163 0.000000 0.166741 0.000000 0.986001 0.193900 0.193900 0.193900
2739.914307 0.000000 1982.741455 0.000000 0.138384 0.000000 0.990379 0.200106 0.200106 0.200106
2736.748535 0.000000 1978.365479 0.000000 0.123266 0.000000 0.992374 0.242458 0.242458 0.242458
2746.270752 0.000000 1985.286865 0.000000 0.140416 0.000000 0.990093 0.216748 0.216748 0.216748
2722.937256 0.000000 1978.737793 0.000000 0.461288 0.000000 0.887250 0.280097 0.280097 0.280097
2696.993164 0.000000 1980.079834 0.000000 0.148454 0.000000 0.988919 0.219253 0.219253 0.219253
2715.133789 0.000000 1980.483276 0.000000 0.558157 0.000000 0.829736 0.234795 0.234795 0.234795
2743.353271 0.000000 1984.096924 0.000000 0.525962 0.000000 0.850508 0.282025 0.282025 0.282025
2718.191162 0.000000 1979.167114 0.000000 0.272919 0.000000 0.962037 0.255930 0.255930 0.255930
2743.122803 0.000000 1982.095947 0.000000 0.325193 0.000000 0.945648 0.266310 0.266310 0.266310
5693.252441 0.000000 2213.316895 0.000000 0.437092 0.000000 0.899417 0.212709 0.212709 0.212709
5727.888672 0.000000 2224.434814 0.000000 0.292144 0.000000 0.956374 0.205351 0.205351 0.205351
5697.654297 0.000000 2217.248779 0.000000 0.129529 0.000000 0.991576 0.226301 0.226301 0.226301
5755.526855 0.000000 2235.657715 0.000000 0.540682 0.000000 0.841227 0.247626 0.247626 0.247626
5773.099609 0.000000 2222.667236 0.000000 0.565285 0.000000 0.824895 0.195532 0.195532 0.195532
5793.641602 0.000000 2220.969238 0.000000 0.068911 0.000000 0.997623 0.202968 0.202968 0.202968
5764.483887 0.000000 2232.639404 0.000000 0.174776 0.000000 0.984608 0.227275 0.227275 0.227275
5787.790527 0.000000 2221.644043 0.000000 0.197628 0.000000 0.980277 0.235254 0.235254 0.235254
5865.656250 0.000000 2243.000488 0.000000 0.453691 0.000000 0.891159 0.193064 0.193064 0.193064
5871.917480 0.000000 2239.672607 0.000000 0.006457 0.000000 0.999979 0.189299 0.189299 0.189299
5867.659668 0.000000 2239.070312 0.000000 0.101380 0.000000 0.994848 0.208119 0.208119 0.208119
5864.567383 0.000000 2237.573975 0.000000 0.093990 0.000000 0.995573 0.209027 0.209027 0.209027
5878.588867 0.000000 2256.073730 0.000000 0.268300 0.000000 0.963335 0.226353 0.226353 0.226353
5951.510742 0.000000 2114.658691 0.000000 0.512291 0.000000 0.858812 0.201231 0.201231 0.201231
5933.747070 0.000000 2138.613525 0.000000 0.430291 0.000000 0.902690 0.224184 0.224184 0.224184
5941.449707 0.000000 2139.813477 0.000000 0.263517 0.000000 0.964655 0.226789 0.226789 0.226789
5949.535645 0.000000 2144.097412 0.000000 0.109691 0.000000 0.993966 0.238969 0.238969 0.238969
5929.936523 0.000000 2143.018311 0.000000 0.279049 0.000000 0.960277 0.246406 0.246406 0.246406
5950.321777 0.000000 2108.254150 0.000000 0.053072 0.000000 0.998591 0.229761 0.229761 0.229761
5937.352051 0.000000 2143.055664 0.000000 0.574739 0.000000 0.818337 0.282842 0.282842 0.282842
5934.953613 0.000000 2143.321533 0.000000 0.341973 0.000000 0.939710 0.277672 0.277672 0.277672
5986.144043 0.000000 2140.911377 0.000000 0.267927 0.000000 0.963439 0.242396 0.242396 0.242396
5954.058594 0.000000 2108.361328 0.000000 0.364685 0.000000 0.931131 0.279416 0.279416 0.279416
6073.814453 0.000000 2108.764404 0.000000 0.425880 0.000000 0.904780 0.261172 0.261172 0.261172
6068.080566 0.000000 2103.115479 0.000000 0.448319 0.000000 0.893874 0.225389 0.225389 0.225389
6085.141602 0.000000 2115.428223 0.000000 0.030724 0.000000 0.999528 0.199247 0.199247 0.199247
6082.681152 0.000000 2112.140381 0.000000 0.403028 0.000000 0.915188 0.243196 0.243196 0.243196
5950.025391 0.000000 2149.534424 0.000000 0.182014 0.000000 0.983296 0.274223 0.274223 0.274223
6008.473633 0.000000 2154.537109 0.000000 0.331713 0.000000 0.943380 0.201188 0.201188 0.201188
5979.678223 0.000000 2151.420410 0.000000 0.460548 0.000000 0.887635 0.203822 0.203822 0.203822
6009.129395 0.000000 2185.224854 0.000000 0.570870 0.000000 0.821041 0.208456 0.208456 0.208456
5971.070801 0.000000 2189.774170 0.000000 0.585307 0.000000 0.810812 0.283216 0.283216 0.283216
5991.089844 0.000000 2161.719482 0.000000 0.444408 0.000000 0.895824 0.236816 0.236816 0.236816
6001.237305 0.000000 2159.612793 0.000000 0.111257 0.000000 0.993792 0.267088 0.267088 0.267088
5992.469727 0.000000 2165.671387 0.000000 0.237378 0.000000 0.971417 0.274577 0.274577 0.274577
5999.029785 0.000000 2160.649658 0.000000 0.494910 0.000000 0.868944 0.280913 0.280913 0.280913
5995.954590 0.000000 2170.112305 0.000000 0.561868 0.000000 0.827227 0.247946 0.247946 0.247946
6000.395508 0.000000 2178.737305 0.000000 0.412976 0.000000 0.910742 0.229470 0.229470 0.229470
5972.841797 0.000000 2180.972412 0.000000 0.313439 0.000000 0.949608 0.226850 0.226850 0.226850
6002.908203 0.000000 2185.172119 0.000000 0.417897 0.000000 0.908495 0.229528 0.229528 0.229528
6014.905762 0.000000 2152.216553 0.000000 0.543903 0.000000 0.839148 0.281990 0.281990 0.281990
6000.663086 0.000000 2165.062256 0.000000 0.444178 0.000000 0.895939 0.265864 0.265864 0.265864
6006.609375 0.000000 2174.254883 0.000000 0.049967 0.000000 0.998751 0.228776 0.228776 0.228776
6012.055664 0.000000 2152.323486 0.000000 0.525191 0.000000 0.850985 0.243895 0.243895 0.243895
6014.095703 0.000000 2177.952393 0.000000 0.079776 0.000000 0.996813 0.271525 0.271525 0.271525
6006.203613 0.000000 2186.736816 0.000000 0.039588 0.000000 0.999216 0.270756 0.270756 0.270756
5975.062012 0.000000 2162.527832 0.000000 0.250757 0.000000 0.968050 0.270307 0.270307 0.270307
6008.732422 0.000000 2194.963379 0.000000 0.565758 0.000000 0.824571 0.281485 0.281485 0.281485
5972.561035 0.000000 2197.171631 0.000000 0.540603 0.000000 0.841278 0.282518 0.282518 0.282518
5939.634277 0.000000 2245.618408 0.000000 0.491038 0.000000 0.871138 0.192766 0.192766 0.192766
5943.867676 0.000000 2250.122314 0.000000 0.258839 0.000000 0.965920 0.219388 0.219388 0.219388
5920.801270 0.000000 2231.205811 0.000000 0.484392 0.000000 0.874851 0.212171 0.212171 0.212171
5935.436035 0.000000 2237.612061 0.000000 0.436680 0.000000 0.899617 0.221251 0.221251 0.221251
5945.360352 0.000000 2214.147217 0.000000 0.157955 0.000000 0.987446 0.207639 0.207639 0.207639
5940.072754 0.000000 2251.393799 0.000000 0.474635 0.000000 0.880183 0.237207 0.237207 0.237207
5947.262207 0.000000 2225.026611 0.000000 0.311072 0.000000 0.950386 0.214475 0.214475 0.214475
5949.976074 0.000000 2243.576416 0.000000 0.248736 0.000000 0.968571 0.226627 0.226627 0.226627
5947.962402 0.000000 2241.838867 0.000000 0.484903 0.000000 0.874568 0.238840 0.238840 0.238840
5950.871094 0.000000 2246.401123 0.000000 0.139501 0.000000 0.990222 0.272673 0.272673 0.272673
5932.311035 0.000000 2216.479736 0.000000 0.216525 0.000000 0.976277 0.235480 0.235480 0.235480
5933.556641 0.000000 2248.533936 0.000000 0.307053 0.000000 0.951693 0.265060 0.265060 0.265060
5936.927734 0.000000 2247.906494 0.000000 0.388165 0.000000 0.921590 0.277613 0.277613 0.277613
6000.918945 0.000000 2217.876709 0.000000 0.015473 0.000000 0.999880 0.189205 0.189205 0.189205
5966.979980 0.000000 2227.730713 0.000000 0.208851 0.000000 0.977948 0.202161 0.202161 0.202161
5961.795410 0.000000 2202.915039 0.000000 0.126482 0.000000 0.991969 0.195577 0.195577 0.195577
5976.077637 0.000000 2212.287109 0.000000 0.286221 0.000000 0.958164 0.197809 0.197809 0.197809
5999.645996 0.000000 2210.588623 0.000000 0.043956 0.000000 0.999034 0.205675 0.205675 0.205675
5963.263184 0.000000 2239.452881 0.000000 0.228184 0.000000 0.973618 0.202817 0.202817 0.202817
5982.725586 0.000000 2206.483154 0.000000 0.489535 0.000000 0.871983 0.213744 0.213744 0.213744
5953.843750 0.000000 2249.270264 0.000000 0.570626 0.000000 0.821210 0.281598 0.281598 0.281598
5976.512695 0.000000 2210.623535 0.000000 0.414827 0.000000 0.909900 0.220014 0.220014 0.220014
5996.442383 0.000000 2209.403320 0.000000 0.119866 0.000000 0.992790 0.254658 0.254658 0.254658
5965.306641 0.000000 2227.442139 0.000000 0.472782 0.000000 0.881179 0.226675 0.226675 0.226675
5985.760254 0.000000 2207.298828 0.000000 0.431008 0.000000 0.902348 0.240114 0.240114 0.240114
5954.875977 0.000000 2235.477295 0.000000 0.102106 0.000000 0.994774 0.273988 0.273988 0.273988
6053.098633 0.000000 2189.277344 0.000000 0.165768 0.000000 0.986165 0.190359 0.190359 0.190359
6057.967773 0.000000 2176.224121 0.000000 0.252427 0.000000 0.967616 0.191038 0.191038 0.191038
6048.330078 0.000000 2200.703613 0.000000 0.348278 0.000000 0.937391 0.204340 0.204340 0.204340
6056.284180 0.000000 2184.872803 0.000000 0.406974 0.000000 0.913440 0.212915 0.212915 0.212915
6049.680176 0.000000 2202.233887 0.000000 0.395578 0.000000 0.918432 0.209288 0.209288 0.209288
6043.849121 0.000000 2173.011963 0.000000 0.418356 0.000000 0.908283 0.221552 0.221552 0.221552
6042.057129 0.000000 2181.869385 0.000000 0.547196 0.000000 0.837004 0.281058 0.281058 0.281058
6029.317383 0.000000 2199.633545 0.000000 0.164796 0.000000 0.986328 0.240606 0.240606 0.240606
6035.835449 0.000000 2167.293213 0.000000 0.331387 0.000000 0.943495 0.240785 0.240785 0.240785
6049.478516 0.000000 2176.427734 0.000000 0.207008 0.000000 0.978339 0.235366 0.235366 0.235366
6019.916016 0.000000 2151.019287 0.000000 0.457527 0.000000 0.889196 0.279691 0.279691 0.279691
6047.303223 0.000000 2173.417725 0.000000 0.558589 0.000000 0.829445 0.254410 0.254410 0.254410
6048.608398 0.000000 2177.937500 0.000000 0.023938 0.000000 0.999713 0.233213 0.233213 0.233213
6038.249023 0.000000 2202.773438 0.000000 0.248941 0.000000 0.968519 0.275101 0.275101 0.275101
6036.063965 0.000000 2187.280518 0.000000 0.235559 0.000000 0.971860 0.265341 0.265341 0.265341
6018.875977 0.000000 2178.992920 0.000000 0.397756 0.000000 0.917491 0.247055 0.247055 0.247055
6022.510254 0.000000 2163.006592 0.000000 0.393818 0.000000 0.919188 0.275158 0.275158 0.275158
6035.693848 0.000000 2175.741943 0.000000 0.029731 0.000000 0.999558 0.261659 0.261659 0.261659
6087.143066 0.000000 2173.790771 0.000000 0.139988 0.000000 0.990153 0.198641 0.198641 0.198641
6083.099121 0.000000 2173.107910 0.000000 0.338105 0.000000 0.941108 0.228605 0.228605 0.228605
6080.049316 0.000000 2172.103760 0.000000 0.383227 0.000000 0.923654 0.267268 0.267268 0.267268
6053.372070 0.000000 2206.955078 0.000000 0.152964 0.000000 0.988232 0.274260 0.274260 0.274260
6032.728516 0.000000 2202.897217 0.000000 0.442558 0.000000 0.896740 0.280589 0.280589 0.280589
5929.128906 0.000000 2280.240723 0.000000 0.563575 0.000000 0.826065 0.205816 0.205816 0.205816
5900.251465 0.000000 2266.211182 0.000000 0.156037 0.000000 0.987751 0.223206 0.223206 0.223206
5888.371582 0.000000 2264.459717 0.000000 0.354644 0.000000 0.935001 0.230274 0.230274 0.230274
5907.704102 0.000000 2273.139160 0.000000 0.180917 0.000000 0.983498 0.218605 0.218605 0.218605
5913.045410 0.000000 2271.266846 0.000000 0.339217 0.000000 0.940708 0.232063 0.232063 0.232063
5950.208984 0.000000 2296.035645 0.000000 0.018062 0.000000 0.999837 0.271333 0.271333 0.271333
5946.093750 0.000000 2289.811768 0.000000 0.507884 0.000000 0.861426 0.249133 0.249133 0.249133
5951.314453 0.000000 2287.287842 0.000000 0.542925 0.000000 0.839781 0.250162 0.250162 0.250162
5972.436035 0.000000 2301.646973 0.000000 0.201332 0.000000 0.979523 0.199127 0.199127 0.199127
5969.493164 0.000000 2303.347900 0.000000 0.319107 0.000000 0.947719 0.207584 0.207584 0.207584
5956.166992 0.000000 2308.139648 0.000000 0.447652 0.000000 0.894208 0.218356 0.218356 0.218356
5953.843750 0.000000 2305.754639 0.000000 0.435429 0.000000 0.900223 0.277847 0.277847 0.277847
5926.792969 0.000000 2318.671387 0.000000 0.094229 0.000000 0.995551 0.200733 0.200733 0.200733
5940.122559 0.000000 2353.524414 0.000000 0.497073 0.000000 0.867709 0.245490 0.245490 0.245490
5933.387695 0.000000 2348.647461 0.000000 0.445760 0.000000 0.895153 0.231855 0.231855 0.231855
5959.440918 0.000000 2366.266602 0.000000 0.431292 0.000000 0.902212 0.221192 0.221192 0.221192
6247.743652 0.000000 2012.693481 0.000000 0.531762 0.000000 0.846894 0.282032 0.282032 0.282032
6255.448242 0.000000 2283.882568 0.000000 0.034433 0.000000 0.999407 0.212837 0.212837 0.212837
6254.245605 0.000000 2279.297607 0.000000 0.475428 0.000000 0.879755 0.208532 0.208532 0.208532
6267.502441 0.000000 2271.372314 0.000000 0.222822 0.000000 0.974859 0.212155 0.212155 0.212155
6255.392090 0.000000 2280.655273 0.000000 0.529306 0.000000 0.848431 0.257922 0.257922 0.257922
6271.974609 0.000000 2290.906494 0.000000 0.559464 0.000000 0.828855 0.245398 0.245398 0.245398
6239.005371 0.000000 2350.764160 0.000000 0.272435 0.000000 0.962174 0.213114 0.213114 0.213114
6308.742188 0.000000 2312.580078 0.000000 0.040538 0.000000 0.999178 0.216741 0.216741 0.216741
6299.120117 0.000000 2261.323730 0.000000 0.204097 0.000000 0.978951 0.236776 0.236776 0.236776
6299.849121 0.000000 2285.980713 0.000000 0.014846 0.000000 0.999890 0.217447 0.217447 0.217447
6294.444824 0.000000 2311.073730 0.000000 0.525894 0.000000 0.850550 0.237888 0.237888 0.237888
6304.608398 0.000000 2290.906250 0.000000 0.184703 0.000000 0.982794 0.232695 0.232695 0.232695
6312.675293 0.000000 2306.415283 0.000000 0.127200 0.000000 0.991877 0.273949 0.273949 0.273949
6289.260254 0.000000 2342.316406 0.000000 0.453431 0.000000 0.891291 0.192392 0.192392 0.192392
"}
object={
	name="rainforest_sparse_generator_2_1"
	clamp_to_water_level=no
	render_under_water=no
	generated_content=yes
	layer="semidynamic_medium"
	pdxmesh="tree_rainforest_002_mesh"
	count=197
	transform="2523.190674 0.000000 1553.387573 0.000000 0.824071 0.000000 0.566487 0.209888 0.209888 0.209888
2520.422119 0.000000 1554.778320 0.000000 0.875040 0.000000 0.484051 0.290728 0.290728 0.290728
2535.039307 0.000000 1565.239746 0.000000 0.679178 0.000000 0.733974 0.242670 0.242670 0.242670
2533.577148 0.000000 1573.246704 0.000000 0.798395 0.000000 0.602134 0.235339 0.235339 0.235339
2527.740967 0.000000 1570.046753 0.000000 0.763173 0.000000 0.646194 0.268421 0.268421 0.268421
2521.742432 0.000000 1554.129395 0.000000 0.786339 0.000000 0.617796 0.287780 0.287780 0.287780
2531.506348 0.000000 1556.948242 0.000000 0.884925 0.000000 0.465733 0.290820 0.290820 0.290820
2533.886230 0.000000 1571.249878 0.000000 0.635309 0.000000 0.772258 0.284172 0.284172 0.284172
2652.161133 0.000000 1856.112061 0.000000 0.621220 0.000000 0.783636 0.221338 0.221338 0.221338
2679.848389 0.000000 1807.563110 0.000000 0.942732 0.000000 0.333550 0.235927 0.235927 0.235927
2613.566895 0.000000 1876.446655 0.000000 0.674284 0.000000 0.738472 0.205404 0.205404 0.205404
2591.328613 0.000000 1914.306274 0.000000 0.749108 0.000000 0.662448 0.201521 0.201521 0.201521
2605.531006 0.000000 1882.377441 0.000000 0.593052 0.000000 0.805164 0.239834 0.239834 0.239834
2606.421387 0.000000 1873.031494 0.000000 0.627601 0.000000 0.778535 0.242376 0.242376 0.242376
2612.241943 0.000000 1875.719116 0.000000 0.676339 0.000000 0.736591 0.232352 0.232352 0.232352
2656.426758 0.000000 1876.422241 0.000000 0.705087 0.000000 0.709120 0.194706 0.194706 0.194706
2666.638916 0.000000 1914.416992 0.000000 0.785246 0.000000 0.619183 0.214624 0.214624 0.214624
2659.217285 0.000000 1874.822876 0.000000 0.708676 0.000000 0.705534 0.214659 0.214659 0.214659
2664.256592 0.000000 1880.832153 0.000000 0.891806 0.000000 0.452417 0.223863 0.223863 0.223863
2747.261963 0.000000 1829.635986 0.000000 0.661049 0.000000 0.750342 0.238288 0.238288 0.238288
2785.987305 0.000000 1845.113647 0.000000 0.865941 0.000000 0.500146 0.222818 0.222818 0.222818
2714.709961 0.000000 1901.024292 0.000000 0.604508 0.000000 0.796599 0.193903 0.193903 0.193903
2713.661133 0.000000 1867.050537 0.000000 0.850297 0.000000 0.526303 0.202807 0.202807 0.202807
2750.948242 0.000000 1866.138550 0.000000 0.941703 0.000000 0.336446 0.221799 0.221799 0.221799
2715.203369 0.000000 1903.302124 0.000000 0.881404 0.000000 0.472363 0.208649 0.208649 0.208649
2688.588623 0.000000 1916.286865 0.000000 0.889902 0.000000 0.456152 0.218999 0.218999 0.218999
2718.924561 0.000000 1903.289185 0.000000 0.802180 0.000000 0.597082 0.261022 0.261022 0.261022
2717.938965 0.000000 1880.517822 0.000000 0.906063 0.000000 0.423142 0.277631 0.277631 0.277631
2697.525391 0.000000 1886.032104 0.000000 0.809424 0.000000 0.587225 0.249175 0.249175 0.249175
2719.902832 0.000000 1879.268066 0.000000 0.920048 0.000000 0.391806 0.276554 0.276554 0.276554
2726.073975 0.000000 1873.830933 0.000000 0.766799 0.000000 0.641887 0.268503 0.268503 0.268503
2613.097412 0.000000 1978.738403 0.000000 0.932094 0.000000 0.362216 0.255015 0.255015 0.255015
2628.248779 0.000000 1998.253052 0.000000 0.711061 0.000000 0.703131 0.207380 0.207380 0.207380
2667.311523 0.000000 2002.100952 0.000000 0.599676 0.000000 0.800243 0.226700 0.226700 0.226700
2637.642090 0.000000 1998.604736 0.000000 0.914271 0.000000 0.405104 0.254432 0.254432 0.254432
2649.632568 0.000000 1992.170654 0.000000 0.880958 0.000000 0.473195 0.239654 0.239654 0.239654
2713.706787 0.000000 1934.108154 0.000000 0.718587 0.000000 0.695437 0.209560 0.209560 0.209560
2727.591309 0.000000 1962.304810 0.000000 0.729659 0.000000 0.683811 0.206550 0.206550 0.206550
2744.471924 0.000000 1960.924805 0.000000 0.884366 0.000000 0.466794 0.241333 0.241333 0.241333
2709.609863 0.000000 1953.117798 0.000000 0.697196 0.000000 0.716881 0.234207 0.234207 0.234207
2708.841797 0.000000 1955.034912 0.000000 0.614012 0.000000 0.789296 0.235051 0.235051 0.235051
2785.365723 0.000000 1930.643555 0.000000 0.648640 0.000000 0.761095 0.220648 0.220648 0.220648
2757.854248 0.000000 1955.221924 0.000000 0.947445 0.000000 0.319919 0.258283 0.258283 0.258283
2755.621094 0.000000 1957.556763 0.000000 0.832035 0.000000 0.554723 0.246505 0.246505 0.246505
2736.746582 0.000000 1980.190796 0.000000 0.724232 0.000000 0.689557 0.195461 0.195461 0.195461
2721.760010 0.000000 1981.361206 0.000000 0.918002 0.000000 0.396577 0.247039 0.247039 0.247039
5688.473633 0.000000 2211.021484 0.000000 0.898334 0.000000 0.439313 0.215405 0.215405 0.215405
5694.905762 0.000000 2208.700928 0.000000 0.687685 0.000000 0.726009 0.284018 0.284018 0.284018
5692.055664 0.000000 2208.807861 0.000000 0.932059 0.000000 0.362305 0.292919 0.292919 0.292919
5693.256836 0.000000 2208.255371 0.000000 0.832332 0.000000 0.554278 0.288780 0.288780 0.288780
5751.893555 0.000000 2246.395508 0.000000 0.933693 0.000000 0.358074 0.227002 0.227002 0.227002
5752.471680 0.000000 2243.346680 0.000000 0.934916 0.000000 0.354870 0.241631 0.241631 0.241631
5750.203613 0.000000 2243.221191 0.000000 0.674622 0.000000 0.738164 0.240034 0.240034 0.240034
5729.762207 0.000000 2224.788574 0.000000 0.800834 0.000000 0.598886 0.241674 0.241674 0.241674
5750.834961 0.000000 2240.565186 0.000000 0.850598 0.000000 0.525817 0.280033 0.280033 0.280033
5735.319336 0.000000 2227.603271 0.000000 0.671086 0.000000 0.741379 0.264452 0.264452 0.264452
5782.404297 0.000000 2172.021484 0.000000 0.772380 0.000000 0.635161 0.251031 0.251031 0.251031
5772.062012 0.000000 2224.196045 0.000000 0.608442 0.000000 0.793599 0.281759 0.281759 0.281759
5778.834473 0.000000 2229.479980 0.000000 0.767577 0.000000 0.640957 0.233762 0.233762 0.233762
5866.281250 0.000000 2245.102295 0.000000 0.922698 0.000000 0.385524 0.232649 0.232649 0.232649
5870.049316 0.000000 2240.804199 0.000000 0.608124 0.000000 0.793842 0.275778 0.275778 0.275778
5869.556641 0.000000 2248.533936 0.000000 0.855903 0.000000 0.517136 0.252846 0.252846 0.252846
5944.427734 0.000000 2141.792969 0.000000 0.946607 0.000000 0.322389 0.293731 0.293731 0.293731
5954.069824 0.000000 2114.743652 0.000000 0.692206 0.000000 0.721700 0.213415 0.213415 0.213415
5963.256348 0.000000 2142.955322 0.000000 0.804100 0.000000 0.594495 0.251678 0.251678 0.251678
5987.429199 0.000000 2140.092773 0.000000 0.901833 0.000000 0.432085 0.252992 0.252992 0.252992
6062.908691 0.000000 2101.231201 0.000000 0.588451 0.000000 0.808533 0.254396 0.254396 0.254396
6084.483887 0.000000 2119.670654 0.000000 0.634542 0.000000 0.772889 0.220988 0.220988 0.220988
6083.597168 0.000000 2115.028564 0.000000 0.652422 0.000000 0.757856 0.245309 0.245309 0.245309
5946.669922 0.000000 2202.144043 0.000000 0.678776 0.000000 0.734346 0.243177 0.243177 0.243177
5990.346680 0.000000 2200.663818 0.000000 0.821228 0.000000 0.570600 0.200276 0.200276 0.200276
5982.608887 0.000000 2151.945801 0.000000 0.820870 0.000000 0.571116 0.199739 0.199739 0.199739
5969.436523 0.000000 2170.275391 0.000000 0.741990 0.000000 0.670411 0.204070 0.204070 0.204070
5962.235840 0.000000 2190.090576 0.000000 0.681667 0.000000 0.731663 0.199222 0.199222 0.199222
6004.706543 0.000000 2202.721680 0.000000 0.864847 0.000000 0.502036 0.218530 0.218530 0.218530
5999.085449 0.000000 2185.234375 0.000000 0.809944 0.000000 0.586507 0.223435 0.223435 0.223435
6003.318359 0.000000 2180.047607 0.000000 0.771213 0.000000 0.636577 0.231732 0.231732 0.231732
6002.490723 0.000000 2169.195801 0.000000 0.756127 0.000000 0.654425 0.224178 0.224178 0.224178
5976.332520 0.000000 2181.610596 0.000000 0.942851 0.000000 0.333214 0.227800 0.227800 0.227800
5979.120117 0.000000 2148.354980 0.000000 0.879548 0.000000 0.475811 0.224683 0.224683 0.224683
6012.473145 0.000000 2173.390381 0.000000 0.600937 0.000000 0.799296 0.240455 0.240455 0.240455
5997.674805 0.000000 2159.409668 0.000000 0.900154 0.000000 0.435573 0.263070 0.263070 0.263070
5952.523438 0.000000 2148.062256 0.000000 0.860438 0.000000 0.509556 0.290287 0.290287 0.290287
5984.594727 0.000000 2166.044678 0.000000 0.606622 0.000000 0.794991 0.225256 0.225256 0.225256
6008.427734 0.000000 2198.277344 0.000000 0.783500 0.000000 0.621392 0.249171 0.249171 0.249171
5986.977539 0.000000 2160.905762 0.000000 0.899534 0.000000 0.436851 0.265179 0.265179 0.265179
5998.203125 0.000000 2169.927734 0.000000 0.947952 0.000000 0.318413 0.251811 0.251811 0.251811
6012.027344 0.000000 2191.288574 0.000000 0.856312 0.000000 0.516459 0.254440 0.254440 0.254440
5963.761719 0.000000 2170.815918 0.000000 0.611878 0.000000 0.790952 0.255794 0.255794 0.255794
5991.789551 0.000000 2160.343750 0.000000 0.590952 0.000000 0.806707 0.238790 0.238790 0.238790
5975.955566 0.000000 2180.196777 0.000000 0.602641 0.000000 0.798012 0.282353 0.282353 0.282353
5987.030762 0.000000 2170.300537 0.000000 0.832126 0.000000 0.554586 0.288773 0.288773 0.288773
5974.014160 0.000000 2151.940430 0.000000 0.714916 0.000000 0.699210 0.285212 0.285212 0.285212
5996.311035 0.000000 2159.995361 0.000000 0.946624 0.000000 0.322339 0.264732 0.264732 0.264732
6006.908203 0.000000 2158.280273 0.000000 0.759259 0.000000 0.650788 0.287660 0.287660 0.287660
5995.008789 0.000000 2172.955811 0.000000 0.756335 0.000000 0.654184 0.274433 0.274433 0.274433
6006.834961 0.000000 2184.080811 0.000000 0.887641 0.000000 0.460536 0.270113 0.270113 0.270113
5921.210449 0.000000 2247.763916 0.000000 0.792948 0.000000 0.609290 0.195715 0.195715 0.195715
5949.292480 0.000000 2215.449707 0.000000 0.866455 0.000000 0.499255 0.196581 0.196581 0.196581
5938.318359 0.000000 2203.096436 0.000000 0.704977 0.000000 0.709230 0.194705 0.194705 0.194705
5950.582031 0.000000 2217.757812 0.000000 0.771047 0.000000 0.636778 0.213374 0.213374 0.213374
5943.044922 0.000000 2241.979004 0.000000 0.611538 0.000000 0.791215 0.201128 0.201128 0.201128
5926.962402 0.000000 2247.070557 0.000000 0.766014 0.000000 0.642824 0.230602 0.230602 0.230602
5948.454590 0.000000 2243.229736 0.000000 0.933215 0.000000 0.359319 0.236719 0.236719 0.236719
5925.294434 0.000000 2247.846680 0.000000 0.878539 0.000000 0.477670 0.220921 0.220921 0.220921
5930.375488 0.000000 2234.433838 0.000000 0.930202 0.000000 0.367048 0.293216 0.293216 0.293216
5951.462891 0.000000 2203.240479 0.000000 0.780167 0.000000 0.625571 0.248585 0.248585 0.248585
5939.824219 0.000000 2247.225098 0.000000 0.832276 0.000000 0.554362 0.249140 0.249140 0.249140
5935.029785 0.000000 2217.134033 0.000000 0.925153 0.000000 0.379593 0.289574 0.289574 0.289574
5933.387695 0.000000 2235.678711 0.000000 0.817225 0.000000 0.576319 0.288476 0.288476 0.288476
5923.500488 0.000000 2230.475098 0.000000 0.674784 0.000000 0.738015 0.274143 0.274143 0.274143
5942.203613 0.000000 2243.221191 0.000000 0.649778 0.000000 0.760124 0.247814 0.247814 0.247814
5931.575684 0.000000 2233.620850 0.000000 0.655322 0.000000 0.755350 0.275749 0.275749 0.275749
5946.590332 0.000000 2245.445068 0.000000 0.734399 0.000000 0.678718 0.287065 0.287065 0.287065
5951.365723 0.000000 2212.855957 0.000000 0.931620 0.000000 0.363435 0.292896 0.292896 0.292896
5988.575195 0.000000 2205.279541 0.000000 0.919045 0.000000 0.394153 0.201227 0.201227 0.201227
5968.098633 0.000000 2212.650146 0.000000 0.715790 0.000000 0.698315 0.229311 0.229311 0.229311
5952.369629 0.000000 2213.792480 0.000000 0.931218 0.000000 0.364463 0.281821 0.281821 0.281821
5961.912598 0.000000 2231.992676 0.000000 0.771548 0.000000 0.636171 0.231738 0.231738 0.231738
5972.029785 0.000000 2206.817383 0.000000 0.904042 0.000000 0.427444 0.289760 0.289760 0.289760
5974.014160 0.000000 2208.424805 0.000000 0.848458 0.000000 0.529262 0.290267 0.290267 0.290267
5953.498535 0.000000 2230.867432 0.000000 0.615851 0.000000 0.787863 0.282671 0.282671 0.282671
6051.991211 0.000000 2162.132812 0.000000 0.718014 0.000000 0.696029 0.194753 0.194753 0.194753
6035.771973 0.000000 2169.031738 0.000000 0.866125 0.000000 0.499827 0.196511 0.196511 0.196511
6039.836426 0.000000 2197.019043 0.000000 0.800526 0.000000 0.599298 0.204259 0.204259 0.204259
6064.580566 0.000000 2176.846924 0.000000 0.885926 0.000000 0.463827 0.204965 0.204965 0.204965
6028.526855 0.000000 2169.452148 0.000000 0.768891 0.000000 0.639379 0.203335 0.203335 0.203335
6032.244141 0.000000 2175.604004 0.000000 0.886800 0.000000 0.462153 0.212501 0.212501 0.212501
6018.627930 0.000000 2175.113525 0.000000 0.754150 0.000000 0.656702 0.204213 0.204213 0.204213
6046.609375 0.000000 2172.068848 0.000000 0.928570 0.000000 0.371158 0.262415 0.262415 0.262415
6019.095703 0.000000 2161.856445 0.000000 0.749291 0.000000 0.662241 0.224599 0.224599 0.224599
6049.433594 0.000000 2182.209717 0.000000 0.775805 0.000000 0.630973 0.251618 0.251618 0.251618
6028.062012 0.000000 2167.711670 0.000000 0.870546 0.000000 0.492087 0.278023 0.278023 0.278023
6027.461426 0.000000 2174.000732 0.000000 0.694993 0.000000 0.719017 0.227975 0.227975 0.227975
6032.278320 0.000000 2167.125488 0.000000 0.790992 0.000000 0.611826 0.287654 0.287654 0.287654
6054.078125 0.000000 2188.035889 0.000000 0.675573 0.000000 0.737293 0.284601 0.284601 0.284601
6024.161133 0.000000 2158.527588 0.000000 0.922910 0.000000 0.385015 0.239656 0.239656 0.239656
6057.033691 0.000000 2187.843018 0.000000 0.718737 0.000000 0.695282 0.242806 0.242806 0.242806
6029.763672 0.000000 2201.044434 0.000000 0.588564 0.000000 0.808451 0.277374 0.277374 0.277374
6054.464355 0.000000 2189.300293 0.000000 0.650359 0.000000 0.759627 0.283975 0.283975 0.283975
6024.407715 0.000000 2210.702881 0.000000 0.789666 0.000000 0.613537 0.195729 0.195729 0.195729
6046.961914 0.000000 2203.852051 0.000000 0.630595 0.000000 0.776112 0.197679 0.197679 0.197679
6039.366211 0.000000 2205.543213 0.000000 0.734449 0.000000 0.678664 0.225946 0.225946 0.225946
6051.182129 0.000000 2209.656982 0.000000 0.596062 0.000000 0.802939 0.223080 0.223080 0.223080
6038.020996 0.000000 2204.210693 0.000000 0.773748 0.000000 0.633493 0.226539 0.226539 0.226539
6055.522949 0.000000 2206.888672 0.000000 0.927777 0.000000 0.373134 0.283279 0.283279 0.283279
5880.246582 0.000000 2262.231934 0.000000 0.630147 0.000000 0.776476 0.208560 0.208560 0.208560
5883.529785 0.000000 2260.021973 0.000000 0.812671 0.000000 0.582723 0.211314 0.211314 0.211314
5926.889160 0.000000 2282.814697 0.000000 0.899245 0.000000 0.437445 0.196835 0.196835 0.196835
5896.614258 0.000000 2272.903809 0.000000 0.642238 0.000000 0.766505 0.197270 0.197270 0.197270
5919.328613 0.000000 2309.696777 0.000000 0.918560 0.000000 0.395282 0.222301 0.222301 0.222301
5948.008301 0.000000 2301.652100 0.000000 0.937551 0.000000 0.347849 0.213007 0.213007 0.213007
5919.888672 0.000000 2280.919189 0.000000 0.773195 0.000000 0.634168 0.220237 0.220237 0.220237
5892.035156 0.000000 2265.594727 0.000000 0.857173 0.000000 0.515029 0.239122 0.239122 0.239122
5948.771484 0.000000 2296.459229 0.000000 0.662129 0.000000 0.749390 0.238817 0.238817 0.238817
5919.972656 0.000000 2283.755859 0.000000 0.920722 0.000000 0.390219 0.237981 0.237981 0.237981
5899.316406 0.000000 2260.291992 0.000000 0.769805 0.000000 0.638279 0.242142 0.242142 0.242142
5920.293457 0.000000 2308.382568 0.000000 0.825212 0.000000 0.564823 0.288537 0.288537 0.288537
5925.265137 0.000000 2279.038574 0.000000 0.677178 0.000000 0.735819 0.255416 0.255416 0.255416
5931.954590 0.000000 2283.081055 0.000000 0.755963 0.000000 0.654614 0.242414 0.242414 0.242414
5913.632324 0.000000 2274.592529 0.000000 0.942623 0.000000 0.333858 0.233215 0.233215 0.233215
5910.351074 0.000000 2278.115479 0.000000 0.883908 0.000000 0.467660 0.258869 0.258869 0.258869
5922.144043 0.000000 2310.364502 0.000000 0.677404 0.000000 0.735611 0.284214 0.284214 0.284214
5911.560547 0.000000 2276.900879 0.000000 0.808378 0.000000 0.588664 0.236045 0.236045 0.236045
5951.883789 0.000000 2298.114502 0.000000 0.793626 0.000000 0.608406 0.245719 0.245719 0.245719
5968.905273 0.000000 2313.274414 0.000000 0.809530 0.000000 0.587078 0.223428 0.223428 0.223428
5973.101562 0.000000 2305.825928 0.000000 0.842640 0.000000 0.538478 0.227702 0.227702 0.227702
5954.335449 0.000000 2290.604980 0.000000 0.942171 0.000000 0.335133 0.258076 0.258076 0.258076
5963.049316 0.000000 2309.255859 0.000000 0.859093 0.000000 0.511820 0.258730 0.258730 0.258730
5970.634277 0.000000 2304.643555 0.000000 0.779067 0.000000 0.626940 0.276526 0.276526 0.276526
5954.875977 0.000000 2291.961670 0.000000 0.703325 0.000000 0.710868 0.252310 0.252310 0.252310
5921.641602 0.000000 2333.937988 0.000000 0.888531 0.000000 0.458817 0.220580 0.220580 0.220580
6251.407227 0.000000 2021.181152 0.000000 0.902359 0.000000 0.430985 0.234820 0.234820 0.234820
6279.437500 0.000000 2257.934326 0.000000 0.843653 0.000000 0.536889 0.203246 0.203246 0.203246
6328.630371 0.000000 2256.345703 0.000000 0.855337 0.000000 0.518072 0.226877 0.226877 0.226877
6282.618164 0.000000 2254.333984 0.000000 0.613172 0.000000 0.789949 0.221753 0.221753 0.221753
6248.763184 0.000000 2274.497070 0.000000 0.708210 0.000000 0.706002 0.194756 0.194756 0.194756
6267.955078 0.000000 2290.430176 0.000000 0.844240 0.000000 0.535965 0.247826 0.247826 0.247826
6265.864746 0.000000 2344.450684 0.000000 0.871632 0.000000 0.490161 0.241566 0.241566 0.241566
6253.531250 0.000000 2334.252441 0.000000 0.709232 0.000000 0.704975 0.228178 0.228178 0.228178
6325.860840 0.000000 2307.441406 0.000000 0.891947 0.000000 0.452140 0.206142 0.206142 0.206142
6299.190918 0.000000 2287.684326 0.000000 0.761235 0.000000 0.648476 0.206405 0.206405 0.206405
6305.365723 0.000000 2269.549805 0.000000 0.615615 0.000000 0.788047 0.207889 0.207889 0.207889
6307.217285 0.000000 2270.213623 0.000000 0.918224 0.000000 0.396061 0.226068 0.226068 0.226068
6329.007324 0.000000 2305.035645 0.000000 0.932053 0.000000 0.362321 0.217214 0.217214 0.217214
6278.936035 0.000000 2262.950928 0.000000 0.831893 0.000000 0.554936 0.234907 0.234907 0.234907
6285.340332 0.000000 2299.601807 0.000000 0.767119 0.000000 0.641504 0.238448 0.238448 0.238448
6291.881836 0.000000 2297.912598 0.000000 0.624043 0.000000 0.781390 0.230084 0.230084 0.230084
6280.627441 0.000000 2299.399414 0.000000 0.680936 0.000000 0.732343 0.250889 0.250889 0.250889
6305.699219 0.000000 2272.805176 0.000000 0.848258 0.000000 0.529583 0.230459 0.230459 0.230459
6312.653320 0.000000 2305.017578 0.000000 0.684791 0.000000 0.728740 0.284437 0.284437 0.284437
6299.133789 0.000000 2262.905273 0.000000 0.799029 0.000000 0.601293 0.247916 0.247916 0.247916
6333.976074 0.000000 2300.060791 0.000000 0.652536 0.000000 0.757758 0.237649 0.237649 0.237649
6309.604004 0.000000 2281.958984 0.000000 0.832867 0.000000 0.553474 0.244944 0.244944 0.244944
6315.248047 0.000000 2306.572021 0.000000 0.828853 0.000000 0.559467 0.288237 0.288237 0.288237
6319.447754 0.000000 2328.545166 0.000000 0.905141 0.000000 0.425112 0.207996 0.207996 0.207996
6301.096680 0.000000 2316.255615 0.000000 0.654625 0.000000 0.755954 0.231529 0.231529 0.231529
"}
object={
	name="rainforest_sparse_generator_2_2"
	clamp_to_water_level=no
	render_under_water=no
	generated_content=yes
	layer="semidynamic_medium"
	pdxmesh="tree_rainforest_004_mesh"
	count=174
	transform="2528.801270 0.000000 1553.393311 0.000000 0.990046 0.000000 0.140744 0.214790 0.214790 0.214790
2525.614258 0.000000 1556.806030 0.000000 0.972859 0.000000 0.231400 0.279107 0.279107 0.279107
2528.293457 0.000000 1574.085571 0.000000 0.985137 0.000000 -0.171771 0.260118 0.260118 0.260118
2528.813721 0.000000 1568.583984 0.000000 0.994836 0.000000 0.101499 0.297146 0.297146 0.297146
2715.159668 0.000000 1805.144165 0.000000 0.999991 0.000000 0.004350 0.255690 0.255690 0.255690
2680.246338 0.000000 1810.356934 0.000000 0.964738 0.000000 0.263211 0.233426 0.233426 0.233426
2595.689941 0.000000 1915.586060 0.000000 0.981165 0.000000 0.193174 0.214347 0.214347 0.214347
2668.412598 0.000000 1906.258057 0.000000 0.951513 0.000000 -0.307610 0.203051 0.203051 0.203051
2677.005371 0.000000 1916.179565 0.000000 0.971959 0.000000 -0.235151 0.226524 0.226524 0.226524
2675.649658 0.000000 1916.605957 0.000000 0.969918 0.000000 -0.243432 0.278282 0.278282 0.278282
2750.270020 0.000000 1868.415771 0.000000 0.976275 0.000000 -0.216534 0.201520 0.201520 0.201520
2751.273682 0.000000 1875.375488 0.000000 0.977716 0.000000 -0.209934 0.218869 0.218869 0.218869
2728.756348 0.000000 1869.450928 0.000000 0.968194 0.000000 -0.250200 0.224946 0.224946 0.224946
2711.366211 0.000000 1866.637085 0.000000 0.968142 0.000000 -0.250402 0.239856 0.239856 0.239856
2700.062012 0.000000 1885.289795 0.000000 0.988906 0.000000 0.148541 0.236275 0.236275 0.236275
2702.777344 0.000000 1884.236572 0.000000 0.972848 0.000000 0.231445 0.237592 0.237592 0.237592
2696.954834 0.000000 1887.702393 0.000000 0.995194 0.000000 0.097922 0.255661 0.255661 0.255661
2726.707031 0.000000 1872.541626 0.000000 0.997405 0.000000 0.071996 0.277656 0.277656 0.277656
2716.436768 0.000000 1880.587280 0.000000 0.986601 0.000000 -0.163154 0.286821 0.286821 0.286821
2717.510254 0.000000 1878.047363 0.000000 0.999794 0.000000 0.020297 0.294063 0.294063 0.294063
2614.173828 0.000000 1983.137329 0.000000 0.999875 0.000000 0.015839 0.199891 0.199891 0.199891
2611.914307 0.000000 1982.741455 0.000000 0.981451 0.000000 -0.191715 0.227260 0.227260 0.227260
2680.551025 0.000000 2009.812256 0.000000 0.999234 0.000000 0.039133 0.199746 0.199746 0.199746
2634.351318 0.000000 1997.832031 0.000000 0.994624 0.000000 0.103555 0.199290 0.199290 0.199290
2645.917480 0.000000 2021.215332 0.000000 0.990817 0.000000 0.135213 0.236414 0.236414 0.236414
2636.062012 0.000000 1998.258545 0.000000 0.999583 0.000000 0.028882 0.259302 0.259302 0.259302
2746.305176 0.000000 1964.450195 0.000000 0.965663 0.000000 -0.259797 0.206131 0.206131 0.206131
2695.142822 0.000000 1947.853271 0.000000 0.979405 0.000000 0.201904 0.214273 0.214273 0.214273
2748.008301 0.000000 1962.745972 0.000000 0.980780 0.000000 -0.195116 0.227292 0.227292 0.227292
2749.382568 0.000000 1950.771118 0.000000 0.970558 0.000000 0.240866 0.236943 0.236943 0.236943
2738.750244 0.000000 1961.021973 0.000000 0.990416 0.000000 -0.138119 0.226194 0.226194 0.226194
2722.967773 0.000000 1955.211426 0.000000 0.979794 0.000000 -0.200009 0.241609 0.241609 0.241609
2715.504150 0.000000 1934.447144 0.000000 0.977199 0.000000 0.212324 0.241090 0.241090 0.241090
2748.027344 0.000000 1965.351196 0.000000 0.998071 0.000000 0.062083 0.245525 0.245525 0.245525
2733.470459 0.000000 1967.753052 0.000000 0.970485 0.000000 -0.241163 0.252954 0.252954 0.252954
2751.314453 0.000000 1948.381592 0.000000 0.975308 0.000000 0.220850 0.295814 0.295814 0.295814
2782.191162 0.000000 1922.682739 0.000000 0.992323 0.000000 -0.123671 0.255544 0.255544 0.255544
2758.382080 0.000000 1957.468750 0.000000 0.987999 0.000000 -0.154458 0.279843 0.279843 0.279843
2783.834473 0.000000 1922.622314 0.000000 0.990477 0.000000 0.137682 0.252410 0.252410 0.252410
2752.421387 0.000000 1963.991943 0.000000 0.990604 0.000000 -0.136764 0.263659 0.263659 0.263659
2754.875732 0.000000 1953.055542 0.000000 0.988306 0.000000 -0.152482 0.252478 0.252478 0.252478
2733.143311 0.000000 1977.255493 0.000000 0.966581 0.000000 -0.256362 0.219845 0.219845 0.219845
2740.916016 0.000000 1984.316162 0.000000 0.999983 0.000000 0.005833 0.255672 0.255672 0.255672
2717.325684 0.000000 1981.428101 0.000000 0.978895 0.000000 -0.204363 0.303538 0.303538 0.303538
2719.750977 0.000000 1983.536133 0.000000 0.964938 0.000000 0.262478 0.251431 0.251431 0.251431
2714.256592 0.000000 1981.678101 0.000000 0.987284 0.000000 -0.158965 0.247430 0.247430 0.247430
2721.739258 0.000000 1979.477173 0.000000 0.967631 0.000000 -0.252370 0.281295 0.281295 0.281295
2718.425537 0.000000 1983.837524 0.000000 0.984396 0.000000 -0.175970 0.256747 0.256747 0.256747
5737.656250 0.000000 2243.000488 0.000000 0.995616 0.000000 -0.093533 0.200938 0.200938 0.200938
5733.967285 0.000000 2227.787842 0.000000 0.977912 0.000000 -0.209015 0.287535 0.287535 0.287535
5736.687988 0.000000 2225.391357 0.000000 0.989644 0.000000 0.143544 0.231354 0.231354 0.231354
5781.422363 0.000000 2170.761230 0.000000 0.993588 0.000000 0.113064 0.219460 0.219460 0.219460
5788.979980 0.000000 2218.169678 0.000000 0.989465 0.000000 -0.144775 0.244998 0.244998 0.244998
5773.642090 0.000000 2224.542236 0.000000 0.999785 0.000000 -0.020716 0.297548 0.297548 0.297548
5791.902832 0.000000 2218.174316 0.000000 0.998597 0.000000 -0.052962 0.259765 0.259765 0.259765
5873.424316 0.000000 2241.307129 0.000000 0.951221 0.000000 0.308512 0.220435 0.220435 0.220435
5869.814941 0.000000 2239.436768 0.000000 0.994824 0.000000 0.101617 0.231770 0.231770 0.231770
5882.669922 0.000000 2258.628418 0.000000 0.994692 0.000000 -0.102899 0.263789 0.263789 0.263789
5950.390625 0.000000 2145.682373 0.000000 0.964536 0.000000 0.263952 0.207719 0.207719 0.207719
5992.388184 0.000000 2139.923584 0.000000 0.999265 0.000000 0.038329 0.237977 0.237977 0.237977
5952.043457 0.000000 2114.172852 0.000000 1.000000 0.000000 0.000026 0.259664 0.259664 0.259664
6068.316895 0.000000 2119.047852 0.000000 0.996126 0.000000 -0.087933 0.235900 0.235900 0.235900
6072.708984 0.000000 2110.365479 0.000000 0.964847 0.000000 -0.262813 0.246310 0.246310 0.246310
6071.822754 0.000000 2121.215088 0.000000 0.983530 0.000000 -0.180743 0.237983 0.237983 0.237983
6066.132324 0.000000 2109.343018 0.000000 0.968046 0.000000 -0.250773 0.268598 0.268598 0.268598
6069.385254 0.000000 2120.529053 0.000000 0.966365 0.000000 -0.257176 0.257747 0.257747 0.257747
6064.663086 0.000000 2108.577881 0.000000 0.997724 0.000000 0.067431 0.272720 0.272720 0.272720
5930.009766 0.000000 2201.343018 0.000000 0.992377 0.000000 0.123239 0.199180 0.199180 0.199180
5951.423340 0.000000 2149.881592 0.000000 0.985374 0.000000 -0.170405 0.303181 0.303181 0.303181
6013.212891 0.000000 2171.798096 0.000000 0.986410 0.000000 0.164303 0.198887 0.198887 0.198887
5974.782715 0.000000 2153.709717 0.000000 0.980139 0.000000 -0.198313 0.206237 0.206237 0.206237
6012.008301 0.000000 2188.683350 0.000000 0.995535 0.000000 -0.094388 0.213365 0.213365 0.213365
6003.914062 0.000000 2152.194580 0.000000 0.975437 0.000000 0.220279 0.219060 0.219060 0.219060
5979.673340 0.000000 2199.179688 0.000000 0.957494 0.000000 -0.288453 0.214958 0.214958 0.214958
5999.135742 0.000000 2162.462402 0.000000 0.958773 0.000000 -0.284173 0.220664 0.220664 0.220664
6005.007812 0.000000 2187.556641 0.000000 0.982306 0.000000 -0.187284 0.233489 0.233489 0.233489
5960.076660 0.000000 2190.459717 0.000000 0.978576 0.000000 -0.205886 0.227393 0.227393 0.227393
6001.909180 0.000000 2178.247559 0.000000 0.995958 0.000000 0.089823 0.240773 0.240773 0.240773
5974.981445 0.000000 2174.630859 0.000000 0.989316 0.000000 -0.145785 0.268328 0.268328 0.268328
5992.687988 0.000000 2168.906982 0.000000 0.997845 0.000000 0.065614 0.291647 0.291647 0.291647
6005.385254 0.000000 2177.013428 0.000000 0.994608 0.000000 0.103705 0.256144 0.256144 0.256144
5980.899902 0.000000 2197.954834 0.000000 0.968128 0.000000 0.250455 0.278267 0.278267 0.278267
6004.777832 0.000000 2179.354248 0.000000 0.964153 0.000000 0.265346 0.264455 0.264455 0.264455
6003.609375 0.000000 2181.755371 0.000000 0.978445 0.000000 0.206508 0.236764 0.236764 0.236764
5989.508789 0.000000 2161.794678 0.000000 0.956187 0.000000 0.292756 0.294326 0.294326 0.294326
6011.523926 0.000000 2159.865479 0.000000 0.959866 0.000000 0.280460 0.294901 0.294901 0.294901
5984.240234 0.000000 2160.376221 0.000000 0.973585 0.000000 -0.228325 0.278636 0.278636 0.278636
5960.364746 0.000000 2146.863037 0.000000 0.968053 0.000000 0.250745 0.267381 0.267381 0.267381
5976.470703 0.000000 2169.154297 0.000000 0.999652 0.000000 0.026383 0.297871 0.297871 0.297871
5972.600586 0.000000 2157.428223 0.000000 0.998124 0.000000 -0.061223 0.251975 0.251975 0.251975
5991.243164 0.000000 2197.306641 0.000000 0.977840 0.000000 -0.209355 0.270904 0.270904 0.270904
5999.546387 0.000000 2152.753662 0.000000 0.967368 0.000000 -0.253374 0.304576 0.304576 0.304576
6001.244629 0.000000 2183.458496 0.000000 0.999879 0.000000 -0.015567 0.280623 0.280623 0.280623
5967.028809 0.000000 2159.512207 0.000000 0.987455 0.000000 -0.157903 0.294159 0.294159 0.294159
5999.484375 0.000000 2165.865234 0.000000 0.986228 0.000000 -0.165394 0.273726 0.273726 0.273726
5929.385742 0.000000 2235.808838 0.000000 0.974487 0.000000 -0.224446 0.201481 0.201481 0.201481
5947.100586 0.000000 2212.983398 0.000000 0.983522 0.000000 0.180786 0.202867 0.202867 0.202867
5951.509766 0.000000 2240.109131 0.000000 0.977874 0.000000 -0.209195 0.208598 0.208598 0.208598
5943.432129 0.000000 2251.974365 0.000000 0.956743 0.000000 0.290933 0.229321 0.229321 0.229321
5924.099609 0.000000 2241.208496 0.000000 0.999995 0.000000 0.003158 0.223221 0.223221 0.223221
5946.270996 0.000000 2211.224365 0.000000 0.990140 0.000000 -0.140084 0.247787 0.247787 0.247787
5931.765137 0.000000 2232.174805 0.000000 0.961478 0.000000 0.274883 0.284930 0.284930 0.284930
5927.989746 0.000000 2228.794434 0.000000 0.964364 0.000000 -0.264578 0.235411 0.235411 0.235411
5945.112305 0.000000 2209.480957 0.000000 0.955729 0.000000 -0.294249 0.243783 0.243783 0.243783
5950.905762 0.000000 2208.700928 0.000000 0.972841 0.000000 0.231473 0.242518 0.242518 0.242518
5919.813965 0.000000 2225.928955 0.000000 0.965573 0.000000 -0.260133 0.257784 0.257784 0.257784
5944.732422 0.000000 2251.447754 0.000000 0.998726 0.000000 0.050455 0.271845 0.271845 0.271845
5949.256836 0.000000 2208.255371 0.000000 0.998599 0.000000 0.052915 0.299023 0.299023 0.299023
5978.245605 0.000000 2221.402588 0.000000 0.970362 0.000000 -0.241657 0.216855 0.216855 0.216855
5962.166504 0.000000 2209.404297 0.000000 0.972741 0.000000 -0.231893 0.236224 0.236224 0.236224
5999.135742 0.000000 2218.946777 0.000000 0.999993 0.000000 -0.003638 0.237853 0.237853 0.237853
5980.979980 0.000000 2218.169678 0.000000 0.995025 0.000000 0.099628 0.217356 0.217356 0.217356
5960.309570 0.000000 2231.683838 0.000000 0.990201 0.000000 0.139649 0.237473 0.237473 0.237473
5988.749023 0.000000 2212.260010 0.000000 0.997424 0.000000 -0.071734 0.288802 0.288802 0.288802
5999.105469 0.000000 2206.451904 0.000000 0.985220 0.000000 -0.171295 0.281233 0.281233 0.281233
5957.961426 0.000000 2253.523438 0.000000 0.958747 0.000000 0.284261 0.238649 0.238649 0.238649
5989.374023 0.000000 2208.857178 0.000000 0.975784 0.000000 -0.218736 0.294010 0.294010 0.294010
5961.923828 0.000000 2220.485107 0.000000 0.996915 0.000000 0.078487 0.253678 0.253678 0.253678
5955.093750 0.000000 2232.960693 0.000000 0.979269 0.000000 -0.202562 0.299486 0.299486 0.299486
6025.400879 0.000000 2162.525391 0.000000 0.972220 0.000000 0.234067 0.198472 0.198472 0.198472
6034.230469 0.000000 2184.441895 0.000000 0.990519 0.000000 0.137375 0.203190 0.203190 0.203190
6043.635742 0.000000 2169.456543 0.000000 0.974754 0.000000 0.223283 0.212992 0.212992 0.212992
6045.291016 0.000000 2188.748779 0.000000 0.964826 0.000000 -0.262891 0.211307 0.211307 0.211307
6016.371582 0.000000 2151.490967 0.000000 0.999919 0.000000 -0.012744 0.229533 0.229533 0.229533
6076.473145 0.000000 2173.390381 0.000000 0.952986 0.000000 -0.303013 0.228315 0.228315 0.228315
6030.777344 0.000000 2166.658447 0.000000 0.966208 0.000000 0.257765 0.235668 0.235668 0.235668
6023.699707 0.000000 2162.261230 0.000000 0.970815 0.000000 0.239829 0.290402 0.290402 0.290402
6018.335449 0.000000 2177.636230 0.000000 0.995380 0.000000 0.096009 0.298164 0.298164 0.298164
6019.050781 0.000000 2149.800537 0.000000 0.980468 0.000000 -0.196677 0.258144 0.258144 0.258144
6071.822754 0.000000 2177.699463 0.000000 0.997876 0.000000 0.065147 0.245491 0.245491 0.245491
6016.016113 0.000000 2155.058838 0.000000 0.964532 0.000000 0.263966 0.241057 0.241057 0.241057
6026.583984 0.000000 2172.630371 0.000000 0.996385 0.000000 0.084957 0.273027 0.273027 0.273027
6045.067383 0.000000 2169.919189 0.000000 0.951940 0.000000 0.306286 0.240031 0.240031 0.240031
6056.728027 0.000000 2189.219971 0.000000 0.978298 0.000000 0.207201 0.296014 0.296014 0.296014
6038.889648 0.000000 2195.668213 0.000000 0.985669 0.000000 0.168693 0.259738 0.259738 0.259738
6019.093750 0.000000 2176.476318 0.000000 0.987006 0.000000 -0.160682 0.303082 0.303082 0.303082
6055.243164 0.000000 2197.306641 0.000000 0.996557 0.000000 0.082909 0.264730 0.264730 0.264730
6062.049316 0.000000 2184.319824 0.000000 0.995166 0.000000 -0.098203 0.296021 0.296021 0.296021
6061.556641 0.000000 2192.049561 0.000000 0.999236 0.000000 -0.039085 0.268031 0.268031 0.268031
6048.342773 0.000000 2181.451660 0.000000 0.994989 0.000000 -0.099989 0.275646 0.275646 0.275646
6028.112305 0.000000 2217.797363 0.000000 0.994895 0.000000 -0.100911 0.203249 0.203249 0.203249
6030.749512 0.000000 2202.921631 0.000000 0.979837 0.000000 -0.199800 0.291405 0.291405 0.291405
5924.759766 0.000000 2280.751221 0.000000 0.999866 0.000000 -0.016385 0.208810 0.208810 0.208810
5904.278320 0.000000 2272.930664 0.000000 0.980711 0.000000 0.195464 0.250063 0.250063 0.250063
5951.210449 0.000000 2293.976807 0.000000 0.978685 0.000000 -0.205367 0.303695 0.303695 0.303695
5917.380859 0.000000 2278.772705 0.000000 0.982465 0.000000 0.186447 0.233677 0.233677 0.233677
5901.322266 0.000000 2263.971680 0.000000 0.977498 0.000000 -0.210943 0.257175 0.257175 0.257175
5915.790527 0.000000 2278.128418 0.000000 0.974852 0.000000 0.222852 0.256298 0.256298 0.256298
5962.072266 0.000000 2315.547119 0.000000 0.960750 0.000000 -0.277416 0.207411 0.207411 0.207411
5960.564453 0.000000 2311.105957 0.000000 0.996003 0.000000 0.089321 0.298292 0.298292 0.298292
5960.986816 0.000000 2314.083008 0.000000 0.999305 0.000000 0.037282 0.236872 0.236872 0.236872
5968.398438 0.000000 2304.431396 0.000000 0.999814 0.000000 -0.019290 0.300349 0.300349 0.300349
5952.126465 0.000000 2305.057861 0.000000 0.967637 0.000000 0.252346 0.292360 0.292360 0.292360
5942.403320 0.000000 2335.545166 0.000000 0.956960 0.000000 0.290218 0.238038 0.238038 0.238038
5961.278320 0.000000 2365.942871 0.000000 0.999434 0.000000 -0.033632 0.206696 0.206696 0.206696
5956.035156 0.000000 2322.079102 0.000000 0.965296 0.000000 -0.261157 0.219314 0.219314 0.219314
5959.434570 0.000000 2326.603027 0.000000 0.996801 0.000000 -0.079926 0.295718 0.295718 0.295718
6283.256348 0.000000 2255.924072 0.000000 0.993621 0.000000 -0.112771 0.231622 0.231622 0.231622
6250.440430 0.000000 2275.583984 0.000000 0.991593 0.000000 0.129396 0.216547 0.216547 0.216547
6270.095703 0.000000 2290.921143 0.000000 0.998955 0.000000 0.045702 0.256860 0.256860 0.256860
6258.395020 0.000000 2345.875977 0.000000 0.974156 0.000000 0.225877 0.226142 0.226142 0.226142
6226.728027 0.000000 2350.017334 0.000000 0.953471 0.000000 0.301484 0.248773 0.248773 0.248773
6283.941895 0.000000 2301.178955 0.000000 0.998986 0.000000 -0.045023 0.200304 0.200304 0.200304
6301.020508 0.000000 2272.205322 0.000000 0.976042 0.000000 0.217583 0.199840 0.199840 0.199840
6294.628418 0.000000 2289.402100 0.000000 0.966428 0.000000 -0.256939 0.204393 0.204393 0.204393
6306.857422 0.000000 2288.503906 0.000000 0.968569 0.000000 -0.248745 0.204904 0.204904 0.204904
6314.219238 0.000000 2305.589600 0.000000 0.986186 0.000000 -0.165642 0.237827 0.237827 0.237827
6295.416992 0.000000 2307.307861 0.000000 0.999675 0.000000 0.025504 0.223579 0.223579 0.223579
6312.388184 0.000000 2309.376709 0.000000 0.982606 0.000000 0.185705 0.296593 0.296593 0.296593
6297.336426 0.000000 2297.373291 0.000000 0.999755 0.000000 -0.022128 0.249834 0.249834 0.249834
6312.074707 0.000000 2291.708008 0.000000 0.955892 0.000000 0.293718 0.247239 0.247239 0.247239
6279.662109 0.000000 2296.100342 0.000000 0.999022 0.000000 -0.044212 0.269225 0.269225 0.269225
6340.189941 0.000000 2304.538330 0.000000 0.968019 0.000000 0.250878 0.252666 0.252666 0.252666
6352.024902 0.000000 2300.793701 0.000000 0.993774 0.000000 0.111411 0.244419 0.244419 0.244419
"}
object={
	name="rainforest_sparse_generator_2_3"
	clamp_to_water_level=no
	render_under_water=no
	generated_content=yes
	layer="semidynamic_medium"
	pdxmesh="tree_rainforest_005_mesh"
	count=181
	transform="2521.034668 0.000000 1557.024658 0.000000 0.743012 0.000000 -0.669278 0.252595 0.252595 0.252595
2529.478516 0.000000 1555.099609 0.000000 0.858999 0.000000 -0.511978 0.299687 0.299687 0.299687
2530.837891 0.000000 1573.169556 0.000000 0.900948 0.000000 -0.433927 0.308051 0.308051 0.308051
2536.727783 0.000000 1567.891724 0.000000 0.848862 0.000000 -0.528614 0.251841 0.251841 0.251841
2696.237305 0.000000 1799.042236 0.000000 0.854984 0.000000 -0.518654 0.224617 0.224617 0.224617
2708.063721 0.000000 1791.889893 0.000000 0.888854 0.000000 -0.458190 0.256226 0.256226 0.256226
2646.628418 0.000000 1837.527222 0.000000 0.945390 0.000000 -0.325940 0.210092 0.210092 0.210092
2593.062500 0.000000 1916.058350 0.000000 0.810460 0.000000 -0.585794 0.218818 0.218818 0.218818
2594.177490 0.000000 1890.917480 0.000000 0.829693 0.000000 -0.558219 0.237424 0.237424 0.237424
2665.322754 0.000000 1912.260010 0.000000 0.656956 0.000000 -0.753929 0.205821 0.205821 0.205821
2682.305176 0.000000 1907.965820 0.000000 0.902852 0.000000 -0.429952 0.203107 0.203107 0.203107
2659.200439 0.000000 1876.781372 0.000000 0.915259 0.000000 -0.402865 0.217099 0.217099 0.217099
2667.659912 0.000000 1900.164062 0.000000 0.807660 0.000000 -0.589649 0.225949 0.225949 0.225949
2677.101318 0.000000 1909.309937 0.000000 0.941437 0.000000 -0.337189 0.233848 0.233848 0.233848
2679.431885 0.000000 1913.068115 0.000000 0.947113 0.000000 -0.320899 0.250442 0.250442 0.250442
2665.262451 0.000000 1877.322021 0.000000 0.770958 0.000000 -0.636886 0.228255 0.228255 0.228255
2687.025635 0.000000 1913.349487 0.000000 0.667709 0.000000 -0.744422 0.255586 0.255586 0.255586
2663.789551 0.000000 1877.921753 0.000000 0.789665 0.000000 -0.613538 0.263156 0.263156 0.263156
2669.470459 0.000000 1911.268677 0.000000 0.883408 0.000000 -0.468606 0.285855 0.285855 0.285855
2665.033447 0.000000 1905.421143 0.000000 0.594664 0.000000 -0.803975 0.316368 0.316368 0.316368
2730.678223 0.000000 1845.675049 0.000000 0.896275 0.000000 -0.443499 0.241977 0.241977 0.241977
2718.952637 0.000000 1883.496704 0.000000 0.739386 0.000000 -0.673282 0.212001 0.212001 0.212001
2716.719971 0.000000 1904.493530 0.000000 0.757388 0.000000 -0.652965 0.252356 0.252356 0.252356
2717.380859 0.000000 1883.382080 0.000000 0.676278 0.000000 -0.736646 0.257278 0.257278 0.257278
2713.632568 0.000000 1879.201904 0.000000 0.758265 0.000000 -0.651946 0.252941 0.252941 0.252941
2699.761963 0.000000 1888.394043 0.000000 0.748232 0.000000 -0.663438 0.262735 0.262735 0.262735
2770.979736 0.000000 1903.998169 0.000000 0.917539 0.000000 -0.397645 0.234475 0.234475 0.234475
2612.365479 0.000000 1959.734985 0.000000 0.793371 0.000000 -0.608738 0.204297 0.204297 0.204297
2609.315186 0.000000 1963.166992 0.000000 0.827492 0.000000 -0.561477 0.222701 0.222701 0.222701
2610.750244 0.000000 1961.021973 0.000000 0.725395 0.000000 -0.688333 0.250471 0.250471 0.250471
2682.561523 0.000000 2008.712402 0.000000 0.726881 0.000000 -0.686764 0.240830 0.240830 0.240830
2677.007812 0.000000 2018.103516 0.000000 0.921949 0.000000 -0.387312 0.226818 0.226818 0.226818
2634.704590 0.000000 1999.695679 0.000000 0.724047 0.000000 -0.689751 0.231876 0.231876 0.231876
2632.953125 0.000000 2002.883789 0.000000 0.613125 0.000000 -0.789986 0.260050 0.260050 0.260050
2632.954834 0.000000 2000.671143 0.000000 0.702953 0.000000 -0.711236 0.276276 0.276276 0.276276
2630.595947 0.000000 2002.952148 0.000000 0.913838 0.000000 -0.406078 0.294825 0.294825 0.294825
2746.504395 0.000000 1944.227661 0.000000 0.597281 0.000000 -0.802032 0.217671 0.217671 0.217671
2711.885254 0.000000 1946.248901 0.000000 0.751572 0.000000 -0.659651 0.215426 0.215426 0.215426
2745.129395 0.000000 1959.287354 0.000000 0.949636 0.000000 -0.313356 0.230721 0.230721 0.230721
2722.177490 0.000000 1947.401855 0.000000 0.853313 0.000000 -0.521399 0.257660 0.257660 0.257660
2748.473145 0.000000 1947.452759 0.000000 0.632913 0.000000 -0.774223 0.316149 0.316149 0.316149
2699.461182 0.000000 1948.063232 0.000000 0.638877 0.000000 -0.769309 0.247491 0.247491 0.247491
2706.727783 0.000000 1954.626831 0.000000 0.782055 0.000000 -0.623209 0.273510 0.273510 0.273510
2746.590332 0.000000 1963.023193 0.000000 0.847761 0.000000 -0.530378 0.264303 0.264303 0.264303
2707.693604 0.000000 1949.804443 0.000000 0.861160 0.000000 -0.508334 0.261028 0.261028 0.261028
2750.499756 0.000000 1949.857300 0.000000 0.588327 0.000000 -0.808623 0.317705 0.317705 0.317705
2755.505127 0.000000 1963.894897 0.000000 0.917120 0.000000 -0.398611 0.202733 0.202733 0.202733
2760.280029 0.000000 1954.699707 0.000000 0.597620 0.000000 -0.801780 0.294198 0.294198 0.294198
2759.661865 0.000000 1957.193970 0.000000 0.903359 0.000000 -0.428884 0.284027 0.284027 0.284027
2749.251953 0.000000 1983.767700 0.000000 0.791993 0.000000 -0.610530 0.216703 0.216703 0.216703
2719.834473 0.000000 1979.106689 0.000000 0.854217 0.000000 -0.519917 0.281959 0.281959 0.281959
5679.350098 0.000000 2257.633789 0.000000 0.678808 0.000000 -0.734316 0.240896 0.240896 0.240896
5695.365723 0.000000 2212.855957 0.000000 0.730699 0.000000 -0.682699 0.279389 0.279389 0.279389
5739.659668 0.000000 2239.070312 0.000000 0.900676 0.000000 -0.434491 0.231364 0.231364 0.231364
5752.742188 0.000000 2232.784424 0.000000 0.828588 0.000000 -0.559859 0.226221 0.226221 0.226221
5753.190430 0.000000 2244.997559 0.000000 0.795079 0.000000 -0.606505 0.224355 0.224355 0.224355
5738.678223 0.000000 2241.065674 0.000000 0.644411 0.000000 -0.764679 0.237713 0.237713 0.237713
5730.087402 0.000000 2227.945801 0.000000 0.946837 0.000000 -0.321715 0.228496 0.228496 0.228496
5747.824219 0.000000 2247.225098 0.000000 0.866367 0.000000 -0.499407 0.296476 0.296476 0.296476
5789.938965 0.000000 2219.424072 0.000000 0.791456 0.000000 -0.611227 0.250571 0.250571 0.250571
5943.867676 0.000000 2137.153564 0.000000 0.627980 0.000000 -0.778229 0.230647 0.230647 0.230647
5927.167969 0.000000 2138.391846 0.000000 0.858632 0.000000 -0.512593 0.227491 0.227491 0.227491
5940.072754 0.000000 2138.425049 0.000000 0.828984 0.000000 -0.559272 0.246909 0.246909 0.246909
5942.588867 0.000000 2143.104980 0.000000 0.624560 0.000000 -0.780977 0.239779 0.239779 0.239779
5948.104492 0.000000 2143.575684 0.000000 0.608361 0.000000 -0.793660 0.317510 0.317510 0.317510
5951.116211 0.000000 2109.671631 0.000000 0.858267 0.000000 -0.513203 0.252822 0.252822 0.252822
5934.236328 0.000000 2145.778320 0.000000 0.780650 0.000000 -0.624968 0.278954 0.278954 0.278954
5949.367188 0.000000 2141.057617 0.000000 0.647915 0.000000 -0.761713 0.293859 0.293859 0.293859
5952.254883 0.000000 2137.062744 0.000000 0.886188 0.000000 -0.463326 0.203127 0.203127 0.203127
5991.299805 0.000000 2136.301270 0.000000 0.935686 0.000000 -0.352834 0.209156 0.209156 0.209156
5968.382324 0.000000 2145.738281 0.000000 0.594500 0.000000 -0.804096 0.220722 0.220722 0.220722
5991.167969 0.000000 2138.391846 0.000000 0.810091 0.000000 -0.586305 0.220004 0.220004 0.220004
5962.331055 0.000000 2135.258301 0.000000 0.605230 0.000000 -0.796051 0.246717 0.246717 0.246717
5952.049316 0.000000 2115.619385 0.000000 0.762990 0.000000 -0.646410 0.268481 0.268481 0.268481
6067.016113 0.000000 2110.772949 0.000000 0.900840 0.000000 -0.434151 0.203139 0.203139 0.203139
6052.029297 0.000000 2108.474609 0.000000 0.665888 0.000000 -0.746051 0.213378 0.213378 0.213378
6064.943848 0.000000 2101.510254 0.000000 0.669567 0.000000 -0.742752 0.232569 0.232569 0.232569
6070.403320 0.000000 2109.607666 0.000000 0.843222 0.000000 -0.537565 0.240134 0.240134 0.240134
6078.499512 0.000000 2119.310547 0.000000 0.944751 0.000000 -0.327788 0.269076 0.269076 0.269076
5958.057129 0.000000 2191.343994 0.000000 0.811083 0.000000 -0.584931 0.212322 0.212322 0.212322
5985.491699 0.000000 2152.301514 0.000000 0.699157 0.000000 -0.714969 0.210646 0.210646 0.210646
6006.158691 0.000000 2178.466064 0.000000 0.946586 0.000000 -0.322450 0.215821 0.215821 0.215821
5976.535645 0.000000 2162.761230 0.000000 0.939377 0.000000 -0.342887 0.222346 0.222346 0.222346
5968.382324 0.000000 2202.222656 0.000000 0.883643 0.000000 -0.468161 0.217106 0.217106 0.217106
6015.163574 0.000000 2179.080811 0.000000 0.601580 0.000000 -0.798813 0.220650 0.220650 0.220650
6009.678223 0.000000 2161.527832 0.000000 0.934129 0.000000 -0.356935 0.220741 0.220741 0.220741
6001.324707 0.000000 2182.003418 0.000000 0.908323 0.000000 -0.418269 0.286796 0.286796 0.286796
6011.502441 0.000000 2158.403564 0.000000 0.668631 0.000000 -0.743594 0.315040 0.315040 0.315040
5992.256348 0.000000 2163.253906 0.000000 0.750764 0.000000 -0.660571 0.313781 0.313781 0.313781
5986.087402 0.000000 2171.461426 0.000000 0.896877 0.000000 -0.442279 0.308750 0.308750 0.308750
5976.779785 0.000000 2150.942871 0.000000 0.844974 0.000000 -0.534808 0.248373 0.248373 0.248373
5983.972656 0.000000 2170.787109 0.000000 0.820186 0.000000 -0.572097 0.275065 0.275065 0.275065
6009.206055 0.000000 2156.032715 0.000000 0.825115 0.000000 -0.564964 0.310500 0.310500 0.310500
6012.201172 0.000000 2166.996826 0.000000 0.638279 0.000000 -0.769805 0.297134 0.297134 0.297134
5970.929199 0.000000 2151.880371 0.000000 0.924351 0.000000 -0.381542 0.279179 0.279179 0.279179
5987.595703 0.000000 2166.518066 0.000000 0.737679 0.000000 -0.675152 0.288352 0.288352 0.288352
5973.555664 0.000000 2150.491211 0.000000 0.824292 0.000000 -0.566164 0.282140 0.282140 0.282140
5989.106445 0.000000 2159.004150 0.000000 0.599506 0.000000 -0.800370 0.317722 0.317722 0.317722
6006.485352 0.000000 2171.820557 0.000000 0.937617 0.000000 -0.347669 0.244961 0.244961 0.244961
5998.421387 0.000000 2155.453369 0.000000 0.838542 0.000000 -0.544837 0.261544 0.261544 0.261544
5973.918945 0.000000 2157.913574 0.000000 0.905955 0.000000 -0.423373 0.256361 0.256361 0.256361
5972.029785 0.000000 2150.333008 0.000000 0.908632 0.000000 -0.417597 0.279733 0.279733 0.279733
5998.908691 0.000000 2157.715576 0.000000 0.936566 0.000000 -0.350492 0.306410 0.306410 0.306410
5953.598145 0.000000 2149.971924 0.000000 0.863779 0.000000 -0.503870 0.308480 0.308480 0.308480
6001.824707 0.000000 2156.891602 0.000000 0.882455 0.000000 -0.470396 0.288252 0.288252 0.288252
5993.922852 0.000000 2171.558105 0.000000 0.902079 0.000000 -0.431571 0.308522 0.308522 0.308522
5983.902832 0.000000 2161.689941 0.000000 0.838799 0.000000 -0.544441 0.281772 0.281772 0.281772
5996.992676 0.000000 2169.306885 0.000000 0.731949 0.000000 -0.681359 0.268462 0.268462 0.268462
5918.952637 0.000000 2222.402832 0.000000 0.949567 0.000000 -0.313565 0.209418 0.209418 0.209418
5937.314941 0.000000 2245.588867 0.000000 0.845464 0.000000 -0.534033 0.225363 0.225363 0.225363
5920.607910 0.000000 2241.981201 0.000000 0.943900 0.000000 -0.330231 0.217040 0.217040 0.217040
5914.057129 0.000000 2238.353760 0.000000 0.766476 0.000000 -0.642272 0.249807 0.249807 0.249807
5930.059082 0.000000 2238.173584 0.000000 0.837995 0.000000 -0.545678 0.311024 0.311024 0.311024
5933.249512 0.000000 2234.129395 0.000000 0.859984 0.000000 -0.510322 0.310048 0.310048 0.310048
5948.055664 0.000000 2208.807861 0.000000 0.886246 0.000000 -0.463216 0.308892 0.308892 0.308892
5925.085938 0.000000 2229.261475 0.000000 0.707801 0.000000 -0.706412 0.313953 0.313953 0.313953
5930.783691 0.000000 2235.696777 0.000000 0.754754 0.000000 -0.656008 0.312915 0.312915 0.312915
5956.755371 0.000000 2230.763184 0.000000 0.632137 0.000000 -0.774857 0.206508 0.206508 0.206508
5992.647949 0.000000 2204.217285 0.000000 0.777540 0.000000 -0.628833 0.241857 0.241857 0.241857
5997.431152 0.000000 2206.942383 0.000000 0.785156 0.000000 -0.619299 0.236970 0.236970 0.236970
5963.256348 0.000000 2255.924072 0.000000 0.875071 0.000000 -0.483995 0.251267 0.251267 0.251267
5969.288086 0.000000 2207.971924 0.000000 0.916922 0.000000 -0.399067 0.279447 0.279447 0.279447
5970.929199 0.000000 2208.364746 0.000000 0.934284 0.000000 -0.356530 0.282300 0.282300 0.282300
5975.673828 0.000000 2208.846680 0.000000 0.746421 0.000000 -0.665474 0.312707 0.312707 0.312707
5953.323730 0.000000 2208.947998 0.000000 0.741041 0.000000 -0.671460 0.313178 0.313178 0.313178
5952.126465 0.000000 2248.573486 0.000000 0.676162 0.000000 -0.736753 0.315819 0.315819 0.315819
6052.276367 0.000000 2179.653076 0.000000 0.837580 0.000000 -0.546314 0.203910 0.203910 0.203910
6074.637207 0.000000 2173.339844 0.000000 0.630894 0.000000 -0.775869 0.214930 0.214930 0.214930
6026.329590 0.000000 2171.110840 0.000000 0.734466 0.000000 -0.678645 0.219199 0.219199 0.219199
6054.646484 0.000000 2178.563477 0.000000 0.863405 0.000000 -0.504512 0.219786 0.219786 0.219786
6022.363770 0.000000 2155.918945 0.000000 0.762970 0.000000 -0.646434 0.213510 0.213510 0.213510
6018.944824 0.000000 2163.802246 0.000000 0.878622 0.000000 -0.477519 0.211939 0.211939 0.211939
6020.602051 0.000000 2149.011963 0.000000 0.729554 0.000000 -0.683923 0.220450 0.220450 0.220450
6071.405273 0.000000 2181.259277 0.000000 0.754262 0.000000 -0.656574 0.241623 0.241623 0.241623
6065.424316 0.000000 2184.822754 0.000000 0.633209 0.000000 -0.773980 0.219120 0.219120 0.219120
6061.465820 0.000000 2190.702148 0.000000 0.846701 0.000000 -0.532068 0.218291 0.218291 0.218291
6058.678223 0.000000 2184.581299 0.000000 0.847006 0.000000 -0.531583 0.233578 0.233578 0.233578
6058.281250 0.000000 2188.617920 0.000000 0.671001 0.000000 -0.741456 0.247655 0.247655 0.247655
6056.388184 0.000000 2196.407959 0.000000 0.749619 0.000000 -0.661870 0.242891 0.242891 0.242891
6016.233887 0.000000 2159.849609 0.000000 0.773589 0.000000 -0.633688 0.309973 0.309973 0.309973
6070.362793 0.000000 2180.048096 0.000000 0.921302 0.000000 -0.388849 0.238451 0.238451 0.238451
6047.740723 0.000000 2191.374756 0.000000 0.752620 0.000000 -0.658455 0.256641 0.256641 0.256641
6061.470215 0.000000 2193.690674 0.000000 0.871799 0.000000 -0.489863 0.274362 0.274362 0.274362
6043.159668 0.000000 2200.534668 0.000000 0.644820 0.000000 -0.764334 0.315801 0.315801 0.315801
6059.248047 0.000000 2193.603271 0.000000 0.732612 0.000000 -0.680646 0.259392 0.259392 0.259392
6020.298828 0.000000 2202.304688 0.000000 0.826968 0.000000 -0.562250 0.260606 0.260606 0.260606
6065.244629 0.000000 2183.458496 0.000000 0.782369 0.000000 -0.622815 0.312161 0.312161 0.312161
6017.498535 0.000000 2174.383057 0.000000 0.936273 0.000000 -0.351273 0.296229 0.296229 0.296229
6022.753418 0.000000 2151.571045 0.000000 0.881550 0.000000 -0.472090 0.273500 0.273500 0.273500
6036.561035 0.000000 2197.171631 0.000000 0.900775 0.000000 -0.434285 0.290006 0.290006 0.290006
6082.681152 0.000000 2168.624756 0.000000 0.937671 0.000000 -0.347525 0.255402 0.255402 0.255402
6086.267578 0.000000 2170.846191 0.000000 0.931210 0.000000 -0.364483 0.306608 0.306608 0.306608
6026.378418 0.000000 2214.751953 0.000000 0.945715 0.000000 -0.324997 0.252227 0.252227 0.252227
6053.374023 0.000000 2208.857178 0.000000 0.640726 0.000000 -0.767769 0.316718 0.316718 0.316718
5679.339355 0.000000 2259.621094 0.000000 0.936270 0.000000 -0.351281 0.213182 0.213182 0.213182
5947.000977 0.000000 2297.176025 0.000000 0.668274 0.000000 -0.743915 0.216951 0.216951 0.216951
5905.219727 0.000000 2270.833740 0.000000 0.612677 0.000000 -0.790333 0.228398 0.228398 0.228398
5912.030273 0.000000 2272.680176 0.000000 0.942542 0.000000 -0.334089 0.245965 0.245965 0.245965
5947.955078 0.000000 2290.430176 0.000000 0.601721 0.000000 -0.798706 0.281129 0.281129 0.281129
5948.112793 0.000000 2295.050049 0.000000 0.801292 0.000000 -0.598274 0.276095 0.276095 0.276095
5923.429199 0.000000 2309.545898 0.000000 0.793796 0.000000 -0.608184 0.263075 0.263075 0.263075
5945.187988 0.000000 2290.860352 0.000000 0.865340 0.000000 -0.501185 0.265658 0.265658 0.265658
5956.384766 0.000000 2310.147705 0.000000 0.927685 0.000000 -0.373365 0.219154 0.219154 0.219154
5957.832520 0.000000 2291.240723 0.000000 0.755261 0.000000 -0.655424 0.245798 0.245798 0.245798
5974.025391 0.000000 2301.668945 0.000000 0.932551 0.000000 -0.361038 0.253826 0.253826 0.253826
5955.329590 0.000000 2294.803223 0.000000 0.715410 0.000000 -0.698704 0.297980 0.297980 0.297980
5953.639160 0.000000 2294.581299 0.000000 0.914343 0.000000 -0.404940 0.291866 0.291866 0.291866
5971.616211 0.000000 2305.633789 0.000000 0.769378 0.000000 -0.638794 0.297943 0.297943 0.297943
5952.098633 0.000000 2295.437500 0.000000 0.910650 0.000000 -0.413179 0.292006 0.292006 0.292006
5907.894531 0.000000 2323.631104 0.000000 0.727648 0.000000 -0.685951 0.218087 0.218087 0.218087
5964.251465 0.000000 2322.695557 0.000000 0.615847 0.000000 -0.787866 0.242319 0.242319 0.242319
6330.520996 0.000000 2256.803223 0.000000 0.803671 0.000000 -0.595074 0.237864 0.237864 0.237864
6287.799805 0.000000 2245.954346 0.000000 0.872291 0.000000 -0.488987 0.236045 0.236045 0.236045
6253.942871 0.000000 2337.800293 0.000000 0.726185 0.000000 -0.687499 0.222281 0.222281 0.222281
6231.935547 0.000000 2352.914551 0.000000 0.860187 0.000000 -0.509978 0.225116 0.225116 0.225116
6208.597656 0.000000 2336.326660 0.000000 0.858137 0.000000 -0.513421 0.242796 0.242796 0.242796
6327.867676 0.000000 2306.606689 0.000000 0.816177 0.000000 -0.577802 0.223459 0.223459 0.223459
6314.375488 0.000000 2290.918213 0.000000 0.696288 0.000000 -0.717763 0.313971 0.313971 0.313971
6305.853027 0.000000 2271.139648 0.000000 0.769973 0.000000 -0.638077 0.288243 0.288243 0.288243
6294.889648 0.000000 2308.636963 0.000000 0.763165 0.000000 -0.646204 0.261861 0.261861 0.261861
6313.922852 0.000000 2284.526855 0.000000 0.671702 0.000000 -0.740821 0.271959 0.271959 0.271959
"}
object={
	name="rainforest_sparse_generator_2_4"
	clamp_to_water_level=no
	render_under_water=no
	generated_content=yes
	layer="semidynamic_medium"
	pdxmesh="tree_rainforest_005_mesh"
	count=192
	transform="2533.294678 0.000000 1570.034302 0.000000 0.110381 0.000000 -0.993889 0.326192 0.326192 0.326192
2531.619385 0.000000 1566.984985 0.000000 0.041232 0.000000 -0.999150 0.258122 0.258122 0.258122
2530.377441 0.000000 1568.805298 0.000000 0.015859 0.000000 -0.999874 0.328300 0.328300 0.328300
2531.804199 0.000000 1568.379517 0.000000 0.114146 0.000000 -0.993464 0.326506 0.326506 0.326506
2655.328613 0.000000 1857.821899 0.000000 0.195884 0.000000 -0.980627 0.219275 0.219275 0.219275
2648.422119 0.000000 1837.200195 0.000000 0.054174 0.000000 -0.998532 0.263139 0.263139 0.263139
2656.754395 0.000000 1858.000977 0.000000 0.497640 0.000000 -0.867383 0.259171 0.259171 0.259171
2611.291016 0.000000 1874.408447 0.000000 0.436039 0.000000 -0.899928 0.268699 0.268699 0.268699
2605.674561 0.000000 1876.987793 0.000000 0.295541 0.000000 -0.955330 0.259133 0.259133 0.259133
2657.365723 0.000000 1874.159180 0.000000 0.564194 0.000000 -0.825642 0.236233 0.236233 0.236233
2669.537598 0.000000 1904.374023 0.000000 0.058123 0.000000 -0.998309 0.230469 0.230469 0.230469
2666.414795 0.000000 1883.602539 0.000000 0.056957 0.000000 -0.998377 0.265044 0.265044 0.265044
2667.175049 0.000000 1882.281860 0.000000 0.010079 0.000000 -0.999949 0.265575 0.265575 0.265575
2673.044434 0.000000 1913.064697 0.000000 0.264554 0.000000 -0.964371 0.283035 0.283035 0.283035
2715.932861 0.000000 1827.769653 0.000000 0.038705 0.000000 -0.999251 0.210366 0.210366 0.210366
2749.382568 0.000000 1837.802368 0.000000 0.581902 0.000000 -0.813259 0.225697 0.225697 0.225697
2747.429443 0.000000 1832.812622 0.000000 0.350617 0.000000 -0.936519 0.235995 0.235995 0.235995
2729.963623 0.000000 1871.513672 0.000000 0.481983 0.000000 -0.876181 0.238980 0.238980 0.238980
2701.306641 0.000000 1888.535889 0.000000 0.565687 0.000000 -0.824620 0.260726 0.260726 0.260726
2701.642090 0.000000 1885.635986 0.000000 0.379735 0.000000 -0.925095 0.250019 0.250019 0.250019
2771.881592 0.000000 1902.521851 0.000000 0.175428 0.000000 -0.984492 0.243975 0.243975 0.243975
2582.351074 0.000000 1939.209229 0.000000 0.195519 0.000000 -0.980700 0.252010 0.252010 0.252010
2686.854736 0.000000 1947.052124 0.000000 0.131487 0.000000 -0.991318 0.229844 0.229844 0.229844
2621.252197 0.000000 1987.379517 0.000000 0.359799 0.000000 -0.933030 0.234663 0.234663 0.234663
2620.271729 0.000000 1985.466431 0.000000 0.528407 0.000000 -0.848991 0.253216 0.253216 0.253216
2649.706787 0.000000 1990.592529 0.000000 0.444767 0.000000 -0.895646 0.211128 0.211128 0.211128
2632.173828 0.000000 1999.219482 0.000000 0.481452 0.000000 -0.876472 0.220586 0.220586 0.220586
2630.028809 0.000000 1999.882690 0.000000 0.400243 0.000000 -0.916409 0.244811 0.244811 0.244811
2739.634277 0.000000 1963.196655 0.000000 0.319420 0.000000 -0.947613 0.208708 0.208708 0.208708
2751.510498 0.000000 1945.205444 0.000000 0.357847 0.000000 -0.933780 0.236546 0.236546 0.236546
2734.782471 0.000000 1962.532837 0.000000 0.051270 0.000000 -0.998685 0.236884 0.236884 0.236884
2716.979980 0.000000 1935.747925 0.000000 0.205680 0.000000 -0.978619 0.238633 0.238633 0.238633
2721.679932 0.000000 1976.296509 0.000000 0.069828 0.000000 -0.997559 0.247557 0.247557 0.247557
2727.039307 0.000000 1960.630371 0.000000 0.097853 0.000000 -0.995201 0.255591 0.255591 0.255591
2696.953125 0.000000 1946.399414 0.000000 0.475755 0.000000 -0.879578 0.273148 0.273148 0.273148
2714.692139 0.000000 1932.919678 0.000000 0.133636 0.000000 -0.991031 0.279624 0.279624 0.279624
2748.112793 0.000000 1956.143799 0.000000 0.468537 0.000000 -0.883444 0.253960 0.253960 0.253960
2753.042969 0.000000 1952.969849 0.000000 0.359772 0.000000 -0.933040 0.225367 0.225367 0.225367
2762.780273 0.000000 1955.252563 0.000000 0.103955 0.000000 -0.994582 0.325265 0.325265 0.325265
2759.546631 0.000000 1951.773560 0.000000 0.463113 0.000000 -0.886299 0.252785 0.252785 0.252785
2764.164062 0.000000 1955.978394 0.000000 0.320497 0.000000 -0.947250 0.275910 0.275910 0.275910
2735.339111 0.000000 1977.199097 0.000000 0.151126 0.000000 -0.988514 0.237247 0.237247 0.237247
2694.070312 0.000000 1983.993042 0.000000 0.533819 0.000000 -0.845599 0.220100 0.220100 0.220100
2717.096680 0.000000 1977.349365 0.000000 0.341844 0.000000 -0.939757 0.242936 0.242936 0.242936
2715.119873 0.000000 1978.901733 0.000000 0.529846 0.000000 -0.848094 0.317932 0.317932 0.317932
2745.206055 0.000000 1986.579590 0.000000 0.365680 0.000000 -0.930741 0.268996 0.268996 0.268996
5686.255859 0.000000 2211.650635 0.000000 0.102667 0.000000 -0.994716 0.246595 0.246595 0.246595
5692.271484 0.000000 2211.404053 0.000000 0.385855 0.000000 -0.922559 0.242478 0.242478 0.242478
5684.393066 0.000000 2225.284180 0.000000 0.048848 0.000000 -0.998806 0.251611 0.251611 0.251611
5700.035156 0.000000 2209.110352 0.000000 0.450694 0.000000 -0.892678 0.226385 0.226385 0.226385
5730.177734 0.000000 2229.823730 0.000000 0.078543 0.000000 -0.996911 0.257721 0.257721 0.257721
5696.233887 0.000000 2216.333984 0.000000 0.171930 0.000000 -0.985109 0.256713 0.256713 0.256713
5728.594727 0.000000 2222.529053 0.000000 0.013329 0.000000 -0.999911 0.301524 0.301524 0.301524
5731.595703 0.000000 2223.002441 0.000000 0.051757 0.000000 -0.998660 0.250940 0.250940 0.250940
5733.085938 0.000000 2229.261475 0.000000 0.022239 0.000000 -0.999753 0.284968 0.284968 0.284968
5783.724609 0.000000 2173.535645 0.000000 0.578914 0.000000 -0.815389 0.271623 0.271623 0.271623
5779.362793 0.000000 2230.878418 0.000000 0.228355 0.000000 -0.973578 0.229009 0.229009 0.229009
5768.309570 0.000000 2231.683838 0.000000 0.119247 0.000000 -0.992865 0.266907 0.266907 0.266907
5791.967773 0.000000 2221.090332 0.000000 0.011179 0.000000 -0.999938 0.252639 0.252639 0.252639
5769.912598 0.000000 2231.992676 0.000000 0.581201 0.000000 -0.813760 0.261122 0.261122 0.261122
5766.164062 0.000000 2231.460449 0.000000 0.249585 0.000000 -0.968353 0.255229 0.255229 0.255229
5948.034180 0.000000 2137.745117 0.000000 0.354687 0.000000 -0.934985 0.244050 0.244050 0.244050
5950.675293 0.000000 2141.673096 0.000000 0.548121 0.000000 -0.836399 0.318921 0.318921 0.318921
5947.964844 0.000000 2141.223633 0.000000 0.337406 0.000000 -0.941359 0.294123 0.294123 0.294123
5929.205566 0.000000 2146.378174 0.000000 0.467773 0.000000 -0.883849 0.309116 0.309116 0.309116
5955.051758 0.000000 2139.774414 0.000000 0.513805 0.000000 -0.857907 0.247236 0.247236 0.247236
5954.009277 0.000000 2110.970703 0.000000 0.392087 0.000000 -0.919928 0.279357 0.279357 0.279357
5955.455566 0.000000 2108.603027 0.000000 0.301528 0.000000 -0.953457 0.321735 0.321735 0.321735
6078.854492 0.000000 2116.505371 0.000000 0.222966 0.000000 -0.974826 0.230309 0.230309 0.230309
6073.773926 0.000000 2111.710693 0.000000 0.358738 0.000000 -0.933438 0.256513 0.256513 0.256513
6064.063965 0.000000 2115.717773 0.000000 0.121705 0.000000 -0.992566 0.325120 0.325120 0.325120
6080.712402 0.000000 2108.142822 0.000000 0.523886 0.000000 -0.851789 0.226288 0.226288 0.226288
6007.062500 0.000000 2197.423828 0.000000 0.115213 0.000000 -0.993341 0.217394 0.217394 0.217394
5999.436035 0.000000 2181.127686 0.000000 0.474838 0.000000 -0.880073 0.223093 0.223093 0.223093
5968.905273 0.000000 2200.305664 0.000000 0.158371 0.000000 -0.987380 0.264528 0.264528 0.264528
5982.021484 0.000000 2154.673096 0.000000 0.024318 0.000000 -0.999704 0.289526 0.289526 0.289526
6008.471680 0.000000 2186.862305 0.000000 0.123809 0.000000 -0.992306 0.326004 0.326004 0.326004
6000.891113 0.000000 2174.780273 0.000000 0.553440 0.000000 -0.832889 0.318799 0.318799 0.318799
6013.535645 0.000000 2200.581787 0.000000 0.242052 0.000000 -0.970263 0.242689 0.242689 0.242689
5986.375977 0.000000 2162.848877 0.000000 0.032275 0.000000 -0.999479 0.277009 0.277009 0.277009
6006.403320 0.000000 2166.092041 0.000000 0.451441 0.000000 -0.892301 0.251064 0.251064 0.251064
6004.080566 0.000000 2159.599854 0.000000 0.105368 0.000000 -0.994433 0.284528 0.284528 0.284528
6015.416504 0.000000 2153.631348 0.000000 0.179021 0.000000 -0.983845 0.325156 0.325156 0.325156
6006.998047 0.000000 2163.708496 0.000000 0.581008 0.000000 -0.813898 0.249473 0.249473 0.249473
5952.016113 0.000000 2155.058838 0.000000 0.034694 0.000000 -0.999398 0.329337 0.329337 0.329337
5974.444824 0.000000 2198.104980 0.000000 0.434289 0.000000 -0.900774 0.304640 0.304640 0.304640
5981.938965 0.000000 2162.939697 0.000000 0.022832 0.000000 -0.999739 0.327361 0.327361 0.327361
5975.560547 0.000000 2163.932129 0.000000 0.413332 0.000000 -0.910580 0.310096 0.310096 0.310096
5954.970703 0.000000 2155.854004 0.000000 0.565564 0.000000 -0.824704 0.271210 0.271210 0.271210
6004.241699 0.000000 2158.141113 0.000000 0.277262 0.000000 -0.960794 0.282222 0.282222 0.282222
6006.848633 0.000000 2168.918945 0.000000 0.523694 0.000000 -0.851906 0.267491 0.267491 0.267491
5975.035156 0.000000 2156.843262 0.000000 0.510449 0.000000 -0.859908 0.279496 0.279496 0.279496
5998.671387 0.000000 2179.942871 0.000000 0.168607 0.000000 -0.985683 0.269534 0.269534 0.269534
6010.669922 0.000000 2202.144043 0.000000 0.527901 0.000000 -0.849306 0.285455 0.285455 0.285455
5983.069336 0.000000 2155.789307 0.000000 0.248806 0.000000 -0.968553 0.286456 0.286456 0.286456
6015.974609 0.000000 2177.937744 0.000000 0.471545 0.000000 -0.881842 0.320622 0.320622 0.320622
5980.436523 0.000000 2163.009033 0.000000 0.020572 0.000000 -0.999788 0.327401 0.327401 0.327401
6015.365723 0.000000 2156.371582 0.000000 0.504964 0.000000 -0.863141 0.292085 0.292085 0.292085
5911.890625 0.000000 2221.948242 0.000000 0.501476 0.000000 -0.865172 0.206812 0.206812 0.206812
5942.173828 0.000000 2209.074951 0.000000 0.340011 0.000000 -0.940421 0.208158 0.208158 0.208158
5931.407227 0.000000 2247.118652 0.000000 0.253801 0.000000 -0.967256 0.250760 0.250760 0.250760
5941.097168 0.000000 2204.676025 0.000000 0.260632 0.000000 -0.965438 0.262069 0.262069 0.262069
5918.190918 0.000000 2239.944580 0.000000 0.051215 0.000000 -0.998688 0.328623 0.328623 0.328623
5932.147461 0.000000 2218.526123 0.000000 0.120737 0.000000 -0.992685 0.253431 0.253431 0.253431
5933.641602 0.000000 2219.247559 0.000000 0.554660 0.000000 -0.832077 0.248582 0.248582 0.248582
5926.782227 0.000000 2230.900391 0.000000 0.177861 0.000000 -0.984056 0.326585 0.326585 0.326585
5949.818848 0.000000 2204.255859 0.000000 0.044099 0.000000 -0.999027 0.303049 0.303049 0.303049
5931.818848 0.000000 2240.392578 0.000000 0.336000 0.000000 -0.941862 0.318529 0.318529 0.318529
5950.147949 0.000000 2247.845459 0.000000 0.399255 0.000000 -0.916840 0.322156 0.322156 0.322156
5959.408691 0.000000 2220.728027 0.000000 0.245878 0.000000 -0.969301 0.231358 0.231358 0.231358
6004.657715 0.000000 2202.926758 0.000000 0.253124 0.000000 -0.967434 0.235048 0.235048 0.235048
5958.953125 0.000000 2238.500977 0.000000 0.549619 0.000000 -0.835415 0.236397 0.236397 0.236397
5969.219727 0.000000 2214.349365 0.000000 0.447499 0.000000 -0.894285 0.255457 0.255457 0.255457
6012.271484 0.000000 2211.404053 0.000000 0.449502 0.000000 -0.893279 0.258542 0.258542 0.258542
5964.080078 0.000000 2234.179443 0.000000 0.152899 0.000000 -0.988242 0.234704 0.234704 0.234704
5962.618164 0.000000 2254.333984 0.000000 0.077697 0.000000 -0.996977 0.262232 0.262232 0.262232
5952.371582 0.000000 2207.975342 0.000000 0.542618 0.000000 -0.839980 0.237698 0.237698 0.237698
5964.773926 0.000000 2237.074707 0.000000 0.051361 0.000000 -0.998680 0.263170 0.263170 0.263170
5954.335449 0.000000 2234.120605 0.000000 0.384750 0.000000 -0.923021 0.320828 0.320828 0.320828
5973.555664 0.000000 2206.975586 0.000000 0.164085 0.000000 -0.986446 0.320879 0.320879 0.320879
5973.209473 0.000000 2209.752930 0.000000 0.438498 0.000000 -0.898732 0.300764 0.300764 0.300764
5973.918945 0.000000 2214.397949 0.000000 0.372480 0.000000 -0.928040 0.267021 0.267021 0.267021
5970.425781 0.000000 2251.742676 0.000000 0.265578 0.000000 -0.964089 0.270900 0.270900 0.270900
5990.826172 0.000000 2209.626709 0.000000 0.480778 0.000000 -0.876843 0.320421 0.320421 0.320421
5990.002930 0.000000 2204.552246 0.000000 0.137751 0.000000 -0.990467 0.292532 0.292532 0.292532
5991.522949 0.000000 2206.888672 0.000000 0.250230 0.000000 -0.968186 0.317444 0.317444 0.317444
5999.546387 0.000000 2209.238037 0.000000 0.520519 0.000000 -0.853850 0.304362 0.304362 0.304362
5966.755859 0.000000 2212.338623 0.000000 0.203543 0.000000 -0.979066 0.299365 0.299365 0.299365
5978.696777 0.000000 2222.636719 0.000000 0.512982 0.000000 -0.858399 0.315214 0.315214 0.315214
6048.544434 0.000000 2193.737793 0.000000 0.106655 0.000000 -0.994296 0.215576 0.215576 0.215576
6022.070312 0.000000 2153.446289 0.000000 0.521002 0.000000 -0.853556 0.230592 0.230592 0.230592
6017.042969 0.000000 2178.907227 0.000000 0.185378 0.000000 -0.982667 0.231266 0.231266 0.231266
6018.199219 0.000000 2153.518555 0.000000 0.459792 0.000000 -0.888027 0.237368 0.237368 0.237368
6078.970703 0.000000 2169.062256 0.000000 0.068503 0.000000 -0.997651 0.235458 0.235458 0.235458
6026.618164 0.000000 2159.950684 0.000000 0.030487 0.000000 -0.999535 0.238347 0.238347 0.238347
6065.324707 0.000000 2182.003418 0.000000 0.214819 0.000000 -0.976654 0.324496 0.324496 0.324496
6032.985352 0.000000 2168.582031 0.000000 0.149077 0.000000 -0.988826 0.239796 0.239796 0.239796
6073.864746 0.000000 2174.997559 0.000000 0.345810 0.000000 -0.938304 0.264208 0.264208 0.264208
6023.434570 0.000000 2157.149902 0.000000 0.061245 0.000000 -0.998123 0.312024 0.312024 0.312024
6016.369629 0.000000 2157.308105 0.000000 0.416366 0.000000 -0.909197 0.244636 0.244636 0.244636
6052.813477 0.000000 2163.560547 0.000000 0.298024 0.000000 -0.954558 0.273666 0.273666 0.273666
6062.867676 0.000000 2176.865967 0.000000 0.485175 0.000000 -0.874417 0.254994 0.254994 0.254994
6044.743164 0.000000 2175.019287 0.000000 0.384688 0.000000 -0.923047 0.293394 0.293394 0.293394
6046.348145 0.000000 2176.744629 0.000000 0.007956 0.000000 -0.999968 0.291718 0.291718 0.291718
6086.028809 0.000000 2169.335938 0.000000 0.342049 0.000000 -0.939682 0.221811 0.221811 0.221811
6027.786133 0.000000 2207.943604 0.000000 0.190827 0.000000 -0.981624 0.209535 0.209535 0.209535
6023.434570 0.000000 2213.634277 0.000000 0.053913 0.000000 -0.998546 0.247714 0.247714 0.247714
5880.639160 0.000000 2264.347412 0.000000 0.238903 0.000000 -0.971043 0.225168 0.225168 0.225168
5882.082520 0.000000 2263.599365 0.000000 0.027870 0.000000 -0.999612 0.280323 0.280323 0.280323
5883.590332 0.000000 2262.527588 0.000000 0.290199 0.000000 -0.956966 0.276947 0.276947 0.276947
5913.283691 0.000000 2280.992676 0.000000 0.017622 0.000000 -0.999845 0.223826 0.223826 0.223826
5949.738281 0.000000 2287.624268 0.000000 0.325691 0.000000 -0.945476 0.223188 0.223188 0.223188
5944.742188 0.000000 2289.268799 0.000000 0.330624 0.000000 -0.943762 0.232455 0.232455 0.232455
5924.342285 0.000000 2315.043701 0.000000 0.046657 0.000000 -0.998911 0.250350 0.250350 0.250350
5949.810547 0.000000 2293.028564 0.000000 0.353075 0.000000 -0.935595 0.284978 0.284978 0.284978
5901.188965 0.000000 2267.629639 0.000000 0.385358 0.000000 -0.922767 0.249956 0.249956 0.249956
5925.366211 0.000000 2311.074707 0.000000 0.576640 0.000000 -0.816998 0.259958 0.259958 0.259958
5935.392090 0.000000 2280.655273 0.000000 0.370721 0.000000 -0.928744 0.277761 0.277761 0.277761
5909.918945 0.000000 2270.882324 0.000000 0.577326 0.000000 -0.816514 0.261792 0.261792 0.261792
5920.754395 0.000000 2309.875977 0.000000 0.282902 0.000000 -0.959149 0.324522 0.324522 0.324522
5926.060059 0.000000 2280.199219 0.000000 0.004801 0.000000 -0.999988 0.282577 0.282577 0.282577
5947.526855 0.000000 2292.142090 0.000000 0.552883 0.000000 -0.833259 0.316967 0.316967 0.316967
5908.600586 0.000000 2270.396973 0.000000 0.271629 0.000000 -0.962402 0.265744 0.265744 0.265744
5914.696777 0.000000 2279.121094 0.000000 0.347335 0.000000 -0.937741 0.274286 0.274286 0.274286
5957.729492 0.000000 2301.403809 0.000000 0.451547 0.000000 -0.892247 0.225763 0.225763 0.225763
5953.726074 0.000000 2302.279541 0.000000 0.078176 0.000000 -0.996940 0.250032 0.250032 0.250032
5952.850586 0.000000 2299.939697 0.000000 0.086350 0.000000 -0.996265 0.262135 0.262135 0.262135
5971.070801 0.000000 2302.742920 0.000000 0.460937 0.000000 -0.887433 0.247855 0.247855 0.247855
5952.926758 0.000000 2313.068604 0.000000 0.421651 0.000000 -0.906758 0.292812 0.292812 0.292812
5923.991211 0.000000 2331.585938 0.000000 0.216646 0.000000 -0.976250 0.209082 0.209082 0.209082
5914.245605 0.000000 2334.371338 0.000000 0.515631 0.000000 -0.856811 0.215402 0.215402 0.215402
5917.380859 0.000000 2335.257080 0.000000 0.137292 0.000000 -0.990531 0.255172 0.255172 0.255172
5934.867676 0.000000 2346.319092 0.000000 0.009118 0.000000 -0.999958 0.258466 0.258466 0.258466
5957.464844 0.000000 2320.641357 0.000000 0.383780 0.000000 -0.923425 0.208080 0.208080 0.208080
5954.681152 0.000000 2338.077881 0.000000 0.438307 0.000000 -0.898825 0.243777 0.243777 0.243777
6014.905762 0.000000 2321.669678 0.000000 0.452534 0.000000 -0.891747 0.308759 0.308759 0.308759
6012.055664 0.000000 2321.776611 0.000000 0.447544 0.000000 -0.894262 0.321138 0.321138 0.321138
5965.735352 0.000000 2331.527588 0.000000 0.441000 0.000000 -0.897507 0.288089 0.288089 0.288089
6013.256836 0.000000 2321.224121 0.000000 0.412991 0.000000 -0.910735 0.321869 0.321869 0.321869
6245.085938 0.000000 2003.324097 0.000000 0.509140 0.000000 -0.860684 0.278270 0.278270 0.278270
6244.749023 0.000000 2268.744385 0.000000 0.505669 0.000000 -0.862728 0.304005 0.304005 0.304005
6250.439941 0.000000 2271.598877 0.000000 0.468788 0.000000 -0.883311 0.267009 0.267009 0.267009
6266.093750 0.000000 2289.811768 0.000000 0.300808 0.000000 -0.953685 0.274265 0.274265 0.274265
6239.330566 0.000000 2348.280518 0.000000 0.459897 0.000000 -0.887972 0.234287 0.234287 0.234287
6279.546875 0.000000 2290.679932 0.000000 0.532176 0.000000 -0.846634 0.261186 0.261186 0.261186
6295.838867 0.000000 2290.398682 0.000000 0.559119 0.000000 -0.829087 0.257124 0.257124 0.257124
6315.575684 0.000000 2290.105225 0.000000 0.473831 0.000000 -0.880616 0.318797 0.318797 0.318797
6278.382324 0.000000 2296.375000 0.000000 0.353720 0.000000 -0.935351 0.284969 0.284969 0.284969
6342.057129 0.000000 2304.312744 0.000000 0.058768 0.000000 -0.998272 0.212786 0.212786 0.212786
6284.552734 0.000000 2342.053467 0.000000 0.345824 0.000000 -0.938300 0.208086 0.208086 0.208086
6297.304688 0.000000 2316.853027 0.000000 0.146745 0.000000 -0.989174 0.263381 0.263381 0.263381
6289.688477 0.000000 2344.086182 0.000000 0.141477 0.000000 -0.989942 0.267289 0.267289 0.267289
"}
