﻿object={
	name="savanna_tree_generator_1_0"
	clamp_to_water_level=no
	render_under_water=no
	generated_content=yes
	layer="semidynamic"
	pdxmesh="tree_savanna_001_mesh"
	count=14
	transform="1985.319092 0.000000 1676.935303 0.000000 0.050506 0.000000 0.998724 0.188993 0.188993 0.188993
1999.130981 0.000000 1677.418701 0.000000 0.064295 0.000000 0.997931 0.186649 0.186649 0.186649
1993.866211 0.000000 1677.119263 0.000000 0.068736 0.000000 0.997635 0.196976 0.196976 0.196976
1969.272949 0.000000 1728.156128 0.000000 0.443738 0.000000 0.896157 0.202601 0.202601 0.202601
1965.433838 0.000000 1724.260498 0.000000 0.524870 0.000000 0.851183 0.191230 0.191230 0.191230
1993.203857 0.000000 1730.232056 0.000000 0.025135 0.000000 0.999684 0.187459 0.187459 0.187459
1984.163086 0.000000 1729.277832 0.000000 0.689503 0.000000 0.724283 0.213939 0.213939 0.213939
4818.127930 0.000000 2442.104248 0.000000 0.300596 0.000000 0.953751 0.197213 0.197213 0.197213
4806.330566 0.000000 2440.925049 0.000000 0.660206 0.000000 0.751085 0.195270 0.195270 0.195270
5618.789551 0.000000 2327.946777 0.000000 0.486550 0.000000 0.873653 0.194950 0.194950 0.194950
5620.657715 0.000000 2315.895508 0.000000 0.287650 0.000000 0.957736 0.302290 0.302290 0.302290
5641.641113 0.000000 2312.562744 0.000000 0.527296 0.000000 0.849681 0.190367 0.190367 0.190367
5635.505371 0.000000 2302.801270 0.000000 0.266541 0.000000 0.963824 0.188907 0.188907 0.188907
5649.939453 0.000000 2301.170654 0.000000 0.051376 0.000000 0.998679 0.192635 0.192635 0.192635
"}
object={
	name="savanna_tree_generator_1_1"
	clamp_to_water_level=no
	render_under_water=no
	generated_content=yes
	layer="semidynamic"
	pdxmesh="tree_savanna_002_mesh"
	count=14
	transform="1993.203857 0.000000 1673.747681 0.000000 0.807931 0.000000 0.589277 0.194730 0.194730 0.194730
1998.875732 0.000000 1682.808960 0.000000 0.999824 0.000000 0.018788 0.199826 0.199826 0.199826
1987.505249 0.000000 1681.473022 0.000000 0.870403 0.000000 0.492340 0.195309 0.195309 0.195309
1958.231201 0.000000 1733.060303 0.000000 0.970521 0.000000 0.241016 0.198177 0.198177 0.198177
1972.365479 0.000000 1733.797485 0.000000 0.869449 0.000000 0.494022 0.195163 0.195163 0.195163
1981.658813 0.000000 1729.847046 0.000000 0.857403 0.000000 0.514646 0.208593 0.208593 0.208593
1968.648071 0.000000 1735.006958 0.000000 0.997992 0.000000 0.063341 0.209928 0.209928 0.209928
4800.098633 0.000000 2435.777100 0.000000 0.739189 0.000000 0.673498 0.219742 0.219742 0.219742
4802.356934 0.000000 2433.726318 0.000000 0.883036 0.000000 0.469305 0.232597 0.232597 0.232597
5613.516602 0.000000 2330.592773 0.000000 0.992608 0.000000 0.121362 0.199195 0.199195 0.199195
5623.638184 0.000000 2331.602783 0.000000 0.805814 0.000000 0.592169 0.194937 0.194937 0.194937
5629.512207 0.000000 2315.885498 0.000000 0.994658 0.000000 0.103230 0.199019 0.199019 0.199019
5663.758301 0.000000 2289.534668 0.000000 0.982259 0.000000 0.187530 0.203087 0.203087 0.203087
5658.074219 0.000000 2289.891357 0.000000 0.966491 0.000000 0.256702 0.197570 0.197570 0.197570
"}
object={
	name="savanna_tree_generator_1_2"
	clamp_to_water_level=no
	render_under_water=no
	generated_content=yes
	layer="semidynamic"
	pdxmesh="tree_savanna_003_mesh"
	count=18
	transform="1991.979980 0.000000 1680.182129 0.000000 0.869961 0.000000 -0.493120 0.227477 0.227477 0.227477
1990.215332 0.000000 1686.984497 0.000000 0.982218 0.000000 -0.187744 0.201627 0.201627 0.201627
1995.941895 0.000000 1679.850952 0.000000 0.883963 0.000000 -0.467558 0.229537 0.229537 0.229537
1992.908569 0.000000 1683.946899 0.000000 0.796001 0.000000 -0.605296 0.227984 0.227984 0.227984
1978.544556 0.000000 1734.954346 0.000000 0.736926 0.000000 -0.675974 0.206486 0.206486 0.206486
1967.722534 0.000000 1738.850952 0.000000 0.843898 0.000000 -0.536504 0.204595 0.204595 0.204595
1961.385620 0.000000 1727.449341 0.000000 0.979797 0.000000 -0.199995 0.201609 0.201609 0.201609
1965.311035 0.000000 1728.881104 0.000000 0.923071 0.000000 -0.384630 0.218699 0.218699 0.218699
1985.319092 0.000000 1733.419678 0.000000 0.834334 0.000000 -0.551259 0.227131 0.227131 0.227131
1988.032593 0.000000 1726.142822 0.000000 0.999523 0.000000 -0.030894 0.204236 0.204236 0.204236
4797.507812 0.000000 2422.120605 0.000000 0.944762 0.000000 -0.327756 0.248965 0.248965 0.248965
4804.458496 0.000000 2426.809814 0.000000 0.747968 0.000000 -0.663735 0.204983 0.204983 0.204983
4797.512207 0.000000 2428.854248 0.000000 0.972568 0.000000 -0.232619 0.208640 0.208640 0.208640
4814.873047 0.000000 2436.875244 0.000000 0.919508 0.000000 -0.393070 0.216410 0.216410 0.216410
5619.402344 0.000000 2313.342285 0.000000 0.749928 0.000000 -0.661519 0.349767 0.349767 0.349767
5620.706543 0.000000 2315.690430 0.000000 0.860725 0.000000 -0.509071 0.440803 0.440803 0.440803
5618.318359 0.000000 2316.065186 0.000000 0.922206 0.000000 -0.386700 0.301487 0.301487 0.301487
5615.663086 0.000000 2325.871338 0.000000 0.901015 0.000000 -0.433788 0.232669 0.232669 0.232669
"}
object={
	name="savanna_tree_generator_1_3"
	clamp_to_water_level=no
	render_under_water=no
	generated_content=yes
	layer="semidynamic"
	pdxmesh="tree_savanna_004_mesh"
	count=14
	transform="1995.959473 0.000000 1686.537720 0.000000 0.399852 0.000000 -0.916580 0.210276 0.210276 0.210276
1983.487305 0.000000 1724.758911 0.000000 0.604404 0.000000 -0.796678 0.210731 0.210731 0.210731
1976.551025 0.000000 1727.390381 0.000000 0.257004 0.000000 -0.966410 0.210636 0.210636 0.210636
1964.760498 0.000000 1733.036377 0.000000 0.019791 0.000000 -0.999804 0.238157 0.238157 0.238157
1967.917358 0.000000 1731.313232 0.000000 0.353420 0.000000 -0.935465 0.244794 0.244794 0.244794
1988.763550 0.000000 1730.723511 0.000000 0.369905 0.000000 -0.929070 0.226821 0.226821 0.226821
4800.156738 0.000000 2427.243896 0.000000 0.422091 0.000000 -0.906554 0.296618 0.296618 0.296618
4802.396484 0.000000 2430.690186 0.000000 0.504408 0.000000 -0.863466 0.295839 0.295839 0.295839
4807.914551 0.000000 2430.665039 0.000000 0.656256 0.000000 -0.754538 0.302234 0.302234 0.302234
4804.047852 0.000000 2437.178223 0.000000 0.651346 0.000000 -0.758781 0.229412 0.229412 0.229412
4802.199219 0.000000 2435.940430 0.000000 0.001325 0.000000 -0.999999 0.374938 0.374938 0.374938
5622.816895 0.000000 2317.110107 0.000000 0.566810 0.000000 -0.823849 0.218982 0.218982 0.218982
5612.062988 0.000000 2324.848389 0.000000 0.210188 0.000000 -0.977661 0.223252 0.223252 0.223252
5649.722656 0.000000 2311.552246 0.000000 0.438277 0.000000 -0.898840 0.246187 0.246187 0.246187
"}
