﻿# Fallback party for Armed Forces

military_party = {
	color = { 132 100 53 }
	name = {
		first_valid = {

			# triggered_desc = {
			# 	desc = party_true_peoples_party
			# 	trigger = {
			# 		exists = c:MON
			# 		THIS = c:MON
			# 	}
			# }
			# triggered_desc = {
			# 	desc = party_national_party
			# 	trigger = {
			# 		exists = c:SER
			# 		THIS = c:SER
			# 	}
			# }
			# triggered_desc = {
			# 	desc = party_union_of_rights
			# 	trigger = {
			# 		exists = c:FRA
			# 		THIS = c:FRA
			# 	}
			# }
			# triggered_desc = {
			# 	desc = party_imperial_clan_party
			# 	trigger = {
			# 		exists = c:CHI
			# 		THIS = c:CHI
			# 		has_law = law_type:law_monarchy
			# 	}
			# }
			# triggered_desc = {
			# 	desc = party_russian_assembly
			# 	trigger = {
			# 		exists = c:RUS
			# 		THIS = c:RUS
			# 		has_law = law_type:law_monarchy
			# 	}
			# }
			# triggered_desc = {
			# 	desc = party_russian_all_military_union
			# 	trigger = {
			# 		exists = c:RUS
			# 		THIS = c:RUS
			# 		NOT = { has_law = law_type:law_monarchy }
			# 	}
			# }
			# triggered_desc = {
			# 	desc = party_imperial_way_party
			# 	trigger = {
			# 		exists = c:JAP
			# 		THIS = c:JAP
			# 		has_law = law_type:law_monarchy
			# 	}
			# }
			# triggered_desc = {
			# 	desc = party_patriotic_union
			# 	trigger = {
			# 		country_has_primary_culture = cu:spanish
			# 	}
			# }
			# triggered_desc = {
			# 	desc = party_regressivist_party
			# 	trigger = {
			# 		country_has_primary_culture = cu:brazilian
			# 	}
			# }
			# triggered_desc = {
			# 	desc = party_national_peoples_party
			# 	trigger = {
			# 		OR = {
			# 			country_has_primary_culture = cu:north_german
			# 			country_has_primary_culture = cu:south_german
			# 		}
			# 	}
			# }
			triggered_desc = {
				desc = party_military
				trigger = {
					always = yes
				}
			}
		}
	}
	icon = {
		default = "/gfx/interface/icons/political_parties/military.dds"
	}
	# THIS IS RUN ONLY ONCE AT GAME START
	valid_for_country = {
		always = yes
	}
	available_for_interest_group = {
		owner = {
			country_has_voting_franchise = yes
			ig:ig_armed_forces = {
				is_marginal = no
			}
		}
	}
	
	# Root - IG considering joining
	# scope:number - the number of IGs that would join this party before the root IG
	join_weight = {
		value = {
			value = -5
			desc = "base_value"
		}
		# if = {
		# 	limit = {
		# 		owner = {
		# 			country_is_in_south_america = yes
		# 			any_primary_culture = {
		# 				has_discrimination_trait = hispanophone
		# 			}
		# 		}
		# 	}
		# 	add = {
		# 		value = -10
		# 		desc = "south_america_two_party_system"
		# 	}
		# }
		
		# if = {
		# 	limit = {
		# 		owner = {
		# 			country_is_in_north_america = yes
		# 			OR = {
		# 				country_has_primary_culture = cu:yankee
		# 				country_has_primary_culture = cu:dixie
		# 			}
		# 			has_law = law_type:law_presidential_republic
		# 		}
		# 	}
		# 	add = {
		# 		value = -10
		# 		desc = "usa_two_party_system"
		# 	}
		# }
		if = { # nobody will join if the armed forces don't join
			limit = {
				NOT = { is_interest_group_type = ig_armed_forces }
				OR = {
					NOT = { exists = owner.py:military_party }
					AND = {
						exists = owner.py:military_party
						owner = {
							ig:ig_armed_forces = {
								NOT = { is_member_of_party = owner.py:military_party }
							}
						}
					}
				}
			}
			add = {
				value = -20
				desc = "from_no_army_in_party" # this should probably never actually display in game because the party won't exist
			}
		}
		if = { # a party for powerful soldiers
			limit = {
				is_interest_group_type = ig_armed_forces
				is_powerful = yes
			}
			add = {
				value = 10
				desc = "from_strong_military"
			}
		}
		if = { # jingoists like the military party
			limit = {
				leader = { has_ideology = ideology:ideology_jingoist_leader }
			}
			add = {
				value = 10
				desc = "from_jingoist"
			}
		}
		if = { # conservatives like police
			limit = {
				OR = {
					has_paternalist_ideology = yes
					has_ideology = ideology:ideology_patriotic
				}
				owner = {
					has_technology_researched = law_enforcement
					has_law = law_type:law_no_police
				}
			}
			add = {
				value = 3
				desc = "from_no_police"
			}
		}
		if = { # opposition to peasant levies
			limit = {
				OR = {
					has_ideology = ideology:ideology_jingoist
					has_ideology = ideology:ideology_particularist
					# has_ideology = ideology:ideology_sikh_moralist
					leader = {
						OR = {
							has_ideology = ideology:ideology_fascist
							has_ideology = ideology:ideology_anarchist
							has_ideology = ideology:ideology_pacifist
							has_ideology = ideology:ideology_jingoist_leader
						}
					}
				}
				owner = {
					has_law = law_type:law_peasant_levies
				}
			}
			add = {
				value = 3
				desc = "from_peasant_levies"
			}
		}
		if = { # loyalist-proletarian alliance for tax reform
			limit = {
				OR = {
					has_ideology = ideology:ideology_proletarian
					leader = {
						has_ideology = ideology:ideology_social_democrat
					}
					has_ideology = ideology:ideology_loyalist
				}
				owner = {
					NOR = {
						has_law = law_type:law_proportional_taxation
						has_law = law_type:law_per_capita_based_taxation
						has_law = law_type:law_graduated_taxation
					}
				}
			}
			add = {
				value = 3
				desc = "from_no_graduated_taxation"
			}
		}
		if = { # loyalist-meritocratic alliance for tax reform
			limit = {
				OR = {
					has_ideology = ideology:ideology_meritocratic
					AND = {
						has_ideology = ideology:ideology_loyalist
						owner = {
							NOT = { has_law = law_type:law_graduated_taxation }
						}
					}
				}
				owner = {
					NOR = {
						has_law = law_type:law_proportional_taxation
						has_law = law_type:law_per_capita_based_taxation
					}
				}
			}
			add = {
				value = 3
				desc = "from_no_proportional_or_per_capita_tax"
			}
		}
		# alliance for stricter internal security
		if = {
			limit = {
				OR = {
					has_ideology = ideology:ideology_patriotic
					leader = { has_ideology = ideology:ideology_authoritarian }
				}
				owner = {
					NOR = {
						has_law = law_type:law_no_home_affairs
						has_law = law_type:law_guaranteed_liberties
					}
				}
			}
			add = {
				value = 3
				desc = "from_liberty"
			}
		}
		if = { # conservatives like censorship
			limit = {
				owner = {
					has_technology_researched = law_enforcement
					OR = { 
						has_law = law_type:law_right_of_assembly
						has_law = law_type:law_protected_speech
					}
				}
				OR = {
					has_ideology = ideology:ideology_patriarchal
					has_ideology = ideology:ideology_patriotic
					leader = { has_ideology = ideology:ideology_authoritarian }
				}
			}
			add = {
				value = 3
				desc = "from_no_censorship"
			}
		}
		if = { # authoritarians like militarism
			limit = {
				leader = {
					has_ideology = ideology:ideology_authoritarian
				}
			}
			add = {
				value = 5
				desc = from_authoritarian
			}
		}
		if = {
			limit = {
				is_interest_group_type = ig_armed_forces
				is_powerful = yes
			}
			multiply = {
				value = 2
				desc = "from_archetype_party"
			}
		}
		if = {
			limit = {
				scope:number = 1
				is_powerful = no
				is_marginal = no
			}
			multiply = {
				value = 2
				desc = "from_influential_supporting_member"
			}
		}
		else_if = {
			limit = {
				scope:number = 2
			}
			multiply = {
				value = 0.5
				desc = "from_two_prior_members"
			}
		}
		else_if = {
			limit = {
				scope:number = 3
			}
			multiply = {
				value = 0.25
				desc = "from_three_prior_members"
			}
		}
		else_if = {
			limit = {
				scope:number > 3
			}
			multiply = {
				value = 0.1
				desc = "from_more_than_three_prior_members"
			}
		}
		}
		# if = { # anti-orleanist
		# 	limit = {
		# 		leader = {
		# 			OR = {
		# 				has_ideology = ideology:ideology_bonapartist
		# 				has_ideology = ideology:ideology_legitimist
		# 			}
		# 		}
		# 		owner = {
		# 			any_interest_group = {
		# 				has_party = yes
		# 				party = {
		# 					is_party_type = military_party
		# 				}
		# 				is_powerful = yes
		# 				leader = {
		# 					has_ideology = ideology:ideology_orleanist
		# 				}
		# 			}
		# 		}
		# 	}
		# 	add = {
		# 		value = -5
		# 		desc = "from_french_monarchist_rival"
		# 	}
		# }
		# if = { # anti-legitimist
		# 	limit = {
		# 		leader = {
		# 			OR = {
		# 				has_ideology = ideology:ideology_bonapartist
		# 				has_ideology = ideology:ideology_orleanist
		# 			}
		# 		}
		# 		owner = {
		# 			any_interest_group = {
		# 				has_party = yes
		# 				party = {
		# 					is_party_type = military_party
		# 				}
		# 				is_powerful = yes
		# 				leader = {
		# 					has_ideology = ideology:ideology_legitimist
		# 				}
		# 			}
		# 		}
		# 	}
		# 	add = {
		# 		value = -5
		# 		desc = "from_french_monarchist_rival"
		# 	}
		# }
		# if = { # anti-bonapartist
		# 	limit = {
		# 		leader = {
		# 			OR = {
		# 				has_ideology = ideology:ideology_legitimist
		# 				has_ideology = ideology:ideology_orleanist
		# 			}
		# 		}
		# 		owner = {
		# 			any_interest_group = {
		# 				has_party = yes
		# 				party = {
		# 					is_party_type = military_party
		# 				}
		# 				is_powerful = yes
		# 				leader = {
		# 					has_ideology = ideology:ideology_bonapartist
		# 				}
		# 			}
		# 		}
		# 	}
		# 	add = {
		# 		value = -5
		# 		desc = "from_french_monarchist_rival"
		# 	}
		# }
		if = {
			limit = {

	}
}
