﻿dna_elthora_shadowweaver={
	portrait_info = {
		genes={ 		
			hair_color={ 255 0 255 10 }
			skin_color={ 124 242 244 240 }
			eye_color={ 53 164 53 164 }
			gene_cheek_fat={ "cheek_fat" 111 "cheek_fat" 111 }
			gene_cheek_forward={ "cheek_forward" 157 "cheek_forward" 157 }
			gene_cheek_height={ "cheek_height" 160 "cheek_height" 160 }
			gene_cheek_prom={ "cheek_prom" 157 "cheek_prom" 157 }
			gene_cheek_width={ "cheek_width" 146 "cheek_width" 146 }
			gene_chin_forward={ "chin_forward" 134 "chin_forward" 134 }
			gene_chin_height={ "chin_height" 134 "chin_height" 134 }
			gene_chin_width={ "chin_width" 44 "chin_width" 44 }
			gene_ear_angle={ "ear_angle" 105 "ear_angle" 105 }
			gene_ear_inner_shape={ "ear_inner_shape" 130 "ear_inner_shape" 130 }
			gene_ear_lower_bend={ "ear_lower_bend" 98 "ear_lower_bend" 98 }
			gene_ear_out={ "ear_out" 138 "ear_out" 138 }
			gene_ear_size={ "ear_size" 119 "ear_size" 119 }
			gene_ear_upper_bend={ "ear_upper_bend" 131 "ear_upper_bend" 131 }
			gene_eye_angle={ "eye_angle" 177 "eye_angle" 177 }
			gene_eye_depth={ "eye_depth" 138 "eye_depth" 138 }
			gene_eye_distance={ "eye_distance" 142 "eye_distance" 142 }
			gene_eye_height={ "eye_height" 97 "eye_height" 97 }
			gene_eye_shut={ "eye_shut" 165 "eye_shut" 165 }
			gene_eye_corner_def={ "eye_corner_def" 132 "eye_corner_def" 132 }
			gene_eye_corner_depth_min={ "eye_corner_depth_min" 131 "eye_corner_depth_min" 131 }
			gene_eye_fold_droop={ "eye_fold_droop" 51 "eye_fold_droop" 51 }
			gene_eye_fold_shape={ "eye_fold_shape" 130 "eye_fold_shape" 130 }
			gene_eye_size={ "eye_size" 130 "eye_size" 130 }
			gene_eye_upper_lid_size={ "eye_upper_lid_size" 133 "eye_upper_lid_size" 133 }
			gene_forehead_angle={ "forehead_angle" 99 "forehead_angle" 99 }
			gene_forehead_brow_curve={ "forehead_brow_curve" 117 "forehead_brow_curve" 117 }
			gene_forehead_brow_forward={ "forehead_brow_forward" 151 "forehead_brow_forward" 151 }
			gene_forehead_brow_height={ "forehead_brow_height" 137 "forehead_brow_height" 137 }
			gene_forehead_brow_inner_height={ "forehead_brow_inner_height" 119 "forehead_brow_inner_height" 119 }
			gene_forehead_brow_outer_height={ "forehead_brow_outer_height" 187 "forehead_brow_outer_height" 187 }
			gene_forehead_brow_width={ "forehead_brow_width" 135 "forehead_brow_width" 135 }
			gene_forehead_height={ "forehead_height" 122 "forehead_height" 122 }
			gene_forehead_roundness={ "forehead_roundness" 117 "forehead_roundness" 117 }
			gene_forehead_width={ "forehead_width" 136 "forehead_width" 136 }
			gene_head_height={ "head_height" 170 "head_height" 170 }
			gene_head_profile={ "head_profile" 134 "head_profile" 134 }
			gene_head_top_height={ "head_top_height" 132 "head_top_height" 132 }
			gene_head_top_width={ "head_top_width" 138 "head_top_width" 138 }
			gene_head_width={ "head_width" 165 "head_width" 165 }
			gene_jaw_angle={ "jaw_angle" 141 "jaw_angle" 141 }
			gene_jaw_def={ "jaw_def" 204 "jaw_def" 204 }
			gene_jaw_forward={ "jaw_forward" 126 "jaw_forward" 126 }
			gene_jaw_height={ "jaw_height" 137 "jaw_height" 137 }
			gene_jaw_width={ "jaw_width" 97 "jaw_width" 97 }
			gene_mouth_corner_height={ "mouth_corner_height" 109 "mouth_corner_height" 109 }
			gene_mouth_forward={ "mouth_forward" 146 "mouth_forward" 146 }
			gene_mouth_height={ "mouth_height" 101 "mouth_height" 101 }
			gene_mouth_lower_lip_def={ "mouth_lower_lip_def" 131 "mouth_lower_lip_def" 131 }
			gene_mouth_lower_lip_full={ "mouth_lower_lip_full" 75 "mouth_lower_lip_full" 75 }
			gene_mouth_lower_lip_pads={ "mouth_lower_lip_pads" 122 "mouth_lower_lip_pads" 122 }
			gene_mouth_lower_lip_size={ "mouth_lower_lip_size" 117 "mouth_lower_lip_size" 117 }
			gene_mouth_lower_lip_width={ "mouth_lower_lip_width" 106 "mouth_lower_lip_width" 106 }
			gene_mouth_open={ "mouth_open" 125 "mouth_open" 125 }
			gene_mouth_philtrum_curve={ "mouth_philtrum_curve" 129 "mouth_philtrum_curve" 129 }
			gene_mouth_philtrum_def={ "mouth_philtrum_def" 115 "mouth_philtrum_def" 115 }
			gene_mouth_philtrum_width={ "mouth_philtrum_width" 154 "mouth_philtrum_width" 154 }
			gene_mouth_upper_lip_curve={ "mouth_upper_lip_curve" 169 "mouth_upper_lip_curve" 169 }
			gene_mouth_upper_lip_def={ "mouth_upper_lip_def" 134 "mouth_upper_lip_def" 134 }
			gene_mouth_upper_lip_full={ "mouth_upper_lip_full" 105 "mouth_upper_lip_full" 105 }
			gene_mouth_upper_lip_width={ "mouth_upper_lip_width" 139 "mouth_upper_lip_width" 139 }
			gene_mouth_upper_lip_size={ "mouth_upper_lip_size" 120 "mouth_upper_lip_size" 120 }
			gene_mouth_width={ "mouth_width" 74 "mouth_width" 74 }
			gene_nose_curve={ "nose_curve" 132 "nose_curve" 132 }
			gene_nose_forward={ "nose_forward" 136 "nose_forward" 136 }
			gene_nose_hawk={ "nose_hawk" 73 "nose_hawk" 73 }
			gene_nose_height={ "nose_height" 91 "nose_height" 91 }
			gene_nose_length={ "nose_length" 139 "nose_length" 139 }
			gene_nose_nostril_angle={ "nose_nostril_angle" 114 "nose_nostril_angle" 114 }
			gene_nose_nostril_height={ "nose_nostril_height" 120 "nose_nostril_height" 120 }
			gene_nose_nostril_width={ "nose_nostril_width" 94 "nose_nostril_width" 94 }
			gene_nose_ridge_angle={ "nose_ridge_angle" 122 "nose_ridge_angle" 122 }
			gene_nose_ridge_def={ "nose_ridge_def" 133 "nose_ridge_def" 133 }
			gene_nose_ridge_def_min={ "nose_ridge_def_min" 80 "nose_ridge_def_min" 80 }
			gene_nose_ridge_width={ "nose_ridge_width" 90 "nose_ridge_width" 90 }
			gene_nose_size={ "nose_size" 107 "nose_size" 107 }
			gene_nose_tip_angle={ "nose_tip_angle" 126 "nose_tip_angle" 126 }
			gene_nose_tip_forward={ "nose_tip_forward" 130 "nose_tip_forward" 130 }
			gene_nose_tip_width={ "nose_tip_width" 139 "nose_tip_width" 139 }
			gene_neck_length={ "neck_length" 168 "neck_length" 168 }
			gene_neck_width={ "neck_width" 111 "neck_width" 111 }
			gene_bs_body_type={ "body_fat_head_fat_medium_elf" 112 "body_fat_head_fat_medium_elf" 112 }
			gene_height={ "normal_height" 255 "normal_height" 255 }
			gene_age={ "anb_elf_aging" 104 "anb_elf_aging" 104 }
			gene_old_ears={ "old_ears_elf" 25 "old_ears_elf" 25 }
			gene_old_eyes={ "old_eyes_elf" 18 "old_eyes_elf" 18 }
			gene_old_forehead={ "old_forehead_elf" 10 "old_forehead_elf" 10 }
			gene_old_mouth={ "old_mouth_elf" 0 "old_mouth_elf" 0 }
			gene_old_nose={ "old_nose_elf" 25 "old_nose_elf" 25 }
			gene_complexion={ "complexion_03" 0 "complexion_03" 0 }
			gene_stubble={ "stubble_low" 0 "stubble_low" 0 }
			gene_crowfeet={ "crowfeet_01" 0 "crowfeet_01" 0 }
			gene_face_dacals={ "face_dacal_02" 255 "face_dacal_02" 255 }
			gene_frown={ "frown_03" 21 "frown_03" 21 }
			gene_surprise={ "surprise_02" 6 "surprise_02" 6 }
			gene_eyebrows_shape={ "far_spacing_high_thickness_elf" 173 "far_spacing_high_thickness_elf" 173 }
			gene_eyebrows_fullness={ "layer_2_low_thickness_elf" 102 "layer_2_low_thickness_elf" 102 }
			hairstyles={ "elven_hairstyles" 255 "elven_hairstyles" 150 }
			beards={ "no_beard" 162 "no_beard" 162 }
			mustaches={ "no_mustache" 176 "no_mustache" 176 }
			props={ "female_glasses" 255 "no_prop" 0 }
			eye_accessory={ "normal_eyes" 0 "normal_eyes" 0 }
			eye_lashes_accessory={ "normal_eyelashes" 0 "normal_eyelashes" 0 }
			teeth_accessory={ "normal_teeth" 0 "normal_teeth" 0 }
			POD_NOSschnoz={ "schnozies" 0 "schnozies" 0 }
			skin_color_override={ "default_1" 127 "default_1" 127 }
			race_gene_mer_ears_01={ "mer_ears_02" 250 "mer_ears_02" 250 }
			race_gene_mer_ears_02={ "mer_ears_02" 134 "mer_ears_02" 134 }
			outfits={ "european_outfits_agitator" 255 "european_outfits_agitator" 255 }
			coats={ "no_coat" 0 "no_coat" 0 }
			civilian_coats={ "no_civilian_coat" 255 "no_civilian_coat" 0 }
		}
	}
	enabled=yes
}