﻿### Try to keep tags in alphabetical order if it's not too far gone, please.
#################################################################
## DEFAULT COUNTRY NAMES EXAMPLE CAN BE USED WITH ANY COUNTRY ##
################################################################
## Uncomment when need a dynamic_country_name for any country
#DEFAULT = {
# ACW revolters
# dynamic_country_name = {
#	name = csa_revolt_name
#	adjective = csa_revolt_name_adj
#	
#	is_revolutionary = yes
#	priority = 100
#	
#	trigger = {
#		exists = c:CSA
#		exists = c:USA
#		exists = scope:actor
#		scope:actor ?= {
#			this = c:CSA
#		}
#		c:USA = {
#			has_journal_entry = je_acw_war			
#		}
#	}
#}
#dynamic_country_name = {
#	name = fsa_revolt_name
#	adjective = fsa_revolt_name_adj
#	
#	is_revolutionary = yes
#	priority = 100
#	
#	trigger = {
#		exists = c:FSA
#		exists = scope:actor
#		scope:actor ?= {
#			this = c:FSA
#		}
#		c:USA = {
#			has_journal_entry = je_acw_war			
#		}			
#	}
#}
## San Marco
#dynamic_country_name = {
#	name = rsm_revolt_name
#	adjective = rsm_revolt_name_adj
#	
#	is_revolutionary = yes
#	priority = 100
#	
#	trigger = {
#		scope:actor ?= {
#			c:RSM ?= this
#		}
#	}
#}
### Important ideologies
#dynamic_country_name = {
#	name = generic_revolt_communist
#	adjective = generic_revolt_communist_adj
#	
#	is_revolutionary = yes
#	priority = 0
#	
#	trigger = {
#		exists = scope:actor
#		scope:actor ?= {
#			is_secessionist = no
#			has_law = law_type:law_council_republic
#			any_interest_group = {
#				is_in_government = yes
#				is_strongest_ig_in_government = yes
#				leader = {
#					OR = {
#						has_ideology = ideology:ideology_communist
#						has_ideology = ideology:ideology_anarchist
#						has_ideology = ideology:ideology_vanguardist
#					}
#				}
#			}
#		}
#	}
#}
#dynamic_country_name = {
#	name = generic_revolt_fascist
#	adjective = generic_revolt_fascist_adj
#	
#	is_revolutionary = yes
#	priority = 0
#	
#	trigger = {
#		exists = scope:actor
#		scope:actor ?= {
#			is_secessionist = no
#			NOT = { has_law = law_type:law_council_republic }
#			any_interest_group = {
#				is_in_government = yes
#				is_strongest_ig_in_government = yes
#				leader = {
#					OR = {
#						has_ideology = ideology:ideology_integralist
#						has_ideology = ideology:ideology_fascist
#						has_ideology = ideology:ideology_ethno_nationalist
#					}
#				}
#			}
#		}
#	}
#}
#dynamic_country_name = {
#	name = generic_revolt_radical
#	adjective = generic_revolt_radical_adj
#	
#	is_revolutionary = yes
#	priority = 0
#	
#	trigger = {
#		exists = scope:actor
#		scope:actor ?= {
#			is_secessionist = no
#			NOT = { has_law = law_type:law_council_republic }
#			any_interest_group = {
#				is_in_government = yes
#				is_strongest_ig_in_government = yes
#				leader = {
#					has_ideology = ideology:ideology_radical
#				}
#			}
#		}
#	}
#}
#dynamic_country_name = {
#	name = generic_revolt_bonapartist
#	adjective = generic_revolt_bonapartist_adj
#	
#	is_revolutionary = yes
#	priority = 0
#	
#	trigger = {
#		exists = scope:actor
#		scope:actor ?= {
#			is_secessionist = no
#			has_law = law_type:law_monarchy
#			any_interest_group = {
#				is_in_government = yes
#				is_strongest_ig_in_government = yes
#				leader = {
#					has_ideology = ideology:ideology_bonapartist
#				}
#			}
#		}
#	}
#}
#dynamic_country_name = {
#	name = generic_revolt_legitimist
#	adjective = generic_revolt_legitimist_adj
#	
#	is_revolutionary = yes
#	priority = 0
#	
#	trigger = {
#		exists = scope:actor
#		scope:actor ?= {
#			is_secessionist = no
#			has_law = law_type:law_monarchy
#			any_interest_group = {
#				is_in_government = yes
#				is_strongest_ig_in_government = yes
#				leader = {
#					has_ideology = ideology:ideology_legitimist
#				}
#			}
#		}
#	}
#}
#dynamic_country_name = {
#	name = generic_revolt_orleanist
#	adjective = generic_revolt_orleanist_adj
#	
#	is_revolutionary = yes
#	priority = 0
#	
#	trigger = {
#		exists = scope:actor
#		scope:actor ?= {
#			is_secessionist = no
#			has_law = law_type:law_monarchy
#			any_interest_group = {
#				is_in_government = yes
#				is_strongest_ig_in_government = yes
#				leader = {
#					has_ideology = ideology:ideology_orleanist
#				}
#			}
#		}
#	}
#}
## Powerful interest groups
#dynamic_country_name = {
#	name = generic_revolt_peasant
#	adjective = generic_revolt_peasant_adj
#	
#	is_revolutionary = yes
#	priority = 0
#	
#	trigger = {
#		exists = scope:actor
#		scope:actor ?= {
#			is_secessionist = no
#			ig:ig_rural_folk = {
#				is_in_government = yes
#				is_strongest_ig_in_government = yes
#			}
#		}
#	}
#}
#dynamic_country_name = {
#	name = generic_revolt_landowner
#	adjective = generic_revolt_landowner_adj
#	
#	is_revolutionary = yes
#	priority = 0
#	
#	trigger = {
##		exists = scope:actor
#		scope:actor ?= {
#			is_secessionist = no
#			ig:ig_landowners = {
#				is_in_government = yes
#				is_strongest_ig_in_government = yes
#			}
#		}
#		NOT = {
#			AND = {
#				exists = c:CSA
#				exists = c:USA
#				scope:actor ?= {
#					this = c:CSA
#				}
#				c:USA = {
#					has_journal_entry = je_acw_war
#				}
#			}
#		}
#	}
#}
#dynamic_country_name = {
#	name = generic_revolt_intelligentsia
#	adjective = generic_revolt_intelligentsia_adj
#	
#	is_revolutionary = yes
#	priority = 0
#	
#	trigger = {
#		exists = scope:actor
#		scope:actor ?= {
#			is_secessionist = no
#			any_interest_group = {
#				is_in_government = yes
#				is_strongest_ig_in_government = yes
#				OR = {
#					has_ideology = ideology:ideology_liberal
#					leader = {
#						has_liberal_ideology = yes
#						has_progressive_ideology = yes
#					}
#				}
#			}
#		}
#	}
#}
#dynamic_country_name = {
#	name = generic_revolt_industrialists
#	adjective = generic_revolt_industrialists_adj
#	
#	is_revolutionary = yes
#	priority = 0
#	
#	trigger = {
#		exists = scope:actor
#		scope:actor ?= {
#			is_secessionist = no
#			ig:ig_industrialists = {
#				is_in_government = yes
#				is_strongest_ig_in_government = yes
#			}
#		}
#	}
#}
#dynamic_country_name = {
#	name = generic_revolt_military
#	adjective = generic_revolt_military_adj
#	
#	is_revolutionary = yes
#	priority = 0
#	
#	trigger = {
#		exists = scope:actor
#		scope:actor ?= {
#			is_secessionist = no
#			ig:ig_armed_forces = {
#				is_in_government = yes
#				is_strongest_ig_in_government = yes
#			}
#		}
#	}
#}
#dynamic_country_name = {
#	name = generic_revolt_religious
#	adjective = generic_revolt_religious_adj
#	
#	is_revolutionary = yes
#	priority = 0
#	
#	trigger = {
#		exists = scope:actor
#		scope:actor ?= {
#			is_secessionist = no
#			ig:ig_devout = {
#				is_in_government = yes
#				is_strongest_ig_in_government = yes
#			}
#		}
#	}
#}
#dynamic_country_name = {
#	name = generic_revolt_bourgeoisie
#	adjective = generic_revolt_bourgeoisie_adj
#	
#	is_revolutionary = yes
#	priority = 0
#	
#	trigger = {
#		exists = scope:actor
#		scope:actor ?= {
#			is_secessionist = no
#			ig:ig_petty_bourgeoisie = {
#				is_in_government = yes
#				is_strongest_ig_in_government = yes
#			}
#		}
#	}
#}
#dynamic_country_name = {
#	name = generic_revolt_unions
#	adjective = generic_revolt_unions_adj
#	
#	is_revolutionary = yes
#	priority = 0
#	
#	trigger = {
#		exists = scope:actor
#		scope:actor ?= {
#			is_secessionist = no
#			ig:ig_trade_unions = {
#				is_in_government = yes
#				is_strongest_ig_in_government = yes
#			}
#		}
#	}
#}
## Generic fallbacks
#dynamic_country_name = {
#	name = generic_revolt_1
#	adjective = generic_revolt_1_adj
#	
#	is_revolutionary = yes
#	priority = 0
#	
#	trigger = {
#		exists = scope:actor
#		scope:actor ?= {
#			is_secessionist = no
#		}
#	}
#}
#dynamic_country_name = {
#	name = generic_revolt_2
#	adjective = generic_revolt_2_adj
#	
#	is_revolutionary = yes
#	priority = 0
#	
#	trigger = {
#		exists = scope:actor
#		scope:actor ?= {
#			is_secessionist = no
#		}
#	}
#}
#dynamic_country_name = {
#	name = generic_revolt_3
#	adjective = generic_revolt_3_adj
#	
#	is_revolutionary = yes
#	priority = 0
#	
#	trigger = {
#		exists = scope:actor
#		scope:actor ?= {
#			is_secessionist = no
#		}
#	}
#}
#dynamic_country_name = {
#	name = colonial_admin_zanj
#	adjective = colonial_admin_zanj_adj
#	use_overlord_prefix = yes
#	
#	priority = 100
#	
#	trigger = {
#		exists = scope:actor
#		scope:actor ?= {
#			has_variable = zanj_subject_var
#		}
#	}
#}
#dynamic_country_name = {
#	name = colonial_admin_ethiopia
#	adjective = colonial_admin_ethiopia_adj
#	use_overlord_prefix = yes
#	
#	priority = 100
#	
#	trigger = {
#		exists = scope:actor
#		scope:actor ?= {
#			has_variable = ethiopia_subject_var
#		}
#	}
#}
#dynamic_country_name = {
#	name = colonial_admin_southern_africa
#	adjective = colonial_admin_southern_africa_adj
#	use_overlord_prefix = yes
#	
#	priority = 100
#	
#	trigger = {
#		exists = scope:actor
#		scope:actor ?= {
#			has_variable = southern_africa_subject_var
#		}
#		NOT = {
#			scope:actor ?= {
#				c:SAF ?= this
#				c:GBR ?= this.overlord
#			}
#		}
#	}
#}
#dynamic_country_name = {
#	name = colonial_admin_congo
#	adjective = colonial_admin_congo_adj
#	use_overlord_prefix = yes
#	
#	priority = 100
#	
#	trigger = {
#		exists = scope:actor
#		scope:actor ?= {
#			has_variable = congo_subject_var
#		}
#	}
#}
#dynamic_country_name = {
#	name = colonial_admin_niger
#	adjective = colonial_admin_niger_adj
#	use_overlord_prefix = yes
#	
#	priority = 100
#	
#	trigger = {
#		exists = scope:actor
#		scope:actor ?= {
#			has_variable = niger_subject_var
#		}
#	}
#}
#dynamic_country_name = {
#	name = colonial_admin_senegal
#	adjective = colonial_admin_senegal_adj
#	use_overlord_prefix = yes
#	
#	priority = 100
#	
#	trigger = {
#		exists = scope:actor
#		scope:actor ?= {
#			has_variable = senegal_subject_var
#		}
#	}
#}
}
#SWE = {
#dynamic_country_name = {
#	name = dyn_c_gotland_revolt
#	adjective = dyn_c_gotland_revolt_adj
#	
#	is_revolutionary = yes
#	priority = 0
#	
#	trigger = {
#		exists = scope:actor
#		scope:actor ?= {			
#			capital = { state_region = s:STATE_GOTLAND }
#		}
#	}
#}
}
#ACE = { # Sumatra
#dynamic_country_name = {
#	name = dyn_c_sumatra
#	adjective = dyn_c_sumatra_adj
#	
#	is_main_tag_only = yes
#	priority = 0
#	
#	trigger = {
#		exists = scope:actor
#		scope:actor ?= {
#			owns_entire_state_region = STATE_ACEH
#			owns_entire_state_region = STATE_NORTH_SUMATRA
#			owns_entire_state_region = STATE_SOUTH_SUMATRA
#		}
#	}
#}
}
#AUS = { # Austria
#dynamic_country_name = {
#	name = dyn_c_austria-hungary
#	adjective = dyn_c_austria-hungary_adj
#	
#	is_main_tag_only = yes
#	priority = 0
#	
#	trigger = {
#		exists = scope:actor
#		scope:actor ?= { country_has_primary_culture = cu:hungarian }
#	}
#}
}
##AFS = { #African Free State
#dynamic_country_name = {
#	name = dyn_c_congo_free_state
#	adjective = dyn_c_congo_free_state_adj
#	priority = 0
#	
#	trigger = {
#		scope:actor ?= {
#			capital = { region = sr:region_congo }
#		}
#	}
#}
##dynamic_country_name = {
#	name = dyn_c_oranje_free_state
#	adjective = dyn_c_oranje_free_state_adj
#	priority = 0
#	
#	trigger = {
#		scope:actor ?= {
#			capital = { region = sr:region_southern_africa }
#		}
#	}
#}
###dynamic_country_name = {
#	name = dyn_c_zambezi_free_state
#	adjective = dyn_c_zambezi_free_state_adj
#	priority = 0
#	
#	trigger = {
#		scope:actor ?= {
#			capital = { region = sr:region_zanj }
#		}
#	}
#}
##dynamic_country_name = {
#	name = dyn_c_nile_free_state
#	adjective = dyn_c_nile_free_state_adj
#	priority = 0
#	
#	trigger = {
#		scope:actor ?= {
#			capital = { region = sr:region_nile_basin }
#		}
#	}
#}
##dynamic_country_name = {
#	name = dyn_c_niger_free_state
#	adjective = dyn_c_niger_free_state_adj
#	priority = 0
#	
#	trigger = {
#		scope:actor ?= {
#			OR = {
#				capital = { region = sr:region_niger }
#				capital = { region = sr:region_senegal }
#			}
#		}
#	}
#}
##dynamic_country_name = {
#	name = dyn_c_sahara_free_state
#	adjective = dyn_c_sahara_free_state_adj
#	priority = 0
#	
#	trigger = {
#		scope:actor ?= {
#			capital = { region = sr:region_nile_basin }
#			any_state = {
#				owner = c:AFS
#				is_capital = yes
#				region = sr:region_north_africa
#			}
#		}
#	}
#}
#	
}
#AZB = { # Azerbaijan
#dynamic_country_name = {
#	name = dyn_c_baku_commune
#	adjective = dyn_c_baku_commune_adj
#	
#	is_main_tag_only = yes
#	priority = 0
#	
#	trigger = {
#		coa_def_independent_trigger = yes
#		coa_def_communist_flag_trigger = yes
#		owns_entire_state_region = STATE_AZERBAIJAN
#	}
#}
##dynamic_country_name = {
#	name = dyn_c_centrocaspian_dictatorship
#	adjective = dyn_c_centrocaspian_dictatorship_adj
#	
#	is_main_tag_only = yes
#	priority = 0
#	
#	trigger = {
#		coa_def_dictatorship_flag_trigger = yes
#		
#		coa_def_british_ensign_trigger = yes
#	}
#}
}
#BAV = { # Bavaria
#dynamic_country_name = {
#	name = dyn_c_bavarian_raterepublic
#	adjective = BAV_ADJ
#	
#	is_main_tag_only = no # good name for a communist revolution
#	priority = 0
#	
#	trigger = {
#		coa_def_communist_flag_trigger = yes
#	}
#}
}
#BEL = { # Belgium
#dynamic_country_name = {
#	name = dyn_c_united_belgian_states
#	adjective = BEL_ADJ
#	
#	is_main_tag_only = yes
#	priority = 0
#	
#	trigger = {
#		coa_def_republic_flag_trigger = yes
#		NOT = { coa_def_communist_flag_trigger = yes }
#	}
#}	
}
#BIC = { # East India Company
#dynamic_country_name = {
#	name = dyn_c_british_raj
#	adjective = dyn_c_british_raj_adj
#	use_overlord_prefix = yes
##	is_main_tag_only = yes
#	priority = 0
#	
#	trigger = {
#		exists = c:GBR
#		c:GBR = {
#			has_diplomatic_pact = {
#				who = c:BIC
#				type = puppet
#				is_initiator = yes
#			}
#		}
#	}
#}
#dynamic_country_name = {
#	name = dyn_c_east_india_company
#	adjective = dyn_c_east_india_company_adj
#	use_overlord_prefix = yes
##	is_main_tag_only = yes
#	priority = 0
#	
#	trigger = {
#		coa_def_subject_trigger = yes
#	}
#}
}
#DEI = { # East Indies
#dynamic_country_name = {
#	name = dyn_c_east_indies
#	adjective = dyn_c_east_indies_adj
#	use_overlord_prefix = yes
##	is_main_tag_only = yes
#	priority = 0
#	
#	trigger = {
#		coa_def_subject_trigger = yes
#	}
#}
}
#BLG = { # Bulungan
#dynamic_country_name = { # Kalimantan
#	name = dyn_c_kalimantan
#	adjective = dyn_c_kalimantan_adj
#	
#	is_main_tag_only = yes
#	priority = 0
#	
#	trigger = {
#		exists = scope:actor
#		scope:actor ?= {
#			owns_entire_state_region = STATE_WEST_BORNEO
#			owns_entire_state_region = STATE_EAST_BORNEO
#			owns_entire_state_region = STATE_NORTH_BORNEO
#		}
#	}
#}
}
#BNJ = { # Banjar
#dynamic_country_name = { # Kalimantan
#	name = dyn_c_kalimantan
#	adjective = dyn_c_kalimantan_adj
#	
#	is_main_tag_only = yes
#	priority = 0
#	
#	trigger = {
#		exists = scope:actor
#		scope:actor ?= {
#			owns_entire_state_region = STATE_WEST_BORNEO
#			owns_entire_state_region = STATE_EAST_BORNEO
#			owns_entire_state_region = STATE_NORTH_BORNEO
#		}
#	}
#}
#}
#BRE = { # Bremen
#dynamic_country_name = {
#	name = dyn_c_bremener_raterepublic
#	adjective = BRE_ADJ
#	
#	is_main_tag_only = no # good name for a communist revolution
#	priority = 0
#	
#	trigger = {
#		coa_def_communist_flag_trigger = yes
#	}
#}
#}
#CAM = { # Cambodia
#dynamic_country_name = {
#	name = dyn_c_khmer_empire
#	adjective = dyn_c_khmer_empire_adj
#	
#	is_main_tag_only = yes
#	priority = 0
#	
#	trigger = {
#		coa_def_monarchy_flag_trigger = yes
#		scope:actor ?= {
#			NOT = { is_country_type = unrecognized }
#		}
#	}
#}
#}
#MAD = { # Madagascar
#dynamic_country_name = {
#	name = dyn_c_merina_kingdom
#	adjective = dyn_c_merina_kingdom_adj
#	
#	is_main_tag_only = yes
#	priority = 0
#	
#	trigger = {
#		coa_def_monarchy_flag_trigger = yes
#		scope:actor ?= {
#			is_country_type = unrecognized
#		}
#	}
#}
#}
#CAL = {
#dynamic_country_name = {
#	name = dyn_c_two_californias
#	adjective = dyn_c_two_californias_adj
#	
#	is_main_tag_only = yes
#	priority = 0
#	
#	trigger = {
#		scope:actor ?= {
#			owns_entire_state_region = STATE_CALIFORNIA
#			owns_entire_state_region = STATE_BAJA_CALIFORNIA
#		}
#	}
#}
#
#dynamic_country_name = {
#	name = dyn_c_ussr_californias
#	adjective = dyn_c_ussr_californias_adj
#	
#	is_main_tag_only = yes
#	priority = 10000
#	
#	trigger = {
#		coa_def_communist_flag_trigger = yes
#	}
#}
}
#CHC = { # Chechnya
#dynamic_country_name = {
#	name = dyn_c_chechnya_imamate
#	adjective = dyn_c_chechnya_imamate_adj
#	
#	is_main_tag_only = yes
#	priority = 0
#	
#	trigger = {
#		coa_def_theocracy_flag_trigger = yes
#	}
#}
}
#CHI = { # China
#dynamic_country_name = {
#	name = dyn_c_great_qing
#	adjective = dyn_c_great_qing_adj
#	
#	is_main_tag_only = yes
#	priority = 0
#	
#	trigger = {
#		coa_def_monarchy_flag_trigger = yes
#		scope:actor ?= {
#			country_has_primary_culture = cu:manchu
#		}
#	}
#}
#dynamic_country_name = {
#	name = dyn_c_empire_of_china
#	adjective = dyn_c_empire_of_china_adj
#	
#	is_main_tag_only = yes
#	priority = 0
#	
#	trigger = {
#		scope:actor ?= {
#			NOT = { country_has_primary_culture = cu:manchu }
#			has_law = law_type:law_monarchy
#		}
#	}
#}
#dynamic_country_name = {
#	name = dyn_c_peoples_republic_of_china
#	adjective = CHI_ADJ
#	
#	is_main_tag_only = yes
#	priority = 0
#	
#	trigger = {
#		coa_def_communist_flag_trigger = yes
#	}
#}
}
#CLM = { # Colombia
#dynamic_country_name = {
#	name = dyn_c_new_granada
#	adjective = dyn_c_new_granada_adj
##	is_main_tag_only = yes
#	priority = 0
#	
#	trigger = {
#		OR = {
#			AND = {
#				coa_def_republic_flag_trigger = yes
#				scope:actor ?= {
#					OR = {
#						has_law = law_type:law_legacy_slavery
#						has_law = law_type:law_slave_trade
#					}
#				}
#			}
#			AND = {
#				exists = c:SPA
#				scope:actor ?= {
#					is_subject_of = c:SPA
#				}
#			}
#		}
#	}
#}
}
#COM = { # Comanche
#dynamic_country_name = {
#	name = dyn_c_comancheria
#	adjective = dyn_c_comancheria_adj
#	
#	is_main_tag_only = yes
#	priority = 0
#	
#	trigger = {
#		exists = scope:actor
#		scope:actor ?= {
#			NOT = { is_country_type = decentralized } # if Comanche is recognized, then they get a more formal name
#		}
#	}
#}
}
#CSA = { # Confederate States of America
#dynamic_country_name = {
#	name = dyn_c_confederate_state_of_america
#	adjective = CSA_ADJ
##	priority = 0
#	
#	trigger = {
#		exists = scope:actor
#		scope:actor ?= { 
#			any_scope_state = {
#				count = 1
#			}
#		}
#	}
#}
##dynamic_country_name = {
#	name = dyn_c_confederated_sovereigns_of_america
#	adjective = dyn_c_confederated_sovereigns_of_america_adj
#	
#	is_main_tag_only = yes
#	priority = 0
#	
#	trigger = {
#		coa_def_monarchy_flag_trigger = yes
#	}
#}
##dynamic_country_name = {
#	name = dyn_c_communist_states_of_america
#	adjective = dyn_c_communist_states_of_america_adj
#	
#	is_main_tag_only = yes
#	priority = 0
#	
#	trigger = {
#		coa_def_communist_flag_trigger = yes
#	}
#}	
##dynamic_country_name = {
#	name = dyn_c_confederate_synods_of_america
#	adjective = CSA_ADJ
#	
#	is_main_tag_only = yes
#	priority = 0
#	
#	trigger = {
#		coa_def_theocracy_flag_trigger = yes
#	}
#}
}
#RSM = { # Republic of San Marco
#dynamic_country_name = {
#	name = dyn_c_republic_of_san_marco
#	adjective = RSM_ADJ
#	
#	is_main_tag_only = yes
#	priority = 5
#	
#	trigger = {
#		OR = {
#			has_law = law_type:law_parliamentary_republic
#			has_law = law_type:law_presidential_republic
#			has_law = law_type:law_council_republic
#		}
#	}
#}
}
#FIN = { # Finland
#dynamic_country_name = {
#	name = dyn_c_grand_duchy_of_finland
#	adjective = FIN_ADJ
#	
#	is_main_tag_only = yes
#	priority = 0
#	
#	trigger = {
#		exists = c:RUS
#		c:RUS = {
#			has_diplomatic_pact = {
#				who = c:FIN
#				type = personal_union
#				is_initiator = yes
#			}
#		}
#	}
#}
}
#GBR = { # Great Britain of United Kingdom
#dynamic_country_name = {
#	name = dyn_c_british_republic
#	adjective = GBR_ADJ
#	
#	is_main_tag_only = yes
#	priority = 1
#	
#	trigger = {
#		coa_def_republic_flag_trigger = yes
#		scope:actor ?= { NOT = { capital = { state_region = s:STATE_LANCASHIRE } } }
#	}
#}	
#dynamic_country_name = {
#	name = dyn_c_british_commonwealth
#	adjective = dyn_c_british_commonwealth_adj
#	
#	is_main_tag_only = yes
#	priority = 0
#	
#	trigger = {
#		coa_def_dictatorship_flag_trigger = yes
#	}
#}	
#dynamic_country_name = {
#	name = dyn_c_greater_manchester
#	adjective = dyn_c_greater_manchester_adj
#	is_main_tag_only = yes
#	priority = 10
##	trigger = {
#		exists = scope:actor
#		NOT = { has_game_rule = plausible_formable_nations }
#		scope:actor ?= { 
#			NOT = { has_law = law_type:law_council_republic }
#			exists = capital
#			capital = { state_region = s:STATE_LANCASHIRE } 
#		}
#	}
#}	
#dynamic_country_name = {
#	name = dyn_c_mancunian_commune
#	adjective = dyn_c_mancunian_commune_adj
#	is_main_tag_only = yes
#	priority = 10
##	trigger = {
#		coa_def_communist_flag_trigger = yes
#		scope:actor ?= { 
#			exists = capital
#			capital = { state_region = s:STATE_LANCASHIRE } 
#		}
#	}
#}
}
#GER = { # Germany
#dynamic_country_name = {
#	name = dyn_c_german_empire
#	adjective = GER_ADJ
#	
#	is_main_tag_only = yes
#	priority = 0
#	
#	trigger = {
#		coa_def_monarchy_flag_trigger = yes
#		scope:actor ?= { 
#			country_rank >= rank_value:major_power
#		}
#	}
#}
#
#dynamic_country_name = {
#	name = nihilist_germany_name
#	adjective = nihilist_germany_name_adj
#	
#	is_main_tag_only = yes
#	priority = 10
#	
#	trigger = {
#		coa_def_nihilist_flag_trigger = yes
#	}
#}
}
#HAI = { # Haiti
#dynamic_country_name = {
#	name = dyn_c_saint-domingue
#	adjective = dyn_c_saint-domingue_adj
#	
#	is_main_tag_only = yes
#	priority = 0
#	
#	trigger = {
#		coa_def_french_ensign_trigger = yes
#	}
#}	
}
#HAN = { # Hannover
#dynamic_country_name = {
#	name = dyn_c_hanover
#	adjective = dyn_c_hanover_adj
#	
#	is_main_tag_only = yes
#	priority = 0
#	
#	trigger = {
#		exists = c:GBR
#		c:GBR = {
#			has_diplomatic_pact = {
#				who = c:HAN
#				type = personal_union
#				is_initiator = yes
#			}
#		}
#	}
#}
}
#HBC = { # Hudson Bay Company
#dynamic_country_name = {
#	name = dyn_c_ruperts_land
#	adjective = dyn_c_ruperts_land_adj
##	is_main_tag_only = yes
#	priority = 0
#	
#	trigger = {
#		coa_def_independent_trigger = yes
#	}
#}
}
#HOL = { # Holstein
#dynamic_country_name = {
#	name = dyn_c_schleswig_holstein
#	adjective = dyn_c_schleswig_holstein_adj
#	
#	is_main_tag_only = yes
#	priority = 0
#	
#	trigger = {
#		exists = scope:actor
#		scope:actor ?= {
#			owns_entire_state_region = STATE_SCHLESWIG_HOLSTEIN
#		}
#	}
#}
}
#HRO = { # Herero
#dynamic_country_name = {
#	name = dyn_c_hereroland
#	adjective = dyn_c_hereroland_adj
#	
#	is_main_tag_only = yes
#	priority = 0
#	
#	trigger = {
#		exists = scope:actor
#		scope:actor ?= {
#			NOT = { is_country_type = decentralized } # if Herero is recognized, then they get a more formal name
#		}
#	}
#}
}
#IDN = { # Majapahit
#dynamic_country_name = {
#	name = dyn_c_majapahit
#	adjective = dyn_c_majapahit_adj
#	
#	is_main_tag_only = yes
#	priority = 0
#	
#	trigger = {
#		exists = scope:actor
#		scope:actor ?= {
#			has_law = law_type:law_monarchy
#			ruler = {
#				has_culture = cu:javan
#			}
#		}
#	}
#}
##dynamic_country_name = { # Srivijaya
#	name = dyn_c_srivijaya 
#	adjective = dyn_c_srivijaya_adj
#	
#	is_main_tag_only = yes
#	priority = 0
#	
#	trigger = {
#		exists = scope:actor
#		scope:actor ?= {
#			has_law = law_type:law_monarchy
#			ruler = {
#				OR = {
#					has_culture = cu:malay
#					has_culture = cu:sumatran
#				}
#			}
#		}
#	}
#}
}
#ITA = { # Italy
#dynamic_country_name = { # Papal Italy
#	name = dyn_c_papal_italy
#	adjective = dyn_c_papal_italy_adj
#	
#	is_main_tag_only = yes
#	priority = 5
#	
#	trigger = {
#		exists = scope:actor
#		scope:actor ?= { 
#			has_law = law_type:law_theocracy 
#			was_formed_from = PAP
#		}
#	}
#}
}
#JAP = { # Japan
#dynamic_country_name = {
#	name = dyn_c_japan_shogunate
#	adjective = dyn_c_japan_shogunate_adj
##	is_main_tag_only = yes
#	priority = 10
##	trigger = {
#		exists = scope:actor
#		scope:actor ?= { 
#			has_law = law_type:law_monarchy
#			NOT = { has_variable = meiji_var }
#		}
#	}
#}
#dynamic_country_name = {
#	name = dyn_c_empire_of_japan
#	adjective = dyn_c_empire_of_japan_adj
##	is_main_tag_only = yes
#	priority = 20
##	trigger = {
#		exists = scope:actor
#		scope:actor ?= { 
#			has_law = law_type:law_monarchy
#			has_variable = meiji_var
#		}
#	}
#}
}
#JMB = { # Jambi
#dynamic_country_name = {
#	name = dyn_c_sumatra
#	adjective = dyn_c_sumatra_adj
#	
#	is_main_tag_only = yes
#	priority = 0
#	
#	trigger = {
#		exists = scope:actor
#		scope:actor ?= {
#			owns_entire_state_region = STATE_ACEH
#			owns_entire_state_region = STATE_NORTH_SUMATRA
#			owns_entire_state_region = STATE_SOUTH_SUMATRA
#		}
#	}
#}
}
#KTI = { # Kutai
#dynamic_country_name = { # Kalimantan
#	name = dyn_c_kalimantan
#	adjective = dyn_c_kalimantan_adj
#	
#	is_main_tag_only = yes
#	priority = 0
#	
#	trigger = {
#		exists = scope:actor
#		scope:actor ?= {
#			owns_entire_state_region = STATE_WEST_BORNEO
#			owns_entire_state_region = STATE_EAST_BORNEO
#			owns_entire_state_region = STATE_NORTH_BORNEO
#		}
#	}
#}
}
#KOR = { # Korea
#dynamic_country_name = { # Joseon
#	name = dyn_c_korea_joseon
#	adjective = dyn_c_korea_joseon_adj
#	
#	is_main_tag_only = yes
#	priority = 10
#	
#	trigger = {
#		exists = scope:actor
#		scope:actor ?= { has_law = law_type:law_monarchy }
#	}
#}
#dynamic_country_name = { # Korean Empire
#	name = dyn_c_empire_of_korea
#	adjective = dyn_c_empire_of_korea_adj
#	
#	is_main_tag_only = yes
#	priority = 25
#	
#	trigger = {
#		exists = scope:actor
#		scope:actor ?= { 
#			has_variable = KOR_korean_empire_declared
#			has_law = law_type:law_monarchy 
#		}
#	}
#}
}
#LAN = { # Lanfang
#dynamic_country_name = { # Bo-Ni
#	name = dyn_c_boni
#	adjective = dyn_c_boni_adj
#	
#	is_main_tag_only = yes
#	priority = 0
#	
#	trigger = {
#		exists = scope:actor
#		scope:actor ?= {
#			owns_entire_state_region = STATE_WEST_BORNEO
#			owns_entire_state_region = STATE_EAST_BORNEO
#			owns_entire_state_region = STATE_NORTH_BORNEO
#		}
#	}
#}
}
#LAT = { # Latvia
#dynamic_country_name = {
#	name = dyn_c_courland
#	adjective = dyn_c_courland_adj
#	
#	is_main_tag_only = yes
#	priority = 0
#	
#	trigger = {
#		coa_def_monarchy_flag_trigger = yes
#		coa_def_german_ensign_trigger = yes
#	}
#}
}
#MEX = { # Mexico
#dynamic_country_name = {
#	name = dyn_c_mexican_empire
#	adjective = MEX_ADJ
#	
#	is_main_tag_only = yes
#	priority = 0
#	
#	trigger = {
#		coa_def_monarchy_flag_trigger = yes
#	}
#}
##dynamic_country_name = {
#	name = dyn_c_new_spain
#	adjective = dyn_c_new_spain_adj
#	
#	is_main_tag_only = yes
#	priority = 0
#	
#	trigger = {
#		coa_def_spanish_ensign_trigger = yes
#	}
#}
}
#MKT = { # Miskito
#dynamic_country_name = {
#	name = dyn_c_miskito_kingdom
#	adjective = MKT_ADJ
#	
#	is_main_tag_only = yes
#	priority = 0
#	
#	trigger = {
#		coa_def_monarchy_flag_trigger = yes
#		coa_def_british_ensign_trigger = no
#	}
#}
#dynamic_country_name = {
#	name = dyn_c_mosquito_kingdom
#	adjective = dyn_c_mosquito_kingdom_adj
#	
#	is_main_tag_only = yes
#	priority = 0
#	
#	trigger = {
#		coa_def_monarchy_flag_trigger = yes
#		coa_def_british_ensign_trigger = yes
#	}
#}
}
#MGL = {
#dynamic_country_name = {
#	name = dyn_c_great_mongolian_state
#	adjective = dyn_c_great_mongolian_state_adj
##	is_main_tag_only = yes
#	priority = 0
##	trigger = {
#		coa_def_monarchy_flag_trigger = yes
#	}
#}
##dynamic_country_name = {
#	name = dyn_c_mongolian_peoples_republic
#	adjective = dyn_c_mongolian_peoples_republic_adj
#	is_main_tag_only = yes
#	priority = 0
##	trigger = {
#		coa_def_communist_flag_trigger = yes
#	}
#}
}
##MOL = { # Moldavia
#dynamic_country_name = {
#	name = dyn_c_moldova
#	adjective = dyn_c_moldova_adj
#	
#	is_main_tag_only = yes
#	priority = 0
#	
#	trigger = {
#		coa_def_monarchy_flag_trigger = no
#	}
#}
##dynamic_country_name = {
#	name = dyn_c_united_principalities
#	adjective = dyn_c_united_principalities_adj
#	
#	is_main_tag_only = yes
#	priority = 0
#	
#	trigger = {
#		coa_def_monarchy_flag_trigger = yes
#		scope:actor ?= {
#			has_variable = ROM_united_principality
#		}
#	}
#}
##dynamic_country_name = {
#	name = dyn_c_moldavia_and_wallachia
#	adjective = dyn_c_moldavia_and_wallachia_adj
#	
#	is_main_tag_only = yes
#	priority = 0
#	
#	trigger = {
#		coa_def_monarchy_flag_trigger = no
#		scope:actor ?= {
#			has_variable = ROM_united_principality
#		}
#		c:WAL ?= {
#			is_subject_of = scope:actor
#		}
#	}
#}
}
#NEJ = { # Nejd
#dynamic_country_name = {
#	name = dyn_c_saudi_arabia
#	adjective = dyn_c_saudi_arabia_adj
#	
#	is_main_tag_only = yes
#	priority = 0
#	
#	trigger = {
#		coa_def_monarchy_flag_trigger = yes
#		scope:actor ?= {
#			owns_entire_state_region = STATE_HEDJAZ
#		}
#	}
#}
}
#UNL = { # United Netherlands
#dynamic_country_name = {
#	name = dyn_c_burgundy
#	adjective = dyn_c_burgundy_adj
##	is_main_tag_only = yes
#	priority = 0
#	
#	trigger = {
#		coa_def_absolute_monarchy_flag_trigger = yes
#	}
#}
}
#ONT = { # Ontario
#dynamic_country_name = {
#	name = dyn_c_upper_canada
#	adjective = dyn_c_upper_canada_adj
##	is_main_tag_only = yes
#	priority = 0
#	
#	trigger = {
#		exists = c:GBR
#		c:GBR = {
#			has_diplomatic_pact = {
#				who = c:ONT
#				type = puppet
#				is_initiator = yes
#			}
#		}
#	}
#}
}
#ORA = { # Oranje
#dynamic_country_name = {
#	name = dyn_c_orange_river_sovereignty
#	adjective = dyn_c_orange_river_sovereignty_adj
#	
#	is_main_tag_only = yes
#	priority = 0
#	
#	trigger = {
#		coa_def_british_ensign_trigger = yes
#	}
#}
}
#ORG = { # Oregon
#dynamic_country_name = {
#	name = dyn_c_columbia
#	adjective = dyn_c_columbia_adj
#	
#	is_main_tag_only = yes
#	priority = 0
#	
#	trigger = {
#		exists = scope:actor
#		OR = {
#			AND = {
#				exists = c:GBR
#				c:GBR = {
#					has_diplomatic_pact = {
#						who = scope:actor
#						type = dominion
#						is_initiator = yes
#					}
#				}
#			}
#			AND = {
#				exists = c:HBC
#				scope:actor ?= {
#					is_subject_of = c:HBC
#				}
#			}
#			AND = {
#				exists = c:CAN
#				scope:actor ?= {
#					is_subject_of = c:CAN
#				}
#			}
#		}
#	}
#}
#dynamic_country_name = {
#	name = dyn_c_columbia_district
#	adjective = dyn_c_columbia_adj # no need for a different adjective from the above entry
#	
#	is_main_tag_only = yes
#	priority = 0
#	
#	trigger = {
#		exists = c:GBR
#		c:GBR = {
#			has_diplomatic_pact = {
#				who = c:ORG
#				type = puppet
#				is_initiator = yes
#			}
#		}
#	}
#}
}
#PAN = { # Punjab
#dynamic_country_name = {
#	name = dyn_c_sikh_empire
#	adjective = dyn_c_sikh_empire_adj
#	
#	is_main_tag_only = yes
#	priority = 0
#	
#	trigger = {
#		coa_def_monarchy_flag_trigger = yes
#		scope:actor ?= {
#			has_law = law_type:law_state_religion
#		}
#	}
#}
}
#PAP = { # Papal State, but the base name is technically Rome
#dynamic_country_name = {
#	name = dyn_c_papal_states
#	adjective = dyn_c_papal_states_adj
#	
#	is_main_tag_only = yes
#	priority = 0
#	
#	trigger = {
#		coa_def_theocracy_flag_trigger = yes
#	}
#}
##dynamic_country_name = {
#	name = dyn_c_roman_republic
#	adjective = PAP_ADJ
##	is_main_tag_only = yes
#	priority = 0
#	
#	trigger = {
#		coa_def_republic_flag_trigger = yes
#	}
#}
}
#PON = { # Pontianak
#dynamic_country_name = { # Kalimantan
#	name = dyn_c_kalimantan
#	adjective = dyn_c_kalimantan_adj
#	
#	is_main_tag_only = yes
#	priority = 0
#	
#	trigger = {
#		exists = scope:actor
#		scope:actor ?= {
#			owns_entire_state_region = STATE_WEST_BORNEO
#			owns_entire_state_region = STATE_EAST_BORNEO
#			owns_entire_state_region = STATE_NORTH_BORNEO
#		}
#	}
#}
}
#POR = {
#dynamic_country_name = {
#	name = dyn_c_united_kingdom
#	adjective = dyn_c_united_kingdom_adj
#	
#	is_main_tag_only = yes
#	priority = 0
#	
#	trigger = {
#		coa_def_monarchy_flag_trigger = yes
#		scope:actor ?= {
#			owns_entire_state_region = STATE_RIO_DE_JANEIRO
#			owns_entire_state_region = STATE_SAO_PAULO
#		}
#		NOT = { exists = c:BRZ }
#	}
#}
}
#QUE = { # Quebec
#dynamic_country_name = {
#	name = dyn_c_lower_canada
#	adjective = dyn_c_lower_canada_adj
##	is_main_tag_only = yes
#	priority = 0
#	
#	trigger = {
#		exists = c:GBR
#		c:GBR = {
#			has_diplomatic_pact = {
#				who = c:QUE
#				type = puppet
#				is_initiator = yes
#			}
#		}
#	}
#}
}
#RUS = { # Russia
#dynamic_country_name = {
#	name = dyn_c_soviet_union
#	adjective = dyn_c_soviet_union_adj
#	
#	is_main_tag_only = yes
#	priority = 0
#	
#	trigger = {
#		coa_def_communist_flag_trigger = yes
#	}
#}	
##dynamic_country_name = {
#	name = dyn_c_union_of_new_people
#	adjective = dyn_c_union_of_new_people_adj
#	
#	is_main_tag_only = yes
#	priority = 10
#	
#	trigger = {
#		exists = c:RUS
#		coa_def_nihilist_flag_trigger = yes
#	}
#}	
}
#SAF = { # South Africa
#dynamic_country_name = {
#	name = dyn_c_south_africa
#	adjective = dyn_c_south_africa_adj
##	is_main_tag_only = yes
#	priority = 0
#	
#	trigger = {
#		exists = c:GBR
#		c:GBR = {
#			has_diplomatic_pact = {
#				who = c:SAF
#				type = puppet
#				is_initiator = yes
#			}
#		}
#	}
#}
}
#SAK = { # Siak
#dynamic_country_name = {
#	name = dyn_c_sumatra
#	adjective = dyn_c_sumatra_adj
#	
#	is_main_tag_only = yes
#	priority = 0
#	
#	trigger = {
#		exists = scope:actor
#		scope:actor ?= {
#			owns_entire_state_region = STATE_ACEH
#			owns_entire_state_region = STATE_NORTH_SUMATRA
#			owns_entire_state_region = STATE_SOUTH_SUMATRA
#		}
#	}
#}
}
#SCH = { # Schleswig
#dynamic_country_name = {
#	name = dyn_c_schleswig_holstein
#	adjective = dyn_c_schleswig_holstein_adj
#	
#	is_main_tag_only = yes
#	priority = 0
#	
#	trigger = {
#		exists = scope:actor
#		scope:actor ?= {
#			owns_entire_state_region = STATE_SCHLESWIG_HOLSTEIN
#		}
#	}
#}
}
#SEQ = { # Indian Territory
#dynamic_country_name = {
#	name = dyn_c_sequoyah
#	adjective = dyn_c_sequoyah_adj
##	is_main_tag_only = yes
#	priority = 0
#	
#	trigger = {
#		coa_def_independent_trigger = yes
#	}
#}
}
#SIC = { # Two Sicilies
#dynamic_country_name = {
#	name = dyn_c_sicily
#	adjective = dyn_c_sicily_adj
#	
#	is_main_tag_only = yes
#	priority = 0
#	
#	trigger = {
#		exists = scope:actor
#		scope:actor ?= {
#			owns_entire_state_region = STATE_SICILY
#			NOT = { owns_entire_state_region = STATE_CAMPANIA }
#		}
#	}
#}
#dynamic_country_name = {
#	name = dyn_c_naples
#	adjective = dyn_c_naples_adj
#	
#	is_main_tag_only = yes
#	priority = 0
#	
#	trigger = {
#		exists = scope:actor
#		scope:actor ?= {
#			NOT = { owns_entire_state_region = STATE_SICILY }
#			owns_entire_state_region = STATE_CAMPANIA
#		}
#	}
#}
}
#SMB = { # Sambas
#dynamic_country_name = { # Kalimantan
#	name = dyn_c_kalimantan
#	adjective = dyn_c_kalimantan_adj
#	
#	is_main_tag_only = yes
#	priority = 0
#	
#	trigger = {
#		exists = scope:actor
#		scope:actor ?= {
#			owns_entire_state_region = STATE_WEST_BORNEO
#			owns_entire_state_region = STATE_EAST_BORNEO
#			owns_entire_state_region = STATE_NORTH_BORNEO
#		}
#	}
#}
}
#SRK = { # Surakarta
#dynamic_country_name = {
#	name = dyn_c_mataram
#	adjective = dyn_c_mataram_adj
#	
#	is_main_tag_only = yes
#	priority = 0
#	
#	trigger = {
#		exists = scope:actor
#		scope:actor ?= {
#			owns_entire_state_region = STATE_CENTRAL_JAVA
#		}
#	}
#}
}
#STG = { # Sintang
#dynamic_country_name = { # Kalimantan
#	name = dyn_c_kalimantan
#	adjective = dyn_c_kalimantan_adj
#	
#	is_main_tag_only = yes
#	priority = 0
#	
#	trigger = {
#		exists = scope:actor
#		scope:actor ?= {
#			owns_entire_state_region = STATE_WEST_BORNEO
#			owns_entire_state_region = STATE_EAST_BORNEO
#			owns_entire_state_region = STATE_NORTH_BORNEO
#		}
#	}
#}
}
#TAS = { # Tasmania
#dynamic_country_name = {
#	name = dyn_c_van_diemans_land
#	adjective = dyn_c_van_diemans_land_adj
##	is_main_tag_only = yes
#	priority = 0
#	
#	trigger = {
#		exists = c:GBR
#		c:GBR = {
#			has_diplomatic_pact = {
#				who = c:TAS
#				type = puppet
#				is_initiator = yes
#			}
#		}
#	}
#}
}
#TRN = { # Transvaal
#dynamic_country_name = {
#	name = dyn_c_transvaal_colony
#	adjective = TRN_ADJ
#	
#	is_main_tag_only = yes
#	priority = 0
#	
#	trigger = {
#		coa_def_british_ensign_trigger = yes
#	}
#}
}
#TSW = { # Tswana
#dynamic_country_name = {
#	name = dyn_c_botswana
#	adjective = dyn_c_botswana_adj
#	
#	is_main_tag_only = yes
#	priority = 0
#	
#	trigger = {
#		exists = scope:actor
#		scope:actor ?= {
#			NOT = { is_country_type = decentralized } # if Tswana is recognized, then they get a more formal name
#		}
#		coa_def_british_ensign_trigger = no
#	}
#}
#dynamic_country_name = {
#	name = dyn_c_bechuanaland
#	adjective = dyn_c_bechuanaland_adj
#	
#	is_main_tag_only = yes
#	priority = 0
#	
#	trigger = {
#		coa_def_british_ensign_trigger = yes
#	}
#}
}
#TUN = { # Tunis
#dynamic_country_name = {
#	name = dyn_c_tunisia
#	adjective = TUN_ADJ
#	
#	is_main_tag_only = yes
#	priority = 0
#	
#	trigger = {
#		NOT = { coa_def_monarchy_flag_trigger = yes }
#	}
#}
}
#TUR = { # Turkey
#dynamic_country_name = {
#	name = dyn_c_ottoman_empire
#	adjective = dyn_c_ottoman_empire_adj
#	
#	is_main_tag_only = yes
#	priority = 0
#	
#	trigger = {
#		coa_def_monarchy_flag_trigger = yes
#	}
#}
}
#TUS = { # Tuscany
#dynamic_country_name = {
#	name = dyn_c_etruria
#	adjective = dyn_c_etruria_adj
#	
#	is_main_tag_only = yes
#	priority = 0
#	
#	trigger = {
#		coa_def_monarchy_flag_trigger = yes
#		coa_def_french_ensign_trigger = yes
#	}
#}	
}
#UKR = { # Ukraine
#dynamic_country_name = {
#	name = dyn_c_free_territory
#	adjective = dyn_c_free_territory_adj
#	
#	is_main_tag_only = yes
#	priority = 0
#	
#	trigger = {
#		exists = scope:actor
#		scope:actor ?= {
#			has_law = law_type:law_council_republic
#			has_law = law_type:law_anarchy
#		}
#	}
#}
}
#USA = { # United States of America
#dynamic_country_name = {
#	name = dyn_c_united_states
#	adjective = USA_ADJ
##	is_main_tag_only = yes
#	priority = 0
#	
#	trigger = {
#		coa_def_republic_flag_trigger = yes
#		NOT = { coa_def_communist_flag_trigger = yes }
#		NOT = {	
#			scope:actor ?= {
#				has_law = law_type:law_technocracy
#			}
#		}
#	}
#}
#
#dynamic_country_name = {
#	name = dyn_c_united_senators
#	adjective = USA_ADJ
##	priority = 1
#	
#	trigger = {
#		exists = c:USA
#		c:USA = {			
#			any_scope_state = {
#				state_region = { has_variable = district_of_columbia }
#				count > 0
#			}
#			any_scope_state = {
#				state_region = { NOT = { has_variable = district_of_columbia } }
#				count < 1
#			}			
#		}			
#	}
#}	
##dynamic_country_name = {
#	name = dyn_c_united_state
#	adjective = USA_ADJ
##	priority = 1
#	
#	trigger = {
#		exists = c:USA
#		c:USA = {		
#			any_scope_state = {
#				state_region = { NOT = { has_variable = district_of_columbia } }
#				count = 1
#			}
#		}
#	}
#}
##dynamic_country_name = {
#	name = dyn_c_united_sovereign_archduchy
#	adjective = dyn_c_united_sovereign_archduchy_adj
#	
#	is_main_tag_only = yes
#	priority = 0
#	
#	trigger = {
#		coa_def_monarchy_flag_trigger = yes
#	}
#}
##dynamic_country_name = {
#	name = dyn_c_united_syndicates_of_america
#	adjective = USA_ADJ
#	
#	is_main_tag_only = yes
#	priority = 0
#	
#	trigger = {
#		coa_def_communist_flag_trigger = yes
#	}
#}	
##dynamic_country_name = {
#	name = dyn_c_united_synods_of_america
#	adjective = USA_ADJ
#	
#	is_main_tag_only = yes
#	priority = 0
#	
#	trigger = {
#		coa_def_theocracy_flag_trigger = yes
#	}
#}
#
#dynamic_country_name = {
#	name = dyn_c_north_american_technate
#	adjective = USA_ADJ
#	
#	is_main_tag_only = yes
#	priority = 0
#	
#	trigger = {
#		coa_def_republic_flag_trigger = yes
#		scope:actor ?= {
#			has_law = law_type:law_technocracy
#		}
#	}
#}
}
#SUD = {
#dynamic_country_name = { # Mahist State
#	name = dyn_c_mahdist_state
#	adjective = dyn_c_mahdist_state_adj
#	
#	is_main_tag_only = yes
#	priority = 0
#	
#	trigger = {
#		scope:actor ?= {
#			has_law = law_type:law_theocracy
#		}
#	}
#}
##dynamic_country_name = { # Funj
#	name = dyn_c_funj_state
#	adjective = dyn_c_funj_state_adj
#	
#	is_main_tag_only = yes
#	priority = 0
#	
#	trigger = {
#		scope:actor ?= {
#			has_law = law_type:law_monarchy
#		}
#	}
#}
}
#LKT = { # Lakota
#dynamic_country_name = {
#	name = dyn_c_oceti_sakowin
#	adjective = dyn_c_oceti_sakowin_adj
#	
#	is_main_tag_only = yes
#	priority = 0
#	
#	trigger = {
#		exists = scope:actor
#		NOT = { exists = c:DKT } # Lakota will be considered the united Seven Council Fires if Dakota are not independent
#	}
#}
}
#SCA = { # Scandinavia
#dynamic_country_name = { # Danish Scandinavia
#	name = dyn_c_scandinavia_kalmar_union
#	adjective = SCA_ADJ
#	
#	is_main_tag_only = yes
#	priority = 0
#	
#	trigger = {
#		exists = scope:actor
#		scope:actor ?= {
#			has_law = law_type:law_monarchy
#			was_formed_from = DEN
#		}
#	}
#}
##dynamic_country_name = { # Finnish Scandinavia, somehow
#	name = dyn_c_scandinavia_fennoscandia
#	adjective = FIN_ADJ
#	
#	is_main_tag_only = yes
#	priority = 0
#	
#	trigger = {
#		exists = scope:actor
#		scope:actor ?= {
#			has_law = law_type:law_monarchy
#			ruler = {
#				has_culture = cu:finnish
#			}
#		}
#	}
#}
}
#YOG = { # Yogyakarta
#dynamic_country_name = {
#	name = dyn_c_mataram
#	adjective = dyn_c_mataram_adj
#	
#	is_main_tag_only = yes
#	priority = 0
#	
#	trigger = {
#		exists = scope:actor
#		scope:actor ?= {
#			owns_entire_state_region = STATE_CENTRAL_JAVA
#		}
#	}
#}
}
#ZAI = { # Azal (Zaidi State)
#dynamic_country_name = { # Zaidi
#	name = dyn_c_qasimid_state
#	adjective = dyn_c_qasimid_state_adj
#	
#	is_main_tag_only = yes
#	priority = 0
#	
#	trigger = {
#		exists = scope:actor
#		scope:actor ?= {
#			OR = {
#				has_law = law_type:law_monarchy
#				has_law = law_type:law_theocracy
#			}
#		}
#	}
#}
}
#LOU = { # Louisiana
#dynamic_country_name = {
#	name = dyn_c_louisiana
#	adjective = LOU_ADJ
##	is_main_tag_only = yes
#	priority = 0
#	
#	trigger = {
#		coa_def_republic_flag_trigger = yes
#		NOT = { coa_def_communist_flag_trigger = yes }
#	}
#}
##dynamic_country_name = {
#	name = dyn_c_new_france
#	adjective = dyn_c_new_france_adj
#	
#	is_main_tag_only = yes
#	priority = 10
#	
#	trigger = {
#		coa_def_monarchy_flag_trigger = yes
#	}
#}
##dynamic_country_name = {
#	name = dyn_c_louisiana_commune
#	adjective = LOU_ADJ
#	
#	is_main_tag_only = yes
#	priority = 10
#	
#	trigger = {
#		coa_def_communist_flag_trigger = yes
#	}
#}	
##dynamic_country_name = {
#	name = dyn_c_archbishopric_of_st_louis
#	adjective = LOU_ADJ
#	
#	is_main_tag_only = yes
#	priority = 10
#	
#	trigger = {
#		coa_def_theocracy_flag_trigger = yes
#	}
#}
}
#WLS = {
#dynamic_country_name = {
#	name = dyn_c_welsh_patagonia
#	adjective = dyn_c_welsh_patagonia_adj
##	is_main_tag_only = yes
#	priority = 0
#	
#	trigger = {
#		exists = scope:actor
#		scope:actor ?= {
#			capital = { state_region = s:STATE_PATAGONIA }
#		}
#	}
#}
}
#PNS = {
#dynamic_country_name = {
#	name = dyn_c_united_communes_pns
#	adjective = PNS_ADJ
##	is_main_tag_only = yes
#	priority = 0
#	
#	trigger = {
#		coa_def_communist_flag_trigger = yes
#	}
#}
}
#KAZ = {
#dynamic_country_name = { # Republic
#	name = dyn_c_kazakh_republic
#	adjective = dyn_c_kazakh_republic_adj
#	
#	is_main_tag_only = yes
#	priority = 0
#	
#	trigger = {
#		exists = scope:actor
#		scope:actor ?= {
#			NOT = {
#				has_law = law_type:law_monarchy
#			}
#		}
#		coa_def_independent_trigger = yes
#	}
#}
#dynamic_country_name = { # Khanate
#	name = dyn_c_kazakh_khanate
#	adjective = dyn_c_kazakh_khanate_adj
#	
#	is_main_tag_only = yes
#	priority = 0
#	
#	trigger = {
#		exists = scope:actor
#		scope:actor ?= {
#			has_law = law_type:law_monarchy
#		}
#		coa_def_independent_trigger = yes
#	}
#}
#dynamic_country_name = { # Autonomy
#	name = dyn_c_kazakh_alash_autonomy
#	adjective = dyn_c_kazakh_alash_autonomy_adj
#	
#	is_main_tag_only = yes
#	priority = 0
#	
#	trigger = {
#		exists = scope:actor
#		AND = {
#			exists = c:RUS
#			c:RUS = {
#				NOR = {
#					has_law = law_type:law_monarchy
#					has_law = law_type:law_council_republic
#				}
#				OR = {
#					has_diplomatic_pact = {
#						who = scope:actor
#						type = puppet
#						is_initiator = yes
#					}
#					has_diplomatic_pact = {
#						who = scope:actor
#						type = dominion
#						is_initiator = yes
#					}
#					has_diplomatic_pact = {
#						who = scope:actor
#						type = protectorate
#						is_initiator = yes
#					}
#				}
#			}
#		}
#	}
#}
}
#SAV = {
#dynamic_country_name = {
#	name = dyn_c_lyon
#	adjective = SAV_ADJ
#	
#	is_main_tag_only = no
#	priority = 1
#	
#	trigger = {
#		scope:actor ?= { 
#			capital = { 
#				state_region = s:STATE_RHONE 
#			}
#		}
#	}
#}
#dynamic_country_name = {
#	name = dyn_c_romandy
#	adjective = SAV_ADJ
#	
#	is_main_tag_only = no
#	priority = 1
#	
#	trigger = {
#		scope:actor ?= { 
#			capital = { 
#				state_region = s:STATE_WEST_SWITZERLAND
#			}
#		}
#	}
#}
}
#ALD = {
#dynamic_country_name = {
#	name = dyn_c_regency_of_algiers
#	adjective = dyn_c_regency_of_algiers_adj
##	is_main_tag_only = yes
#	priority = 10
#	
#	trigger = {
#		exists = scope:actor
#		scope:actor ?= {
#			has_law = law_type:law_monarchy
#			has_variable = algeria_deylik_restored
#		}
#	}
#}
#dynamic_country_name = {
#	name = dyn_c_barbary
#	adjective = dyn_c_barbary_adj
##	is_main_tag_only = yes
#	priority = 10
#	
#	trigger = {
#		exists = scope:actor
#		scope:actor ?= {
#			has_variable = algeria_barbary_restored
#		}
#	}
#}
#dynamic_country_name = {
#	name = dyn_c_maghreb
#	adjective = dyn_c_maghreb_adj
##	is_main_tag_only = yes
#	priority = 10
#	
#	trigger = {
#		exists = scope:actor
#		scope:actor ?= {
#			has_variable = algeria_maghreb_restored
#		}
#	}
#}
}
#FRA = {
#dynamic_country_name = {
#	name = dyn_c_french_empire
#	adjective = dyn_c_french_empire_adj
##	is_main_tag_only = yes
#	priority = 10
#	
#	trigger = {
#		exists = scope:actor
#		scope:actor ?= {
#			has_law = law_type:law_monarchy
#			has_variable = bonapartist_restoration_var
#			has_variable = one_true_french_dynasty
#		}
#	}
#}
#dynamic_country_name = {
#	name = dyn_c_french_republic
#	adjective = dyn_c_french_republic_adj
##	is_main_tag_only = yes
#	priority = 10
#	
#	trigger = {
#		exists = scope:actor
#		scope:actor ?= {
#			OR = {
#				has_law = law_type:law_parliamentary_republic
#				has_law = law_type:law_presidential_republic
#			}
#		}
#	}
#}
#dynamic_country_name = {
#	name = dyn_c_french_kingdom
#	adjective = dyn_c_french_kingdom_adj
##	is_main_tag_only = yes
#	priority = 10
#	
#	trigger = {
#		exists = scope:actor
#		scope:actor ?= {
#			has_law = law_type:law_monarchy
#			OR = {
#				has_variable = orleanist_restoration_var
#				has_variable = legitimist_restoration_var
#			}
#			has_variable = one_true_french_dynasty
#		}
#	}
#}
#dynamic_country_name = {
#	name = dyn_c_french_commune
#	adjective = dyn_c_french_commune_adj
##	is_main_tag_only = yes
#	priority = 10
#	
#	trigger = {
#		exists = scope:actor
#		scope:actor ?= {
#			has_law = law_type:law_council_republic
#		}
#	}
#}
}
#HRE = {
#dynamic_country_name = {
#	name = dyn_c_hre_monarchy
#	adjective = dyn_c_hre_monarchy_adj
#	is_main_tag_only = yes
#	priority = 10
#	
#	trigger = {
#		exists = scope:actor
#		scope:actor ?= {
#			OR = {
#				has_law = law_type:law_monarchy
#				has_law = law_type:law_theocracy
#			}
#		}
#	}
#}
#dynamic_country_name = {
#	name = dyn_c_hre_republic
#	adjective = dyn_c_hre_republic_adj
#	is_main_tag_only = yes
#	priority = 10
#	
#	trigger = {
#		exists = scope:actor
#		scope:actor ?= {
#			OR = {
#				has_law = law_type:law_parliamentary_republic
#				has_law = law_type:law_presidential_republic
#			}
#		}
#	}
#}
#dynamic_country_name = {
#	name = dyn_c_hre_communist
#	adjective = dyn_c_hre_communist_adj
##	is_main_tag_only = yes
#	priority = 10
#	
#	trigger = {
#		exists = scope:actor
#		scope:actor ?= {
#			has_law = law_type:law_council_republic
#		}
#	}
#}
#
#dynamic_country_name = {
#	name = dyn_c_hre_technate
#	adjective = dyn_c_hre_technate_adj
#	
#	is_main_tag_only = yes
#	priority = 20
#	
#	trigger = {
#		scope:actor ?= {
#			OR = {
#				has_law = law_type:law_parliamentary_republic
#				has_law = law_type:law_presidential_republic
#			}
#			has_law = law_type:law_technocracy
#		}
#	}
#}
#
#dynamic_country_name = {
#	name = dyn_c_hre_fascist
#	adjective = dyn_c_hre_fascist_adj
#	
#	is_main_tag_only = yes
#	priority = 30
#	
#	trigger = {
#		scope:actor ?= {
#			coa_fascist_trigger = yes
#			NOT = {
#				has_law = law_type:law_council_republic
#			}
#		}
#	}
#}
#}
#CTR = { # Santa Catarina
#dynamic_country_name = {
#	name = dyn_c_catharinense_republic
#	adjective = CTR_ADJ
#	
#	is_main_tag_only = yes
#	priority = 0
#	
#	trigger = {
#		coa_def_republic_flag_trigger = yes
#	}
#}	
#}
#PNI = { # Piratini
#dynamic_country_name = {
#	name = dyn_c_riograndense_republic
#	adjective = dyn_c_riograndense_republic_adj
#	
#	is_main_tag_only = yes
#	priority = 0
#	
#	trigger = {
#		coa_def_republic_flag_trigger = yes
#	}
#}	
#}
#FND = { # Federation
#dynamic_country_name = {
#	name = dyn_c_american_federation
#	adjective = dyn_c_american_federation_adj
#	
#	is_main_tag_only = yes
#	priority = 5
#	
#	trigger = {
#		scope:actor ?= {
#			OR = {
#				any_scope_state = {
#					NOT = { has_state_trait = state_trait_andes }
#					percent > 0.4
#				}
#				any_scope_state = {
#					is_incorporated = yes
#					OR = {
#						state_is_in_north_america = yes
#						state_is_in_central_america = yes
#					}
#					count > 1
#				}
#			}
#		}
#	}
#}
##dynamic_country_name = {
#	name = dyn_c_united_provinces_of_south_america
#	adjective = dyn_c_united_provinces_of_south_america_adj
#	
#	is_main_tag_only = yes
#	priority = 15
#	
#	trigger = {
#		scope:actor ?= {
#			OR = {
#				was_formed_from = PLT
#				was_formed_from = ARG
#				was_formed_from = URU
#				was_formed_from = PRG
#			}
#		}
#	}
#}
#
#dynamic_country_name = {
#	name = dyn_c_united_provinces_of_america
#	adjective = dyn_c_united_provinces_of_america_adj
#	
#	is_main_tag_only = yes
#	priority = 25
#	
#	trigger = {
#		scope:actor ?= {
#			OR = {
#				was_formed_from = PLT
#				was_formed_from = ARG
#				was_formed_from = URU
#				was_formed_from = PRG
#			}
#			any_scope_state = {
#				is_incorporated = yes
#				OR = {
#					state_is_in_north_america = yes
#					state_is_in_central_america = yes
#				}
#				count > 1
#			}
#		}
#	}
#}
#}
#WAL = { # Wallachia
#dynamic_country_name = {
#	name = dyn_c_united_principalities
#	adjective = dyn_c_united_principalities_adj
#	
#	is_main_tag_only = yes
#	priority = 0
#	
#	trigger = {
#		coa_def_monarchy_flag_trigger = yes
#		scope:actor ?= {
#			has_variable = ROM_united_principality
#		}
#	}
#}
##dynamic_country_name = {
#	name = dyn_c_wallachia_and_moldavia
#	adjective = dyn_c_wallachia_and_moldavia_adj
#	
#	is_main_tag_only = yes
#	priority = 0
#	
#	trigger = {
#		coa_def_monarchy_flag_trigger = no
#		scope:actor ?= {
#			has_variable = ROM_united_principality
#		}
#		c:MOL ?= {
#			is_subject_of = scope:actor
#		}
#	}
#}
#}
#PLC = {
#dynamic_country_name = {
#	name = dyn_c_commonwealth
#	adjective = dyn_c_commonwealth_adj
#	
#	is_main_tag_only = yes
#	priority = 0
#	
#	trigger = {
#		scope:actor ?= { has_variable = greater_commonwealth_var }
#	}
#}
}
#TIS = { # Turtle Island
#dynamic_country_name = {
#	name = dyn_c_great_turtle
#	adjective = dyn_c_great_turtle_adj
#	
#	is_main_tag_only = yes
#	priority = 0
#	
#	trigger = {
#		scope:actor ?= {
#			was_formed_from = IRO
#		}
#	}
#}
}
#ARG = { # Argentina
#dynamic_country_name = {
#	name = dyn_c_argentine_confederation
#	adjective = ARG_ADJ
#	
#	is_main_tag_only = yes
#	priority = 0
#	
#	trigger = {
#		coa_def_dictatorship_flag_trigger = yes
##		scope:actor ?= {
#			any_scope_character = {
#				is_ruler = yes
#				has_template = ARG_Juan_Manuel_de_Rosas
#			}
#		}
#	}
#}
##dynamic_country_name = { # Rio de la Plata also has this dynamic name
#	name = dyn_c_river_plate
#	adjective = dyn_c_river_plate_adj
##	is_main_tag_only = yes
#	priority = 1
#	
#	trigger = {
#		exists = c:GBR
#		scope:actor ?= {
#			is_subject_of = c:GBR
#		}
#	}
#}
##dynamic_country_name = {
#	name = dyn_c_argentina_legionaria
#	adjective = ARG_ADJ
#	
#	is_main_tag_only = yes
#	priority = 30
#	
#	trigger = {
#		scope:actor ?= {
#			coa_fascist_trigger = yes
#			NOT = {
#				has_law = law_type:law_council_republic
#			}
#		}
#	}
#}
}
#ECU = {
#dynamic_country_name = {
#	name = dyn_c_quito
#	adjective = dyn_c_quito_adj
##	is_main_tag_only = yes
#	priority = 0
#	
#	trigger = {
#		exists = c:SPA
#		scope:actor ?= {
#			is_subject_of = c:SPA
#		}
#	}
#}
}
#URU = {
#dynamic_country_name = {
#	name = dyn_c_cisplatina
#	adjective = dyn_c_cisplatina_adj
##	is_main_tag_only = yes
#	priority = 0
#	
#	trigger = {
#		OR = {
#			AND = {
#				exists = c:BRZ
#				scope:actor ?= {
#					is_subject_of = c:BRZ
#				}
#			}
#			AND = {
#				exists = c:POR
#				scope:actor ?= {
#					is_subject_of = c:POR
#				}
#			}
#		}
#	}
#}
###dynamic_country_name = {
#	name = dyn_c_banda_oriental
#	adjective = dyn_c_banda_oriental_adj
##	is_main_tag_only = yes
#	priority = 0
#	
#	trigger = {
#		exists = c:SPA
#		scope:actor ?= {
#			is_subject_of = c:SPA
#		}
#	}
#}
}
#BOL = {
#dynamic_country_name = {
#	name = dyn_c_charcas
#	adjective = dyn_c_charcas_adj
##	is_main_tag_only = yes
#	priority = 1
#	
#	trigger = {
#		exists = c:SPA
#		scope:actor ?= {
#			is_direct_subject_of = c:SPA
#		}
#	}
#}
#dynamic_country_name = {
#	name = dyn_c_upper_peru
#	adjective = dyn_c_upper_peru_adj
##	is_main_tag_only = yes
#	priority = 0
#	
#	trigger = {
#		exists = c:SPA
#		exists = c:PEU
#		c:PEU = {
#			is_direct_subject_of = c:SPA
#		}
#		scope:actor ?= {
#			is_direct_subject_of = c:PEU
#		}
#	}
#}
#dynamic_country_name = {
#	name = dyn_c_plurinational_bolivia
#	adjective = BOL_ADJ
##	is_main_tag_only = yes
#	priority = 0
#	
#	trigger = {
#		exists = scope:actor
#		scope:actor ?= {
#			has_law = law_type:law_multicultural
#		}
#		coa_def_republic_flag_trigger = yes
#		NOT = { coa_def_communist_flag_trigger = yes }
#	}
#}
}
#VNZ = {
#dynamic_country_name = {
#	name = dyn_c_klein_venedig
#	adjective = dyn_c_klein_venedig_adj
##	is_main_tag_only = yes
#	priority = 0
#	
#	trigger = {
#		OR = {
#			AND = {
#				exists = c:HRE
#				scope:actor ?= {
#					is_subject_of = c:HRE
#				}
#			}
#			AND = {
#				exists = c:GER
#				scope:actor ?= {
#					is_subject_of = c:GER
#				}
#			}
#			AND = {
#				exists = c:AUS
#				scope:actor ?= {
#					is_subject_of = c:AUS
#				}
#			}
#		}
#	}
#}
}
#PLT = {
#dynamic_country_name = { # Argentina also has this dynamic name
#	name = dyn_c_river_plate
#	adjective = dyn_c_river_plate_adj
##	is_main_tag_only = yes
#	priority = 1
#	
#	trigger = {
#		exists = c:GBR
#		scope:actor ?= {
#			is_subject_of = c:GBR
#		}
#	}
#}
##dynamic_country_name = {
#	name = dyn_c_sudamerica_legionaria
#	adjective = dyn_c_sudamerica_legionaria_adj
##	is_main_tag_only = yes
#	priority = 0
#	
#	trigger = {
#		exists = scope:actor
#		scope:actor ?= {
#			was_formed_from = ARG
#			coa_fascist_trigger = yes
#			NOT = {
#				has_law = law_type:law_council_republic
#			}
#		}
#	}
#}	
#dynamic_country_name = {
#	name = dyn_c_confederacion_sudamericana
#	adjective = dyn_c_confederacion_sudamericana_adj
#	
#	is_main_tag_only = yes
#	priority = 0
#	
#	trigger = {
#		coa_def_dictatorship_flag_trigger = yes
#		exists = scope:actor
#		scope:actor ?= {
#			was_formed_from = ARG
#		}
#	}
#}
}
