﻿base_impose_law_weight= {
	value = 0.01
	
	# Impose law is a fairly hostile act, AIs should use it mostly when angry at a subject
	if = {
		limit = {	
			has_attitude = {
				who = scope:target_country
				attitude = domineering
			}						
		}
		multiply = 0.5
	}
	
	# Non ideological unions make less use of this
	if = {
		limit = {
			NOT = { power_bloc ?= { has_identity = identity:identity_ideological_union } }
		}
		multiply = 0.5
	}
	
	# Less likely to do this to subjects unless LD is low
	if = {
		limit = {
			scope:target_country = {
				is_subject = yes
				liberty_desire > 25
			}
		}
		multiply = 0.5
	}	

	# Shouldn't care much about meddling in really tiny countries
	if = {
		limit = {
			scope:target_country = {
				gdp < 100000
			}
		}
		multiply = 0.25
	}
	else_if = {
		limit = {
			scope:target_country = {
				gdp < 250000
			}
		}
		multiply = 0.5
	}
	else_if = {
		limit = {
			scope:target_country = {
				gdp < 500000
			}
		}
		multiply = 0.75
	}	
	
	# Impact of AI strategies
	if = {
		limit = {
			has_strategy = ai_strategy_world_revolution
		}
		multiply = 5
	}
	else_if = {
		limit = {
			OR = {
				has_strategy = ai_strategy_anti_imperialism
				has_strategy = ai_strategy_maintain_power_balance
			}
		}
		multiply = 2
	}
	else_if = {
		limit = {
			OR = {
				has_strategy = ai_strategy_armed_isolationism
				has_strategy = ai_strategy_socialism_in_one_country
			}
		}
		multiply = 0.5
	}			
}