﻿object={
	name="vulture_01"
	clamp_to_water_level=no
	render_under_water=no
	generated_content=no
	layer="environmental_effects"
	entity="vulture_01_frame_entity"
	count=2
	transform="5605.455078 0.000000 1120.057861 0.000000 0.000000 0.000000 1.000000 1.000000 1.000000 1.000000
1192.735107 0.000000 2431.130615 0.000000 0.000000 0.000000 1.000000 1.000000 1.000000 1.000000
"}
