﻿debug_success = {
	add_treasury = 50000
}
debug_fail = {
	add_treasury = -50000
}

assert = {
	assert_if = {
		limit = { always = yes }
	}
}


set_all_colony = {
	every_state = {
		limit = {
			OR = {
				# region = sr:region_north_africa
				# region = sr:region_southern_africa
				# region = sr:region_zanj
				# region = sr:region_senegal
				# region = sr:region_niger
				# region = sr:region_nile_basin
				# region = sr:region_congo
			}
		
		}
		set_state_owner = c:A03
		set_state_type = unincorporated
	}
	
}