﻿special_genes = {
	accessory_genes = {


	#####################################
	#									#
	# 			   HEADGEAR 			#
	#									#
	#####################################

		headgear = {
			inheritable = no
			
			all_headgear = {
				index = 0
				male = {
					1 = male_headgear_european_military_03
					1 = male_headgear_european_military_05
				}

				female = {
					1 = empty
				}
				boy = male
				girl = female
			}		

			no_headgear = {
				index = 1
				male = {
					1 = empty
				}		   
				female = male
				boy = male
				girl = male
			}	 

			generic_headgear = {
				index = 2
				male = {
					2 = empty
					1 = male_headgear_european_military_03
					1 = male_headgear_european_military_05
				}

				female = {
				}
				boy = male
				girl = female
			}	 



	## AFRICAN ##

	## Common ##

			african_common_headgear = {
				index = 3
				male = {
					2 = male_headgear_african_common_01
					2 = male_headgear_african_common_02
			
				}

				female = {
					1 = female_headgear_african_common_01
				}
				boy = male
				girl = female
			}


	## ARABIC ##

	## Common ##

			arabic_turban = {
				index = 4
				male = {
					1 = male_headgear_arabic_common_02
				}

				female = {
					1 = female_headgear_arabic_common_02
					1 = female_headgear_arabic_common_03
				}
				boy = male
				girl = female
			}	


			arabic_fez = {
				index = 5
				male = {
					1 = male_headgear_arabic_common_01
				}

				female = {
					1 = female_headgear_arabic_common_01
				}
				boy = male
				girl = female
			}

			arabic_low_tier = {
				index = 6
				male = {
					
				}

				female = {
					1 = female_headgear_arabic_low_tier_01
				}
				boy = male
				girl = female
			}

	arabic_middle_tier = {
				index = 7
				male = {
					
				}

				female = {
				#	no more niqab/burkha				
				#	1 = female_headgear_arabic_middle_tier_01
				}
				boy = male
				girl = female
			}

	## Military ##

			arabic_military_headgear = {
				index = 8
				male = {
					1 = male_headgear_arabic_military_01
				}

				female = {
					1 = empty
				}
				boy = male
				girl = female
			}

	## CHINESE ##

	## Common ##

			chinese_common_headgear = {
				index = 9
				male = {
					1 = male_headgear_chinese_common_01
					1 = male_headgear_chinese_common_02
				}

				female = {
#					1 = male_headgear_chinese_common_02
				}
				boy = male
				girl = female
			}


	## Imperial ##

			chinese_imperial_headgear = {
				index = 10
				male = {
					1 = male_headgear_chinese_imperial_01
					
				}

				female = {
				#	1 = female_headgear_arabic_common_01
				}
				boy = male
				girl = female
			}



	## ETHIPOIAN ##

	## Royal ##

			ethiopian_royal_headgear = {
				index = 11
				male = {
					1 = male_headgear_ethiopian_royal_01
				}

				female = {
				#	1 = female_headgear_arabic_common_01
				}
				boy = male
				girl = female
			}


	## Central Asian ##

			central_asian = {
				index = 12
				male = {
					1 = male_headgear_central_asian_01_low
					1 = male_headgear_central_asian_01_high
				}

				female = {
					1 = female_headgear_central_asian_01_low
				}
				boy = male
				girl = female
			}


	## EUROPEAN ##

	## Common ##

			european_common_headgear = {
				index = 13
				male = {
					1 = male_headgear_european_common_01
					1 = male_headgear_european_common_02
					#1 = male_headgear_european_common_03
				}

				female = {
					1 = female_headgear_european_common_01
				}
				boy = male
				girl = female
			}	

			european_tophat = {
				index = 14
				male = {
					1 = male_headgear_european_common_02
				
				}

				female = {

				}
				boy = male
				girl = female
			}	

			european_bowlerhat = {
				index = 15
				male = {
					1 = empty
					1 = male_headgear_european_common_01
				}

				female = {
					1 = female_headgear_european_common_01				
				}
				boy = male
				girl = female
			}	

			european_flatcap = {
				index = 16
				male = {
					1 = male_headgear_european_common_03
				}

				female = {
				}
				boy = male
				girl = female
			}

			european_strawhat = {
				index = 17
				male = {
					1 = empty
					1 = male_prop_straw_hat
				}

				female = {
				}
				boy = male
				girl = female
			}


	## Military ##

			european_military_headgear = {

				index = 18

				male = {
					1 = male_headgear_european_military_02
					1 = male_headgear_european_military_03
					1 = male_headgear_european_military_08
					1 = male_headgear_european_military_09
					1 = male_headgear_european_military_10
				
				}

				female = {
	#					1 = female_headgear_arabic_common_01
				}
				boy = male
				girl = female
			}

			european_admiral_headgear = {
				index = 19


				male = {
					1 = male_headgear_european_military_05
				
				
				}

				female = {
	#					1 = female_headgear_arabic_common_01
				}
				boy = male
				girl = female
			}


			american_military_headgear = {

				index = 20

				male = {
					1 = 0
					2 = male_headgear_european_military_01
					1 = male_headgear_european_military_06
					1 = male_headgear_european_military_late_06
				}

				female = {
					#
				}
				boy = male
				girl = female
			}


	## Royal ##

			european_royal_headgear = {

				index = 21

				male = {
#						1 = male_headgear_european_royal_01
				
				
				}

				female = {
					1 = female_headgear_european_royal_01
				}
				boy = male
				girl = female
			}	

	## Religious ##

			european_Catholic_headgear = {

				index = 22

				male = {
					1 = male_headgear_european_religious_catholic_01			
				}

				female = {
#					1 = female_headgear_european_royal_01
				}
				boy = male
				girl = female
			}	



	## INDIAN ##

	## Common ##

			indian_common_headgear = {


				index = 23


				male = {
					2 = male_headgear_indian_common_01
				}

				female = {
					1 = empty
				}
				boy = male
				girl = female
			}	

	## High ##

			indian_high_headgear = {


				index = 24


				male = {
					
				}

				female = {
					1 = female_headgear_indian_high_01
				}
				boy = male
				girl = female
			}	

	## Royal ##

			indian_royal_headgear = {

				index = 25

				male = {
					2 = male_headgear_indian_royal_01
				}

				female = {
					1 = empty
				}
				boy = male
				girl = female
			}

		


	## JAPANESE ##

	## Common ##

			Japanese_common_headgear = {

				index = 26


				male = {
					1 = empty
					1 = male_headgear_japanese_common_01
				}

				female = {
					1 = empty
				}
				boy = male
				girl = female
			}	

			Japanese_imperial_headgear = {

				index = 27


				male = {
					2 = male_headgear_japanese_imperial_01
				}

				female = {
					1 = empty
				}
				boy = male
				girl = female
			}	



	## NATIVE AMERICAN ##

	## Common ##

			native_american_common_headgear = {

				index = 28

				male = {
					
					1 = male_headgear_native_american_common_01
					10 = empty
				}

				female = {
					1 = empty
				}
				boy = male
				girl = female
			}

		## HIGH ##

			native_american_high_headgear = {

				index = 29

				male = {
					2 = male_headgear_native_american_01_high
				}

				female = {
					1 = empty
				}
				boy = male
				girl = female
			}


	## Additional Country-Specific headgear ##
			french_military_headgear = {

				index = 30

				male = {
					1 = 0
					9 = male_headgear_european_military_02_red
					1 = male_headgear_european_military_05
				}

				female = {
					#
				}
				boy = male
				girl = female
			}

			british_military_headgear = {

				index = 31

				male = {
					1 = 0
					1 = male_headgear_european_military_08
					2 = male_headgear_european_military_05
				}

				female = {
					#
				}
				boy = male
				girl = female
			}

			german_military_headgear = {

				index = 32

				male = {
					1 = 0
					4 = male_headgear_european_military_03
					5 = male_headgear_european_military_10
				}

				female = {
					#
				}
				boy = male
				girl = female
			}

			academic_cap = {

				index = 33

				male = {
					1 = academic_cap
				}

				female = {
					
				}
				boy = male
				girl = female
			}

			male_prop_straw_hat = {

				index = 34

				male = {
					1 = male_prop_straw_hat
					1 = 0
				}

				female = {
					
				}
				boy = male
				girl = female
			}

			mongolian_hats = {
				index = 35
				male = {
					1 = male_headgear_central_asian_01_low
					1 = male_headgear_central_asian_01_high
				}

				female = {
					1 = female_headgear_central_asian_01_low
					1 = female_headgear_central_asian_01_high
				}
				boy = male
				girl = female
			}

			american_confederate_military_headgear = {

				index = 36

				male = {
					#1 = 0
					2 = male_headgear_european_military_01_grey
				}

				female = {
					#
				}
				boy = male
				girl = female
			}

			arabic_military_fez = {
				index = 37
				male = {
					1 = male_headgear_arabic_common_01
				}

				female = {
					1 = female_headgear_arabic_low_tier_01
				}
				boy = male
				girl = female
			}

			european_headgear_agitators = {

				index = 38

				male = {
					
					1 = male_headgear_european_agitator_01
				}

				female = {
					1 = female_headgear_european_agitator_01
					1 = female_headgear_european_agitator_02
				}
				boy = male
				girl = female
			}

			south_american_headgear_agitators = {

				index = 39

				male = {
					
					1 = male_headgear_south_american_agitator_01
				}

				female = {
					#
				}
				boy = male
				girl = female
			}

			arabic_headgear_agitators = {

				index = 40

				male = {
					
					1 = male_headgear_arabic_agitator_01
				}

				female = {
					1 = female_headgear_arabic_common_03
				}
				boy = male
				girl = female
			}

			korean_headgear_agitators = {

				index = 41

				male = {
					
					1 = male_headgear_korean_agitator_01
				}

				female = {
					#
				}
				boy = male
				girl = female
			}

			japanese_headgear_agitators = {

				index = 42

				male = {
					
					1 = male_headgear_japanese_agitator_01
				}

				female = {
					#
				}
				boy = male
				girl = female
			}

			slavic_headgear_agitator_lenin = {

				index = 43

				male = {
					1 = male_headgear_slavic_agitator_lenin
				}

				female = {
					#
				}
				boy = male
				girl = female
			}


			female_headgear_agitator_pankhurst = {

				index = 44

				male = {
					#
				}

				female = {
					1 = female_headgear_agitator_pankhurst
				}
				boy = male
				girl = female
			}

			female_headgear_slavic_kokoshnik = {

				index = 45

				male = {
					1 = male_headgear_european_common_02
				}

				female = {
					1 = female_headgear_slavic_kokoshnik_01
				}
				boy = male
				girl = female
			}

			female_headgear_slavic_midsummer = {

				index = 46

				male = {
					#
				}

				female = {
				
					1 = female_headgear_slavic_midsummer_01
				}
				boy = male
				girl = female
			}


			male_headgear_carnaval_pierrot = {

				index = 47

				male = {
					1 = male_headgear_european_carnaval_pierrot_01
				}

				female = {
					#
				}
				boy = male
				girl = female
			}

			male_headgear_gaucho_ = {

				index = 48

				male = {
					1 = male_headgear_south_american_gaucho_01
				}

				female = {
				
					1 = female_headgear_south_american_gaucho_01
				}
				boy = male
				girl = female
			}

			european_military_02_colors = {

				index = 49

				male = {
					1 = male_headgear_european_military_02_black
					1 = male_headgear_european_military_02_blue
					1 = male_headgear_european_military_02_red
				}

				female = {
					#
				}
				boy = male
				girl = female
			}
			russian_military_headgear = {

				index = 50

				male = {
					1 = empty
					1 = male_headgear_european_military_03_russian
					1 = male_headgear_russian_military_01
					1 = male_headgear_european_military_03_late_russian
				}

				female = {
					#
				}
				boy = male
				girl = female
			}

			brazilian_military_headgear = {
				index = 51

				male = {
					1 = male_headgear_european_military_02_blue
					1 = male_headgear_european_military_01
					1 = male_prop_straw_hat
				}

				female = {
					#
				}
				boy = male
				girl = female
			}

			brazil_bahiana_headgear = {

				index = 52

				male = {
					1 = empty
				}

				female = {
					1 = empty
					2 = female_headgear_african_common_01
				}
				boy = male
				girl = female
			}


			arabic_turban_mohammad_khan = {
				index = 53
				male = {
					1 = male_headgear_arabic_mohammad_khan_01
				}

				female = {
					1 = female_headgear_arabic_common_02
									}
				boy = male
				girl = female
			}	

			
			korean_empire_military_headgear = {

				index = 54

				male = {
					2 = empty
					2 = male_headgear_european_military_02_korean
				}

				female = {
					#
				}
				boy = male
				girl = female
			}
			
			arabic_naser_qajar = {

			index = 55
				male = {
					1 = male_headgear_arabic_naser_qajar_01
				}

				female = {
					1 = female_headgear_arabic_common_02
									}
				boy = male
				girl = female
			}	

			european_late_military_headgear = {
				index = 56

				male = {
					1 = male_headgear_european_military_cap_01
					1 = male_headgear_european_military_cap_french_01				
				}

				female = {
					#
				}

				boy = male
				girl = female
			}	

			reza_shah_pahlavi_cap = {

				index = 57

				male = {
					1 = reza_shah_pahlavi_cap
				
				}

				female = {
					1 = female_headgear_arabic_common_01
				}
				boy = male
				girl = female
			}


			arabic_landowners_hat = {

				index = 58

				male = {
					1 = male_headgear_arabic_landowners_01

				}

				female = {
					1 = female_headgear_arabic_common_01
				}
				boy = male
				girl = female
			}

			male_headgear_arabic_sattar_khan = {

				index = 59

				male = {
					1 = male_headgear_arabic_sattar_khan

				}

				female = {
					1 = female_headgear_arabic_common_01
				}
				boy = male
				girl = female
			}

			male_headgear_arabic_royal_01 = {

				index = 60

				male = {
					1 = male_headgear_arabic_royal_01
				}

				female = {
					#
				}
				boy = male
				girl = female
			}




			abdul_hamid_ii_fez = {
				index = 61
				male = {
					1 = male_headgear_arabic_abdul_hamid_ii_fez
				}

				female = {
					1 = female_headgear_arabic_common_01
				}
				boy = male
				girl = female
			}


			female_headgear_european_common_02 = {
				index = 62
				male = {
					1 = male_headgear_arabic_abdul_hamid_ii_fez
				}

				female = {
					1 = female_headgear_european_common_02

					
				}	
				boy = male
				girl = female
			}

			zulu_impi_headgear = {
				index = 63
				male = {
					1 = male_headgear_zulu_impi_01
					1 = male_headgear_zulu_impi_02
				}

				female = {
				}
				boy = male
				girl = female
			}

			gb_01 = {
				index = 64
				male = {
					1 = male_headgear_european_gb_01
					
				}

				female = {
					#
				}
				boy = male
				girl = female
			}
			

			vivandiere_headgear = {
				index = 65

				male = {
					1 = male_headgear_european_military_cap_01
				
				}

				female = {
					1 = female_headgear_vivandiere_01
				}

				boy = male
				girl = female
			}	

			russian_military_01 = {
				index = 66

				male = {
					1 = male_headgear_russian_military_01

				}

				female = {
					1 = female_headgear_vivandiere_01
				}

				boy = male
				girl = female
			}

			cossack_headgear = {

				index = 67

				male = {
					1 = male_headgear_european_cossack_01
				}

				female = {
					#
				}
				boy = male
				girl = female
			}
			
			black_cap = {

				index = 68

				male = {
					1 = male_headgear_slavic_agitator_mexican_american_cap
				}

				female = {
					#
				}
				boy = male
				girl = female
			}

			crown = {

				index = 69

				male = {
					#
				}

				female =  {
					1 = female_headgear_power_blocks_01
				}
				boy = male
				girl = female
			}

			catholic_clergy_headgear = {

				index = 70

				male = {
					1 = 0
					1 = male_headgear_dark_straw_hat
					1 = male_headgear_european_religious_catholic_02
				}

				female =  {
					#
				}
				boy = male
				girl = female
			}

			late_military_cap = {
				index = 71

				male = {
					1 = male_headgear_european_late_military_04
				
				}

				female = {
					1 = female_headgear_vivandiere_01
				}

				boy = male
				girl = female
			}
			
			
			
			
	## GNOME##

	## Common ##

			gnomish_common_headgear = {


				index = 72


				male = {
					1 = male_headgear_gnome_hat_01
					1 = male_headgear_gnome_hat_02
					1 = male_headgear_gnome_hat_03
					1 = male_headgear_gnome_hat_04
				}

				female = {
					1 = male_headgear_gnome_hat_01
					1 = male_headgear_gnome_hat_02
					1 = male_headgear_gnome_hat_03
					1 = male_headgear_gnome_hat_04
				}
				boy = male
				girl = female
			}
			
	## Frontier ##

			gnomish_frontier_headgear = {


				index = 73


				male = {
					1 = male_headgear_frontier_hat_01
					1 = male_headgear_frontier_hat_02
					1 = male_headgear_frontier_hat_03
				}

				female = {
					1 = male_headgear_frontier_hat_01
					1 = male_headgear_frontier_hat_02
					1 = male_headgear_frontier_hat_03
				}
				boy = male
				girl = female
			}

	## DWARVEN ##

     ## Kronium ##

			dwarven_kronium_headgear = {


				index = 74


				male = {
					1 = male_headgear_dwarven_kronium

				}

				female = {
					1 = empty
				}
				boy = male
				girl = female
			}

	  ## Basalt ##

			dwarven_basalt_headgear = {


				index = 75


				male = {
					1 = male_headgear_dwarven_basalt

				}

				female = {
					1 = empty
				}
				boy = male
				girl = female
			}
	  ## Gold ##

			dwarven_gold_headgear = {


				index = 76


				male = {
					1 = male_headgear_dwarven_gold

				}

				female = {
					1 = empty
				}
				boy = male
				girl = female
			}
			
	  ## Obsidian ##

			dwarven_obsidian_headgear = {


				index = 77


				male = {
					1 = male_headgear_dwarven_obsidian

				}

				female = {
					1 = empty
				}
				boy = male
				girl = female
			}
			
	## WIZARDS ##

     ## Common ##

			wizard_headgear = {


				index = 78


				male = {
					1 = male_headgear_wizard_hat

				}

				female = {
					1 = male_headgear_wizard_hat
				}
				boy = male
				girl = female
			}		
		}
	}
}
